interaction/bitriquat/bitriquatAref.vcd
$date
	Sat Aug  8 09:54:38 2015
$end
$version
	Icarus Verilog
$end
$timescale
	1ps
$end
$scope module bitriquatA $end
$var wire 2 ! biin [1:0] $end
$var wire 1 " bt01 $end
$var wire 1 # bt02 $end
$var wire 1 $ bt10 $end
$var wire 1 % bt11 $end
$var wire 1 & quatcomp $end
$var wire 1 ' quatenable $end
$var wire 4 ( quatout [3:0] $end
$var wire 3 ) triin [2:0] $end
$var reg 1 * init $end
$scope module TB1 $end
$var wire 3 + A [2:0] $end
$var wire 1 , ACOMP $end
$var wire 3 - B [2:0] $end
$var wire 1 . BCOMP $end
$var wire 3 / C [2:0] $end
$var wire 1 0 CCOMP $end
$var wire 1 1 CCOMP2 $end
$var wire 3 2 D [2:0] $end
$var wire 1 3 DCOMP $end
$var wire 1 & TCOMP $end
$var wire 1 4 init $end
$scope module u1 $end
$var wire 3 5 A [2:0] $end
$var wire 1 , ACOMP $end
$var wire 3 6 Z [2:0] $end
$var wire 1 . ZCOMP $end
$var wire 1 7 enable $end
$var wire 1 4 init $end
$scope module u0 $end
$var wire 1 . A $end
$var wire 1 4 B $end
$var wire 1 7 Z $end
$upscope $end
$scope module u1 $end
$var wire 1 8 A $end
$var wire 1 7 B $end
$var wire 1 4 C $end
$var wire 1 9 Z $end
$upscope $end
$scope module u2 $end
$var wire 1 : A $end
$var wire 1 7 B $end
$var wire 1 ; Z $end
$upscope $end
$scope module u3 $end
$var wire 1 < A $end
$var wire 1 7 B $end
$var wire 1 = Z $end
$upscope $end
$scope module u5 $end
$var wire 1 > A $end
$var wire 1 ? B $end
$var wire 1 @ C $end
$var wire 1 , Z $end
$upscope $end
$upscope $end
$scope module u2 $end
$var wire 3 A A [2:0] $end
$var wire 1 . ACOMP $end
$var wire 3 B Z [2:0] $end
$var wire 1 1 ZCOMP $end
$var wire 1 C enable $end
$var wire 1 4 init $end
$scope module u0 $end
$var wire 1 1 A $end
$var wire 1 4 B $end
$var wire 1 C Z $end
$upscope $end
$scope module u1 $end
$var wire 1 D A $end
$var wire 1 C B $end
$var wire 1 E Z $end
$upscope $end
$scope module u2 $end
$var wire 1 F A $end
$var wire 1 C B $end
$var wire 1 G Z $end
$upscope $end
$scope module u3 $end
$var wire 1 H A $end
$var wire 1 C B $end
$var wire 1 I Z $end
$upscope $end
$scope module u5 $end
$var wire 1 J A $end
$var wire 1 K B $end
$var wire 1 L C $end
$var wire 1 . Z $end
$upscope $end
$upscope $end
$scope module u3 $end
$var wire 3 M A [2:0] $end
$var wire 1 0 ACOMP $end
$var wire 3 N Z [2:0] $end
$var wire 1 3 ZCOMP $end
$var wire 1 O enable $end
$var wire 1 4 init $end
$scope module u0 $end
$var wire 1 3 A $end
$var wire 1 4 B $end
$var wire 1 O Z $end
$upscope $end
$scope module u1 $end
$var wire 1 P A $end
$var wire 1 O B $end
$var wire 1 Q Z $end
$upscope $end
$scope module u2 $end
$var wire 1 R A $end
$var wire 1 O B $end
$var wire 1 S Z $end
$upscope $end
$scope module u3 $end
$var wire 1 T A $end
$var wire 1 O B $end
$var wire 1 U Z $end
$upscope $end
$scope module u5 $end
$var wire 1 V A $end
$var wire 1 W B $end
$var wire 1 X C $end
$var wire 1 0 Z $end
$upscope $end
$upscope $end
$scope module u4 $end
$var wire 3 Y A [2:0] $end
$var wire 1 3 ACOMP $end
$var wire 3 Z Z [2:0] $end
$var wire 1 , ZCOMP $end
$var wire 1 [ enable $end
$var wire 1 4 init $end
$scope module u0 $end
$var wire 1 , A $end
$var wire 1 [ Z $end
$upscope $end
$scope module u1 $end
$var wire 1 \ A $end
$var wire 1 [ B $end
$var wire 1 4 C $end
$var wire 1 ] Z $end
$upscope $end
$scope module u2 $end
$var wire 1 ^ A $end
$var wire 1 [ B $end
$var wire 1 4 C $end
$var wire 1 _ Z $end
$upscope $end
$scope module u3 $end
$var wire 1 ` A $end
$var wire 1 [ B $end
$var wire 1 4 C $end
$var wire 1 a Z $end
$upscope $end
$scope module u5 $end
$var wire 1 b A $end
$var wire 1 c B $end
$var wire 1 d C $end
$var wire 1 3 Z $end
$upscope $end
$upscope $end
$scope module u5 $end
$var wire 1 0 A $end
$var wire 1 & B $end
$var wire 1 1 Z $end
$upscope $end
$upscope $end
$scope module TB2 $end
$var wire 2 e A [1:0] $end
$var wire 1 f ACOMP $end
$var wire 2 g B [1:0] $end
$var wire 1 h BCOMP $end
$var wire 2 i C [1:0] $end
$var wire 1 j CCOMP $end
$var wire 1 k CCOMP2 $end
$var wire 2 l D [1:0] $end
$var wire 1 m DCOMP $end
$var wire 1 & TCOMP $end
$var wire 1 4 init $end
$scope module u1 $end
$var wire 2 n A [1:0] $end
$var wire 1 f ACOMP $end
$var wire 2 o Z [1:0] $end
$var wire 1 h ZCOMP $end
$var wire 1 p enable $end
$var wire 1 4 init $end
$scope module u0 $end
$var wire 1 h A $end
$var wire 1 4 B $end
$var wire 1 p Z $end
$upscope $end
$scope module u1 $end
$var wire 1 q A $end
$var wire 1 p B $end
$var wire 1 4 C $end
$var wire 1 r Z $end
$upscope $end
$scope module u2 $end
$var wire 1 s A $end
$var wire 1 p B $end
$var wire 1 t Z $end
$upscope $end
$scope module u5 $end
$var wire 1 u A $end
$var wire 1 v B $end
$var wire 1 f Z $end
$upscope $end
$upscope $end
$scope module u2 $end
$var wire 2 w A [1:0] $end
$var wire 1 h ACOMP $end
$var wire 2 x Z [1:0] $end
$var wire 1 k ZCOMP $end
$var wire 1 y enable $end
$var wire 1 4 init $end
$scope module u0 $end
$var wire 1 k A $end
$var wire 1 4 B $end
$var wire 1 y Z $end
$upscope $end
$scope module u1 $end
$var wire 1 z A $end
$var wire 1 y B $end
$var wire 1 { Z $end
$upscope $end
$scope module u2 $end
$var wire 1 | A $end
$var wire 1 y B $end
$var wire 1 } Z $end
$upscope $end
$scope module u5 $end
$var wire 1 ~ A $end
$var wire 1 !" B $end
$var wire 1 h Z $end
$upscope $end
$upscope $end
$scope module u3 $end
$var wire 2 "" A [1:0] $end
$var wire 1 j ACOMP $end
$var wire 2 #" Z [1:0] $end
$var wire 1 m ZCOMP $end
$var wire 1 $" enable $end
$var wire 1 4 init $end
$scope module u0 $end
$var wire 1 m A $end
$var wire 1 4 B $end
$var wire 1 $" Z $end
$upscope $end
$scope module u1 $end
$var wire 1 %" A $end
$var wire 1 $" B $end
$var wire 1 &" Z $end
$upscope $end
$scope module u2 $end
$var wire 1 '" A $end
$var wire 1 $" B $end
$var wire 1 (" Z $end
$upscope $end
$scope module u5 $end
$var wire 1 )" A $end
$var wire 1 *" B $end
$var wire 1 j Z $end
$upscope $end
$upscope $end
$scope module u4 $end
$var wire 2 +" A [1:0] $end
$var wire 1 m ACOMP $end
$var wire 2 ," Z [1:0] $end
$var wire 1 f ZCOMP $end
$var wire 1 -" enable $end
$var wire 1 4 init $end
$scope module u0 $end
$var wire 1 f A $end
$var wire 1 -" Z $end
$upscope $end
$scope module u1 $end
$var wire 1 ." A $end
$var wire 1 -" B $end
$var wire 1 4 C $end
$var wire 1 /" Z $end
$upscope $end
$scope module u2 $end
$var wire 1 0" A $end
$var wire 1 -" B $end
$var wire 1 4 C $end
$var wire 1 1" Z $end
$upscope $end
$scope module u5 $end
$var wire 1 2" A $end
$var wire 1 3" B $end
$var wire 1 m Z $end
$upscope $end
$upscope $end
$scope module u5 $end
$var wire 1 j A $end
$var wire 1 & B $end
$var wire 1 k Z $end
$upscope $end
$upscope $end
$scope module u2 $end
$var wire 1 4" A $end
$var wire 1 5" B $end
$var wire 1 " Z $end
$upscope $end
$scope module u3 $end
$var wire 1 6" A $end
$var wire 1 7" B $end
$var wire 1 # Z $end
$upscope $end
$scope module u4 $end
$var wire 1 8" A $end
$var wire 1 9" B $end
$var wire 1 $ Z $end
$upscope $end
$scope module u5 $end
$var wire 1 :" A $end
$var wire 1 ;" B $end
$var wire 1 % Z $end
$upscope $end
$scope module o0 $end
$var wire 1 & A $end
$var wire 1 4 B $end
$var wire 1 ' Z $end
$upscope $end
$scope module o1 $end
$var wire 1 <" A $end
$var wire 1 =" B $end
$var wire 1 ' C $end
$var wire 1 >" Z $end
$upscope $end
$scope module o2 $end
$var wire 1 ' A $end
$var wire 1 $ B $end
$var wire 1 " C $end
$var wire 1 ?" Z $end
$upscope $end
$scope module o3 $end
$var wire 1 ' A $end
$var wire 1 % B $end
$var wire 1 # C $end
$var wire 1 @" Z $end
$upscope $end
$scope module o4 $end
$var wire 1 A" A $end
$var wire 1 B" B $end
$var wire 1 ' C $end
$var wire 1 C" Z $end
$upscope $end
$scope module u10 $end
$var wire 1 D" A $end
$var wire 1 E" B $end
$var wire 1 F" C $end
$var wire 1 G" D $end
$var wire 1 & Z $end
$upscope $end
$upscope $end
$enddefinitions $end
#0
$dumpvars
zG"
zF"
zE"
zD"
zC"
zB"
zA"
z@"
z?"
z>"
z="
z<"
z;"
z:"
z9"
z8"
z7"
z6"
z5"
z4"
z3"
z2"
z1"
z0"
z/"
z."
z-"
bz ,"
bz +"
z*"
z)"
z("
z'"
z&"
z%"
z$"
bz #"
bz ""
z!"
z~
z}
z|
z{
zz
zy
bz x
bz w
zv
zu
zt
zs
zr
zq
zp
bz o
bz n
zm
bz l
zk
zj
bz i
zh
bz g
zf
bz e
zd
zc
zb
za
z`
z_
z^
z]
z\
z[
bz Z
bz Y
zX
zW
zV
zU
zT
zS
zR
zQ
zP
zO
bz N
bz M
zL
zK
zJ
zI
zH
zG
zF
zE
zD
zC
bz B
bz A
z@
z?
z>
z=
z<
z;
z:
z9
z8
z7
bz 6
bz 5
14
z3
bz 2
z1
z0
bz /
z.
bz -
z,
bz +
1*
bz )
bz (
z'
z&
z%
z$
z#
z"
bz !
$end
#20
x?
xF
x@
xH
x9"
x="
xJ
xR
x5"
x;"
xK
xT
x7"
xB"
xL
xP
xV
x\
xW
x^
xX
x`
xv
x|
x4"
x6"
x<"
x~
x'"
x8"
x:"
xA"
x!"
x%"
x)"
x."
x*"
x0"
xD"
xE"
xF"
xG"
x;
x=
bxz -
bxz 6
bxz A
xE
xG
xI
bx )
bx /
bx B
bx M
xQ
xS
xU
bx 2
bx N
bx Y
xt
bxz g
bxz o
bxz w
x{
x}
bx !
bx i
bx x
bx ""
x&"
x("
bx l
bx #"
bx +"
x>"
x?"
x@"
xC"
bx (
07
0C
0O
0p
0y
0$"
0'
#30
0s
03"
1q
12"
0u
0z
0<
0d
0:
0c
18
1b
0>
0D
0%
0$
0#
0"
0k
01"
1/"
b1 e
b1 n
b1 ,"
0r
bx0 g
bx0 o
bx0 w
01
0a
0_
1]
b1 +
b1 5
b1 Z
09
bx0 -
bx0 6
bx0 A
#60
0v
0|
04"
06"
0<"
0~
0'"
0@
0H
0?
0F
09"
0="
0J
0R
0t
b0 g
b0 o
b0 w
1m
0{
bx0 !
bx0 i
bx0 x
bx0 ""
0=
0;
b0 -
b0 6
b0 A
0E
bx0 )
bx0 /
bx0 B
bx0 M
#70
0F"
0E"
13
0@"
0?"
bx00x (
#90
08"
0:"
0A"
0!"
0%"
0*"
00"
07"
0B"
0L
0P
05"
0;"
0K
0T
0W
0^
0f
0}
b0 !
b0 i
b0 x
b0 ""
x"
x#
0("
b0x l
b0x #"
b0x +"
0I
0G
b0 )
b0 /
b0 B
b0 M
x$
0S
bx0x 2
bx0x N
bx0x Y
#100
0D"
0>"
bx000 (
0,
#110
1-"
#120
0)"
0."
0V
0\
0X
0`
1[
0$
0h
0&"
b0 l
b0 #"
b0 +"
0#
0Q
0"
0U
b0 2
b0 N
b0 Y
#130
0G"
0C"
b0 (
0.
#150
0j
#160
00
#180
xk
0&
#210
0k
#1000
0*
04
#1020
17
1C
1p
1y
1'
#1050
1>
1D
1u
1z
19
b1 -
b1 6
b1 A
1r
b1 g
b1 o
b1 w
#1080
19"
1="
1J
1R
14"
16"
1<"
1~
1'"
1E
b1 )
b1 /
b1 B
b1 M
1f
1{
b1 !
b1 i
b1 x
b1 ""
#1090
1,
#1100
0-"
#1110
0[
1h
#1120
1D"
1>"
b1 (
1.
#1130
0q
02"
0p
0/"
b0 e
b0 n
b0 ,"
#1140
08
0b
07
0]
b0 +
b0 5
b0 Z
#1160
0u
0z
0r
b0 g
b0 o
b0 w
0m
#1170
0>
0D
09
b0 -
b0 6
b0 A
1&
#1180
1$"
03
#1190
0'
0f
#1200
1O
#1210
1*"
10"
1-"
1("
b10 l
b10 #"
b10 +"
0,
#1230
1W
1^
1[
1S
b10 2
b10 N
b10 Y
#1240
1s
13"
1j
11"
b10 e
b10 n
b10 ,"
#1260
1:
1c
1_
b10 +
b10 5
b10 Z
#1270
1m
1k
10
#1290
0$"
0y
#1300
11
13
#1320
04"
06"
0<"
0~
0'"
0C
0O
0{
b0 !
b0 i
b0 x
b0 ""
#1350
0*"
00"
09"
0="
0J
0R
0h
0("
b0 l
b0 #"
b0 +"
0E
b0 )
b0 /
b0 B
b0 M
#1370
1p
#1380
0W
0^
0j
0S
b0 2
b0 N
b0 Y
#1390
0D"
0>"
b0 (
0.
#1400
1v
1|
1t
b10 g
b10 o
b10 w
#1410
17
#1420
00
#1430
1f
#1440
1?
1F
1;
b10 -
b10 6
b10 A
0&
#1450
0-"
#1460
1'
#1470
0k
01
#1480
0s
03"
01"
b0 e
b0 n
b0 ,"
1,
#1490
1y
1C
#1500
0[
#1510
0m
#1520
18"
1:"
1A"
1!"
1%"
15"
1;"
1K
1T
1}
b10 !
b10 i
b10 x
b10 ""
1G
b10 )
b10 /
b10 B
b10 M
#1530
0:
0c
1$"
0_
b0 +
b0 5
b0 Z
#1550
1%
1h
#1560
1)"
1."
1&"
b1 l
b1 #"
b1 +"
1.
#1570
0p
03
#1580
07
#1590
1F"
1O
1j
1@"
b100 (
#1600
0v
0|
0t
b0 g
b0 o
b0 w
#1610
0?
0F
0;
b0 -
b0 6
b0 A
#1620
1X
1`
1U
b100 2
b100 N
b100 Y
#1630
0f
#1640
1&
#1650
1-"
0,
#1660
0'
10
#1670
1[
1k
#1680
1q
12"
1/"
b1 e
b1 n
b1 ,"
#1690
0y
11
#1700
1<
1d
1a
b100 +
b100 5
b100 Z
#1710
0C
1m
#1720
08"
0:"
0A"
0!"
0%"
0}
b0 !
b0 i
b0 x
b0 ""
#1730
0$"
#1740
05"
0;"
0K
0T
0G
b0 )
b0 /
b0 B
b0 M
13
#1750
0h
#1760
0)"
0."
0O
0&"
b0 l
b0 #"
b0 +"
#1770
1p
0%
#1780
0.
#1790
0X
0`
0j
0U
b0 2
b0 N
b0 Y
#1800
1u
1z
17
1r
b1 g
b1 o
b1 w
#1810
0F"
0@"
b0 (
#1830
1@
1H
1f
1=
b100 -
b100 6
b100 A
00
#1850
0-"
#1860
0&
#1870
1,
#1880
0q
02"
1'
0/"
b0 e
b0 n
b0 ,"
#1890
0[
0k
01
#1910
1y
1C
0m
#1920
0<
0d
0a
b0 +
b0 5
b0 Z
#1930
1$"
#1940
14"
16"
1<"
1~
1'"
17"
1B"
1L
1P
1{
b1 !
b1 i
b1 x
b1 ""
1I
b100 )
b100 /
b100 B
b100 M
#1960
03
#1970
1*"
10"
1#
1h
1("
b10 l
b10 #"
b10 +"
#1980
1O
1.
#1990
0p
#2000
07
1j
#2010
1V
1\
1F"
1Q
b1 2
b1 N
b1 Y
1@"
b100 (
#2020
0u
0z
0r
b0 g
b0 o
b0 w
#2030
0@
0H
0=
b0 -
b0 6
b0 A
#2050
0f
10
#2060
1&
#2070
1-"
0,
#2080
0'
#2090
1[
1k
11
#2100
1s
13"
11"
b10 e
b10 n
b10 ,"
#2110
0y
0C
#2120
18
1b
1]
b1 +
b1 5
b1 Z
#2130
1m
#2140
04"
06"
0<"
0~
0'"
07"
0B"
0L
0P
0{
b0 !
b0 i
b0 x
b0 ""
0I
b0 )
b0 /
b0 B
b0 M
#2150
0$"
#2160
13
#2170
0#
0h
#2180
0*"
00"
0O
0("
b0 l
b0 #"
b0 +"
0.
#2190
1p
#2200
17
#2210
0V
0\
0F"
0j
0Q
b0 2
b0 N
b0 Y
0@"
b0 (
#2220
1v
1|
1t
b10 g
b10 o
b10 w
#2230
1>
1D
19
b1 -
b1 6
b1 A
#2250
1f
00
#2260
0&
#2270
0-"
1,
#2280
1'
#2290
0[
0k
01
#2300
0s
03"
01"
b0 e
b0 n
b0 ,"
#2310
1y
1C
#2320
08
0b
0]
b0 +
b0 5
b0 Z
#2330
0m
#2340
18"
1:"
1A"
1!"
1%"
19"
1="
1J
1R
1}
b10 !
b10 i
b10 x
b10 ""
1E
b1 )
b1 /
b1 B
b1 M
#2350
1$"
#2360
03
#2370
1$
1h
#2380
1)"
1."
1O
1&"
b1 l
b1 #"
b1 +"
1.
#2390
0p
#2400
07
#2410
1W
1^
1E"
1j
1S
b10 2
b10 N
b10 Y
1?"
b10 (
#2420
0v
0|
0t
b0 g
b0 o
b0 w
#2430
0>
0D
09
b0 -
b0 6
b0 A
#2450
0f
10
#2460
1&
#2470
1-"
0,
#2480
0'
#2490
1[
1k
11
#2500
1q
12"
1/"
b1 e
b1 n
b1 ,"
#2510
0y
0C
#2520
1:
1c
1_
b10 +
b10 5
b10 Z
#2530
1m
#2540
08"
0:"
0A"
0!"
0%"
09"
0="
0J
0R
0}
b0 !
b0 i
b0 x
b0 ""
0E
b0 )
b0 /
b0 B
b0 M
#2550
0$"
#2560
13
#2570
0$
0h
#2580
0)"
0."
0O
0&"
b0 l
b0 #"
b0 +"
0.
#2590
1p
#2600
17
#2610
0W
0^
0E"
0j
0S
b0 2
b0 N
b0 Y
0?"
b0 (
#2620
1u
1z
1r
b1 g
b1 o
b1 w
#2630
1?
1F
1;
b10 -
b10 6
b10 A
#2650
1f
00
#2660
0&
#2670
0-"
1,
#2680
1'
#2690
0[
0k
01
#2700
0q
02"
0/"
b0 e
b0 n
b0 ,"
#2710
1y
1C
#2720
0:
0c
0_
b0 +
b0 5
b0 Z
#2730
0m
#2740
14"
16"
1<"
1~
1'"
15"
1;"
1K
1T
1{
b1 !
b1 i
b1 x
b1 ""
1G
b10 )
b10 /
b10 B
b10 M
#2750
1$"
#2760
03
#2770
1"
1h
#2780
1*"
10"
1O
1("
b10 l
b10 #"
b10 +"
1.
#2790
0p
#2800
07
#2810
1X
1`
1E"
1j
1U
b100 2
b100 N
b100 Y
1?"
b10 (
#2820
0u
0z
0r
b0 g
b0 o
b0 w
#2830
0?
0F
0;
b0 -
b0 6
b0 A
#2850
0f
10
#2860
1&
#2870
1-"
0,
#2880
0'
#2890
1[
1k
11
#2900
1s
13"
11"
b10 e
b10 n
b10 ,"
#2910
0y
0C
#2920
1<
1d
1a
b100 +
b100 5
b100 Z
#2930
1m
#2940
04"
06"
0<"
0~
0'"
05"
0;"
0K
0T
0{
b0 !
b0 i
b0 x
b0 ""
0G
b0 )
b0 /
b0 B
b0 M
#2950
0$"
#2960
13
#2970
0"
0h
#2980
0*"
00"
0O
0("
b0 l
b0 #"
b0 +"
0.
#2990
1p
#3000
17
#3010
0X
0`
0E"
0j
0U
b0 2
b0 N
b0 Y
0?"
b0 (
#3020
1v
1|
1t
b10 g
b10 o
b10 w
#3030
1@
1H
1=
b100 -
b100 6
b100 A
#3050
1f
00
#3060
0&
#3070
0-"
1,
#3080
1'
#3090
0[
0k
01
#3100
0s
03"
01"
b0 e
b0 n
b0 ,"
#3110
1y
1C
#3120
0<
0d
0a
b0 +
b0 5
b0 Z
#3130
0m
#3140
18"
1:"
1A"
1!"
1%"
17"
1B"
1L
1P
1}
b10 !
b10 i
b10 x
b10 ""
1I
b100 )
b100 /
b100 B
b100 M
#3150
1$"
#3160
03
#3170
1h
#3180
1)"
1."
1G"
1O
1&"
b1 l
b1 #"
b1 +"
1C"
b1000 (
1.
#3190
0p
#3200
07
#3210
1V
1\
1j
1Q
b1 2
b1 N
b1 Y
#3220
0v
0|
0t
b0 g
b0 o
b0 w
#3230
0@
0H
0=
b0 -
b0 6
b0 A
1&
#3250
0'
0f
10
#3260
1k
#3270
1-"
0,
#3280
0y
11
#3290
1[
#3300
1q
12"
0C
1/"
b1 e
b1 n
b1 ,"
#3310
08"
0:"
0A"
0!"
0%"
0}
b0 !
b0 i
b0 x
b0 ""
#3320
18
1b
1]
b1 +
b1 5
b1 Z
#3330
07"
0B"
0L
0P
1m
0I
b0 )
b0 /
b0 B
b0 M
#3340
0h
#3350
0$"
#3360
1p
13
#3370
0G"
0C"
b0 (
0.
#3380
0)"
0."
0O
0&"
b0 l
b0 #"
b0 +"
#3390
1u
1z
17
1r
b1 g
b1 o
b1 w
#3410
0V
0\
0j
0Q
b0 2
b0 N
b0 Y
#3420
1>
1D
1f
19
b1 -
b1 6
b1 A
0&
#3440
0-"
1'
#3450
0k
00
#3460
1,
#3470
0q
02"
1y
0/"
b0 e
b0 n
b0 ,"
#3480
0[
01
#3500
14"
16"
1<"
1~
1'"
1C
0m
1{
b1 !
b1 i
b1 x
b1 ""
#3510
08
0b
0]
b0 +
b0 5
b0 Z
#3520
1$"
#3530
19"
1="
1J
1R
1h
1E
b1 )
b1 /
b1 B
b1 M
#3550
1*"
10"
0p
1("
b10 l
b10 #"
b10 +"
03
#3570
1D"
1O
1>"
b1 (
1.
#3580
0u
0z
1j
0r
b0 g
b0 o
b0 w
#3590
07
#3600
1W
1^
1S
b10 2
b10 N
b10 Y
#3610
0f
#3620
0>
0D
09
b0 -
b0 6
b0 A
1&
#3630
1-"
#3640
0'
10
#3650
1k
#3660
1s
13"
11"
b10 e
b10 n
b10 ,"
0,
#3670
0y
11
#3680
1[
#3690
0C
1m
#3700
04"
06"
0<"
0~
0'"
0{
b0 !
b0 i
b0 x
b0 ""
#3710
1:
1c
0$"
1_
b10 +
b10 5
b10 Z
#3720
09"
0="
0J
0R
0E
b0 )
b0 /
b0 B
b0 M
#3730
0h
#3740
0*"
00"
0("
b0 l
b0 #"
b0 +"
#3750
1p
13
#3760
0D"
0>"
b0 (
0.
#3770
0O
0j
#3780
1v
1|
17
1t
b10 g
b10 o
b10 w
#3800
0W
0^
0S
b0 2
b0 N
b0 Y
#3810
1?
1F
1f
1;
b10 -
b10 6
b10 A
0&
#3830
0-"
1'
#3840
0k
00
#3850
1,
#3860
0s
03"
1y
01"
b0 e
b0 n
b0 ,"
#3870
0[
01
#3890
18"
1:"
1A"
1!"
1%"
1C
0m
1}
b10 !
b10 i
b10 x
b10 ""
#3900
0:
0c
0_
b0 +
b0 5
b0 Z
#3910
1$"
#3920
15"
1;"
1K
1T
1h
1G
b10 )
b10 /
b10 B
b10 M
#3940
1)"
1."
0p
1&"
b1 l
b1 #"
b1 +"
03
#3950
1%
#3960
1O
1.
#3970
0v
0|
1j
0t
b0 g
b0 o
b0 w
#3980
07
#3990
1X
1`
1F"
1U
b100 2
b100 N
b100 Y
1@"
b100 (
#4000
0f
#4010
0?
0F
0;
b0 -
b0 6
b0 A
#4020
1-"
#4030
10
#4040
1&
#4050
1q
12"
1/"
b1 e
b1 n
b1 ,"
0,
#4060
0'
#4070
1[
1k
11
#4080
1m
#4090
0y
0C
#4100
1<
1d
0$"
1a
b100 +
b100 5
b100 Z
#4120
08"
0:"
0A"
0!"
0%"
05"
0;"
0K
0T
0}
b0 !
b0 i
b0 x
b0 ""
0G
b0 )
b0 /
b0 B
b0 M
#4140
13
#4150
0)"
0."
0%
0h
0&"
b0 l
b0 #"
b0 +"
#4160
0O
0.
#4170
1p
#4180
17
0j
#4190
0X
0`
0F"
0U
b0 2
b0 N
b0 Y
0@"
b0 (
#4200
1u
1z
1r
b1 g
b1 o
b1 w
#4210
1@
1H
1=
b100 -
b100 6
b100 A
#4230
1f
00
#4240
0&
#4250
0-"
1,
#4260
1'
#4270
0[
0k
01
#4280
0q
02"
0/"
b0 e
b0 n
b0 ,"
#4290
1y
1C
#4300
0<
0d
0a
b0 +
b0 5
b0 Z
#4310
0m
#4320
14"
16"
1<"
1~
1'"
17"
1B"
1L
1P
1{
b1 !
b1 i
b1 x
b1 ""
1I
b100 )
b100 /
b100 B
b100 M
#4330
1$"
#4340
03
#4350
1#
1h
#4360
1*"
10"
1O
1("
b10 l
b10 #"
b10 +"
1.
#4370
0p
#4380
07
#4390
1V
1\
1F"
1j
1Q
b1 2
b1 N
b1 Y
1@"
b100 (
#4400
0u
0z
0r
b0 g
b0 o
b0 w
#4410
0@
0H
0=
b0 -
b0 6
b0 A
#4430
0f
10
#4440
1&
#4450
1-"
0,
#4460
0'
#4470
1[
1k
11
#4480
1s
13"
11"
b10 e
b10 n
b10 ,"
#4490
0y
0C
#4500
18
1b
1]
b1 +
b1 5
b1 Z
#4510
1m
#4520
04"
06"
0<"
0~
0'"
07"
0B"
0L
0P
0{
b0 !
b0 i
b0 x
b0 ""
0I
b0 )
b0 /
b0 B
b0 M
#4530
0$"
#4540
13
#4550
0#
0h
#4560
0*"
00"
0O
0("
b0 l
b0 #"
b0 +"
0.
#4570
1p
#4580
17
#4590
0V
0\
0F"
0j
0Q
b0 2
b0 N
b0 Y
0@"
b0 (
#4600
1v
1|
1t
b10 g
b10 o
b10 w
#4610
1>
1D
19
b1 -
b1 6
b1 A
#4630
1f
00
#4640
0&
#4650
0-"
1,
#4660
1'
#4670
0[
0k
01
#4680
0s
03"
01"
b0 e
b0 n
b0 ,"
#4690
1y
1C
#4700
08
0b
0]
b0 +
b0 5
b0 Z
#4710
0m
#4720
18"
1:"
1A"
1!"
1%"
19"
1="
1J
1R
1}
b10 !
b10 i
b10 x
b10 ""
1E
b1 )
b1 /
b1 B
b1 M
#4730
1$"
#4740
03
#4750
1$
1h
#4760
1)"
1."
1O
1&"
b1 l
b1 #"
b1 +"
1.
#4770
0p
#4780
07
#4790
1W
1^
1E"
1j
1S
b10 2
b10 N
b10 Y
1?"
b10 (
#4800
0v
0|
0t
b0 g
b0 o
b0 w
#4810
0>
0D
09
b0 -
b0 6
b0 A
#4830
0f
10
#4840
1&
#4850
1-"
0,
#4860
0'
#4870
1[
1k
11
#4880
1q
12"
1/"
b1 e
b1 n
b1 ,"
#4890
0y
0C
#4900
1:
1c
1_
b10 +
b10 5
b10 Z
#4910
1m
#4920
08"
0:"
0A"
0!"
0%"
09"
0="
0J
0R
0}
b0 !
b0 i
b0 x
b0 ""
0E
b0 )
b0 /
b0 B
b0 M
#4930
0$"
#4940
13
#4950
0$
0h
#4960
0)"
0."
0O
0&"
b0 l
b0 #"
b0 +"
0.
#4970
1p
#4980
17
#4990
0W
0^
0E"
0j
0S
b0 2
b0 N
b0 Y
0?"
b0 (
#5000
1u
1z
1r
b1 g
b1 o
b1 w
#5010
1?
1F
1;
b10 -
b10 6
b10 A
#5030
1f
00
#5040
0&
#5050
0-"
1,
#5060
1'
#5070
0[
0k
01
#5080
0q
02"
0/"
b0 e
b0 n
b0 ,"
#5090
1y
1C
#5100
0:
0c
0_
b0 +
b0 5
b0 Z
#5110
0m
#5120
14"
16"
1<"
1~
1'"
15"
1;"
1K
1T
1{
b1 !
b1 i
b1 x
b1 ""
1G
b10 )
b10 /
b10 B
b10 M
#5130
1$"
#5140
03
#5150
1"
1h
#5160
1*"
10"
1O
1("
b10 l
b10 #"
b10 +"
1.
#5170
0p
#5180
07
#5190
1X
1`
1E"
1j
1U
b100 2
b100 N
b100 Y
1?"
b10 (
#5200
0u
0z
0r
b0 g
b0 o
b0 w
#5210
0?
0F
0;
b0 -
b0 6
b0 A
#5230
0f
10
#5240
1&
#5250
1-"
0,
#5260
0'
#5270
1[
1k
11
#5280
1s
13"
11"
b10 e
b10 n
b10 ,"
#5290
0y
0C
#5300
1<
1d
1a
b100 +
b100 5
b100 Z
#5310
1m
#5320
04"
06"
0<"
0~
0'"
05"
0;"
0K
0T
0{
b0 !
b0 i
b0 x
b0 ""
0G
b0 )
b0 /
b0 B
b0 M
#5330
0$"
#5340
13
#5350
0"
0h
#5360
0*"
00"
0O
0("
b0 l
b0 #"
b0 +"
0.
#5370
1p
#5380
17
#5390
0X
0`
0E"
0j
0U
b0 2
b0 N
b0 Y
0?"
b0 (
#5400
1v
1|
1t
b10 g
b10 o
b10 w
#5410
1@
1H
1=
b100 -
b100 6
b100 A
#5430
1f
00
#5440
0&
#5450
0-"
1,
#5460
1'
#5470
0[
0k
01
#5480
0s
03"
01"
b0 e
b0 n
b0 ,"
#5490
1y
1C
#5500
0<
0d
0a
b0 +
b0 5
b0 Z
#5510
0m
#5520
18"
1:"
1A"
1!"
1%"
17"
1B"
1L
1P
1}
b10 !
b10 i
b10 x
b10 ""
1I
b100 )
b100 /
b100 B
b100 M
#5530
1$"
#5540
03
#5550
1h
#5560
1)"
1."
1G"
1O
1&"
b1 l
b1 #"
b1 +"
1C"
b1000 (
1.
#5570
0p
#5580
07
#5590
1V
1\
1j
1Q
b1 2
b1 N
b1 Y
#5600
0v
0|
0t
b0 g
b0 o
b0 w
#5610
0@
0H
0=
b0 -
b0 6
b0 A
1&
#5630
0'
0f
10
#5640
1k
#5650
1-"
0,
#5660
0y
11
#5670
1[
#5680
1q
12"
0C
1/"
b1 e
b1 n
b1 ,"
#5690
08"
0:"
0A"
0!"
0%"
0}
b0 !
b0 i
b0 x
b0 ""
#5700
18
1b
1]
b1 +
b1 5
b1 Z
#5710
07"
0B"
0L
0P
1m
0I
b0 )
b0 /
b0 B
b0 M
#5720
0h
#5730
0$"
#5740
1p
13
#5750
0G"
0C"
b0 (
0.
#5760
0)"
0."
0O
0&"
b0 l
b0 #"
b0 +"
#5770
1u
1z
17
1r
b1 g
b1 o
b1 w
#5790
0V
0\
0j
0Q
b0 2
b0 N
b0 Y
#5800
1>
1D
1f
19
b1 -
b1 6
b1 A
0&
#5820
0-"
1'
#5830
0k
00
#5840
1,
#5850
0q
02"
1y
0/"
b0 e
b0 n
b0 ,"
