interaction/bitriquat/bitriquatref.vcd
$date
	Sat Aug  8 09:24:43 2015
$end
$version
	Icarus Verilog
$end
$timescale
	1ps
$end
$scope module bitriquat $end
$var wire 2 ! biin [1:0] $end
$var wire 1 " bt00 $end
$var wire 1 # bt01 $end
$var wire 1 $ bt02 $end
$var wire 1 % bt10 $end
$var wire 1 & bt11 $end
$var wire 1 ' bt12 $end
$var wire 4 ( quat [3:0] $end
$var wire 1 ) quatcomp $end
$var wire 1 * quatenable $end
$var wire 4 + quatout [3:0] $end
$var wire 3 , triin [2:0] $end
$var reg 1 - init $end
$scope module TB1 $end
$var wire 3 . A [2:0] $end
$var wire 1 / ACOMP $end
$var wire 3 0 B [2:0] $end
$var wire 1 1 BCOMP $end
$var wire 3 2 C [2:0] $end
$var wire 1 3 CCOMP $end
$var wire 1 4 CCOMP2 $end
$var wire 3 5 D [2:0] $end
$var wire 1 6 DCOMP $end
$var wire 1 ) TCOMP $end
$var wire 1 7 init $end
$scope module u1 $end
$var wire 3 8 A [2:0] $end
$var wire 1 / ACOMP $end
$var wire 3 9 Z [2:0] $end
$var wire 1 1 ZCOMP $end
$var wire 1 : enable $end
$var wire 1 7 init $end
$scope module u0 $end
$var wire 1 1 A $end
$var wire 1 7 B $end
$var wire 1 : Z $end
$upscope $end
$scope module u1 $end
$var wire 1 ; A $end
$var wire 1 : B $end
$var wire 1 7 C $end
$var wire 1 < Z $end
$upscope $end
$scope module u2 $end
$var wire 1 = A $end
$var wire 1 : B $end
$var wire 1 > Z $end
$upscope $end
$scope module u3 $end
$var wire 1 ? A $end
$var wire 1 : B $end
$var wire 1 @ Z $end
$upscope $end
$scope module u5 $end
$var wire 1 A A $end
$var wire 1 B B $end
$var wire 1 C C $end
$var wire 1 / Z $end
$upscope $end
$upscope $end
$scope module u2 $end
$var wire 3 D A [2:0] $end
$var wire 1 1 ACOMP $end
$var wire 3 E Z [2:0] $end
$var wire 1 4 ZCOMP $end
$var wire 1 F enable $end
$var wire 1 7 init $end
$scope module u0 $end
$var wire 1 4 A $end
$var wire 1 7 B $end
$var wire 1 F Z $end
$upscope $end
$scope module u1 $end
$var wire 1 G A $end
$var wire 1 F B $end
$var wire 1 H Z $end
$upscope $end
$scope module u2 $end
$var wire 1 I A $end
$var wire 1 F B $end
$var wire 1 J Z $end
$upscope $end
$scope module u3 $end
$var wire 1 K A $end
$var wire 1 F B $end
$var wire 1 L Z $end
$upscope $end
$scope module u5 $end
$var wire 1 M A $end
$var wire 1 N B $end
$var wire 1 O C $end
$var wire 1 1 Z $end
$upscope $end
$upscope $end
$scope module u3 $end
$var wire 3 P A [2:0] $end
$var wire 1 3 ACOMP $end
$var wire 3 Q Z [2:0] $end
$var wire 1 6 ZCOMP $end
$var wire 1 R enable $end
$var wire 1 7 init $end
$scope module u0 $end
$var wire 1 6 A $end
$var wire 1 7 B $end
$var wire 1 R Z $end
$upscope $end
$scope module u1 $end
$var wire 1 S A $end
$var wire 1 R B $end
$var wire 1 T Z $end
$upscope $end
$scope module u2 $end
$var wire 1 U A $end
$var wire 1 R B $end
$var wire 1 V Z $end
$upscope $end
$scope module u3 $end
$var wire 1 W A $end
$var wire 1 R B $end
$var wire 1 X Z $end
$upscope $end
$scope module u5 $end
$var wire 1 Y A $end
$var wire 1 Z B $end
$var wire 1 [ C $end
$var wire 1 3 Z $end
$upscope $end
$upscope $end
$scope module u4 $end
$var wire 3 \ A [2:0] $end
$var wire 1 6 ACOMP $end
$var wire 3 ] Z [2:0] $end
$var wire 1 / ZCOMP $end
$var wire 1 ^ enable $end
$var wire 1 7 init $end
$scope module u0 $end
$var wire 1 / A $end
$var wire 1 ^ Z $end
$upscope $end
$scope module u1 $end
$var wire 1 _ A $end
$var wire 1 ^ B $end
$var wire 1 7 C $end
$var wire 1 ` Z $end
$upscope $end
$scope module u2 $end
$var wire 1 a A $end
$var wire 1 ^ B $end
$var wire 1 7 C $end
$var wire 1 b Z $end
$upscope $end
$scope module u3 $end
$var wire 1 c A $end
$var wire 1 ^ B $end
$var wire 1 7 C $end
$var wire 1 d Z $end
$upscope $end
$scope module u5 $end
$var wire 1 e A $end
$var wire 1 f B $end
$var wire 1 g C $end
$var wire 1 6 Z $end
$upscope $end
$upscope $end
$scope module u5 $end
$var wire 1 3 A $end
$var wire 1 ) B $end
$var wire 1 4 Z $end
$upscope $end
$upscope $end
$scope module TB2 $end
$var wire 2 h A [1:0] $end
$var wire 1 i ACOMP $end
$var wire 2 j B [1:0] $end
$var wire 1 k BCOMP $end
$var wire 2 l C [1:0] $end
$var wire 1 m CCOMP $end
$var wire 1 n CCOMP2 $end
$var wire 2 o D [1:0] $end
$var wire 1 p DCOMP $end
$var wire 1 ) TCOMP $end
$var wire 1 7 init $end
$scope module u1 $end
$var wire 2 q A [1:0] $end
$var wire 1 i ACOMP $end
$var wire 2 r Z [1:0] $end
$var wire 1 k ZCOMP $end
$var wire 1 s enable $end
$var wire 1 7 init $end
$scope module u0 $end
$var wire 1 k A $end
$var wire 1 7 B $end
$var wire 1 s Z $end
$upscope $end
$scope module u1 $end
$var wire 1 t A $end
$var wire 1 s B $end
$var wire 1 7 C $end
$var wire 1 u Z $end
$upscope $end
$scope module u2 $end
$var wire 1 v A $end
$var wire 1 s B $end
$var wire 1 w Z $end
$upscope $end
$scope module u5 $end
$var wire 1 x A $end
$var wire 1 y B $end
$var wire 1 i Z $end
$upscope $end
$upscope $end
$scope module u2 $end
$var wire 2 z A [1:0] $end
$var wire 1 k ACOMP $end
$var wire 2 { Z [1:0] $end
$var wire 1 n ZCOMP $end
$var wire 1 | enable $end
$var wire 1 7 init $end
$scope module u0 $end
$var wire 1 n A $end
$var wire 1 7 B $end
$var wire 1 | Z $end
$upscope $end
$scope module u1 $end
$var wire 1 } A $end
$var wire 1 | B $end
$var wire 1 ~ Z $end
$upscope $end
$scope module u2 $end
$var wire 1 !" A $end
$var wire 1 | B $end
$var wire 1 "" Z $end
$upscope $end
$scope module u5 $end
$var wire 1 #" A $end
$var wire 1 $" B $end
$var wire 1 k Z $end
$upscope $end
$upscope $end
$scope module u3 $end
$var wire 2 %" A [1:0] $end
$var wire 1 m ACOMP $end
$var wire 2 &" Z [1:0] $end
$var wire 1 p ZCOMP $end
$var wire 1 '" enable $end
$var wire 1 7 init $end
$scope module u0 $end
$var wire 1 p A $end
$var wire 1 7 B $end
$var wire 1 '" Z $end
$upscope $end
$scope module u1 $end
$var wire 1 (" A $end
$var wire 1 '" B $end
$var wire 1 )" Z $end
$upscope $end
$scope module u2 $end
$var wire 1 *" A $end
$var wire 1 '" B $end
$var wire 1 +" Z $end
$upscope $end
$scope module u5 $end
$var wire 1 ," A $end
$var wire 1 -" B $end
$var wire 1 m Z $end
$upscope $end
$upscope $end
$scope module u4 $end
$var wire 2 ." A [1:0] $end
$var wire 1 p ACOMP $end
$var wire 2 /" Z [1:0] $end
$var wire 1 i ZCOMP $end
$var wire 1 0" enable $end
$var wire 1 7 init $end
$scope module u0 $end
$var wire 1 i A $end
$var wire 1 0" Z $end
$upscope $end
$scope module u1 $end
$var wire 1 1" A $end
$var wire 1 0" B $end
$var wire 1 7 C $end
$var wire 1 2" Z $end
$upscope $end
$scope module u2 $end
$var wire 1 3" A $end
$var wire 1 0" B $end
$var wire 1 7 C $end
$var wire 1 4" Z $end
$upscope $end
$scope module u5 $end
$var wire 1 5" A $end
$var wire 1 6" B $end
$var wire 1 p Z $end
$upscope $end
$upscope $end
$scope module u5 $end
$var wire 1 m A $end
$var wire 1 ) B $end
$var wire 1 n Z $end
$upscope $end
$upscope $end
$scope module u1 $end
$var wire 1 7" A $end
$var wire 1 8" B $end
$var wire 1 " Z $end
$upscope $end
$scope module u2 $end
$var wire 1 9" A $end
$var wire 1 :" B $end
$var wire 1 # Z $end
$upscope $end
$scope module u3 $end
$var wire 1 ;" A $end
$var wire 1 <" B $end
$var wire 1 $ Z $end
$upscope $end
$scope module u4 $end
$var wire 1 =" A $end
$var wire 1 >" B $end
$var wire 1 % Z $end
$upscope $end
$scope module u5 $end
$var wire 1 ?" A $end
$var wire 1 @" B $end
$var wire 1 & Z $end
$upscope $end
$scope module u6 $end
$var wire 1 A" A $end
$var wire 1 B" B $end
$var wire 1 ' Z $end
$upscope $end
$scope module u7 $end
$var wire 1 % A $end
$var wire 1 # B $end
$var wire 1 C" Z $end
$upscope $end
$scope module u11 $end
$var wire 1 & A $end
$var wire 1 $ B $end
$var wire 1 D" Z $end
$upscope $end
$scope module o0 $end
$var wire 1 ) A $end
$var wire 1 7 B $end
$var wire 1 * Z $end
$upscope $end
$scope module o1 $end
$var wire 1 E" A $end
$var wire 1 * B $end
$var wire 1 F" Z $end
$upscope $end
$scope module o2 $end
$var wire 1 G" A $end
$var wire 1 * B $end
$var wire 1 H" Z $end
$upscope $end
$scope module o3 $end
$var wire 1 I" A $end
$var wire 1 * B $end
$var wire 1 J" Z $end
$upscope $end
$scope module o4 $end
$var wire 1 K" A $end
$var wire 1 * B $end
$var wire 1 L" Z $end
$upscope $end
$scope module u10 $end
$var wire 1 M" A $end
$var wire 1 N" B $end
$var wire 1 O" C $end
$var wire 1 P" D $end
$var wire 1 ) Z $end
$upscope $end
$upscope $end
$enddefinitions $end
#0
$dumpvars
zP"
zO"
zN"
zM"
zL"
zK"
zJ"
zI"
zH"
zG"
zF"
zE"
zD"
zC"
zB"
zA"
z@"
z?"
z>"
z="
z<"
z;"
z:"
z9"
z8"
z7"
z6"
z5"
z4"
z3"
z2"
z1"
z0"
bz /"
bz ."
z-"
z,"
z+"
z*"
z)"
z("
z'"
bz &"
bz %"
z$"
z#"
z""
z!"
z~
z}
z|
bz {
bz z
zy
zx
zw
zv
zu
zt
zs
bz r
bz q
zp
bz o
zn
zm
bz l
zk
bz j
zi
bz h
zg
zf
ze
zd
zc
zb
za
z`
z_
z^
bz ]
bz \
z[
zZ
zY
zX
zW
zV
zU
zT
zS
zR
bz Q
bz P
zO
zN
zM
zL
zK
zJ
zI
zH
zG
zF
bz E
bz D
zC
zB
zA
z@
z?
z>
z=
z<
z;
z:
bz 9
bz 8
17
z6
bz 5
z4
z3
bz 2
z1
bz 0
z/
bz .
1-
bz ,
bz +
z*
z)
bz (
z'
z&
z%
z$
z#
z"
bz !
$end
#20
xB
xI
xC
xK
x8"
x>"
xM
xU
x:"
x@"
xN
xW
x<"
xB"
xO
xS
xY
x_
xZ
xa
x[
xc
xy
x!"
x7"
x9"
x;"
x#"
x*"
x="
x?"
xA"
x$"
x("
x,"
x1"
x-"
x3"
xM"
xN"
xO"
xP"
x>
x@
bxz 0
bxz 9
bxz D
xH
xJ
xL
bx ,
bx 2
bx E
bx P
xT
xV
xX
bx 5
bx Q
bx \
xw
bxz j
bxz r
bxz z
x~
x""
bx !
bx l
bx {
bx %"
x)"
x+"
bx o
bx &"
bx ."
xF"
xH"
xJ"
xL"
bx +
0:
0F
0R
0s
0|
0'"
0*
#30
0E"
zG"
zI"
0K"
0v
06"
1t
15"
0x
0}
0?
0g
0=
0f
1;
1e
0A
0G
0'
0&
0%
0$
0#
0"
b0zz0 (
0n
04"
12"
b1 h
b1 q
b1 /"
0u
bx0 j
bx0 r
bx0 z
04
0d
0b
1`
b1 .
b1 8
b1 ]
0<
bx0 0
bx0 9
bx0 D
#60
0M"
0P"
0y
0!"
07"
09"
0;"
0#"
0*"
0C
0K
0B
0I
08"
0>"
0M
0U
0I"
0G"
0F"
0L"
b0xx0 +
0w
b0 j
b0 r
b0 z
1p
0~
bx0 !
bx0 l
bx0 {
bx0 %"
0@
0>
b0 0
b0 9
b0 D
0H
bx0 ,
bx0 2
bx0 E
bx0 P
0D"
0C"
b0 (
#70
16
#90
0="
0?"
0A"
0$"
0("
0-"
03"
0<"
0B"
0O
0S
0:"
0@"
0N
0W
0Z
0a
0O"
0N"
0i
0""
b0 !
b0 l
b0 {
b0 %"
x#
x$
0+"
b0x o
b0x &"
b0x ."
0L
0J
b0 ,
b0 2
b0 E
b0 P
x%
0V
bx0x 5
bx0x Q
bx0x \
0J"
0H"
b0 +
#100
0/
#110
10"
#120
0,"
01"
0Y
0_
0[
0c
xI"
xG"
1^
0%
0k
0)"
b0 o
b0 &"
b0 ."
0$
0T
0#
0X
b0 5
b0 Q
b0 \
xD"
xC"
b0xx0 (
#130
01
#140
0)
#150
xO"
xN"
0G"
0I"
0m
xJ"
xH"
b0xx0 +
0C"
0D"
b0 (
#160
03
#180
0N"
0O"
0H"
0J"
b0 +
#1000
0-
07
#1020
1:
1F
1s
1|
1*
#1050
1A
1G
1x
1}
1<
b1 0
b1 9
b1 D
1u
b1 j
b1 r
b1 z
#1080
18"
1>"
1M
1U
17"
19"
1;"
1#"
1*"
1H
b1 ,
b1 2
b1 E
b1 P
1i
1~
b1 !
b1 l
b1 {
b1 %"
#1090
1/
#1100
00"
#1110
1E"
0^
1"
b1 (
1k
#1120
11
#1130
0t
05"
0s
02"
b0 h
b0 q
b0 /"
#1140
1M"
0;
0e
0:
1F"
b1 +
0`
b0 .
b0 8
b0 ]
#1160
0x
0}
0u
b0 j
b0 r
b0 z
0p
#1170
0A
0G
0<
b0 0
b0 9
b0 D
#1180
1'"
06
#1190
0i
1)
#1200
1R
#1210
1-"
13"
10"
0*
1+"
b10 o
b10 &"
b10 ."
0/
#1230
1Z
1a
1^
1V
b10 5
b10 Q
b10 \
#1240
1v
16"
1m
14"
b10 h
b10 q
b10 /"
#1260
1=
1f
1b
b10 .
b10 8
b10 ]
#1270
1p
1n
13
#1290
0'"
0|
#1300
14
16
#1320
07"
09"
0;"
0#"
0*"
0F
0R
0~
b0 !
b0 l
b0 {
b0 %"
#1350
0-"
03"
08"
0>"
0M
0U
0k
0+"
b0 o
b0 &"
b0 ."
0H
b0 ,
b0 2
b0 E
b0 P
#1370
1s
#1380
0E"
0Z
0a
0m
0"
b0 (
0V
b0 5
b0 Q
b0 \
#1390
01
#1400
1y
1!"
1w
b10 j
b10 r
b10 z
#1410
0M"
1:
0F"
b0 +
#1420
03
#1430
1i
#1440
1B
1I
1>
b10 0
b10 9
b10 D
#1450
00"
#1460
0)
#1480
0v
06"
1*
04"
b0 h
b0 q
b0 /"
1/
#1490
0n
04
#1500
0^
#1510
1|
1F
0p
#1530
0=
0f
1'"
0b
b0 .
b0 8
b0 ]
#1540
1="
1?"
1A"
1$"
1("
1:"
1@"
1N
1W
1""
b10 !
b10 l
b10 {
b10 %"
1J
b10 ,
b10 2
b10 E
b10 P
#1570
1,"
11"
1&
1k
1)"
b1 o
b1 &"
b1 ."
06
#1580
11
#1590
0s
1R
#1600
1I"
0:
1m
1D"
b100 (
#1620
0y
0!"
1[
1c
0w
b0 j
b0 r
b0 z
1X
b100 5
b100 Q
b100 \
#1630
1O"
0B
0I
1J"
b100 +
0>
b0 0
b0 9
b0 D
#1650
0i
#1660
13
#1670
10"
0/
#1680
1)
#1690
1^
#1700
1t
15"
0*
12"
b1 h
b1 q
b1 /"
#1710
1n
14
#1720
1?
1g
1d
b100 .
b100 8
b100 ]
#1730
0|
0F
1p
#1750
0'"
#1760
0="
0?"
0A"
0$"
0("
0:"
0@"
0N
0W
0""
b0 !
b0 l
b0 {
b0 %"
0J
b0 ,
b0 2
b0 E
b0 P
16
#1780
0R
#1790
0,"
01"
0&
0k
0)"
b0 o
b0 &"
b0 ."
#1800
01
#1810
0[
0c
1s
0X
b0 5
b0 Q
b0 \
#1820
0I"
1:
0m
0D"
b0 (
#1840
1x
1}
1u
b1 j
b1 r
b1 z
#1850
0O"
1C
1K
0J"
b0 +
1@
b100 0
b100 9
b100 D
03
#1870
1i
#1890
00"
1/
#1900
0)
#1910
0^
#1920
0t
05"
1*
02"
b0 h
b0 q
b0 /"
#1930
0n
04
#1940
0?
0g
0d
b0 .
b0 8
b0 ]
#1950
1|
1F
0p
#1970
1'"
#1980
17"
19"
1;"
1#"
1*"
1<"
1B"
1O
1S
1~
b1 !
b1 l
b1 {
b1 %"
1L
b100 ,
b100 2
b100 E
b100 P
06
#2000
1R
#2010
1-"
13"
1$
1k
1+"
b10 o
b10 &"
b10 ."
#2020
11
#2030
1Y
1_
0s
1T
b1 5
b1 Q
b1 \
#2040
1I"
0:
1m
1D"
b100 (
#2060
0x
0}
0u
b0 j
b0 r
b0 z
#2070
1O"
0C
0K
1J"
b100 +
0@
b0 0
b0 9
b0 D
13
#2090
0i
#2110
10"
0/
#2120
1)
#2130
1^
#2140
1v
16"
0*
14"
b10 h
b10 q
b10 /"
#2150
1n
14
#2160
1;
1e
1`
b1 .
b1 8
b1 ]
#2170
0|
0F
1p
#2190
0'"
#2200
07"
09"
0;"
0#"
0*"
0<"
0B"
0O
0S
0~
b0 !
b0 l
b0 {
b0 %"
0L
b0 ,
b0 2
b0 E
b0 P
16
#2220
0R
#2230
0-"
03"
0$
0k
0+"
b0 o
b0 &"
b0 ."
#2240
01
#2250
0Y
0_
1s
0T
b0 5
b0 Q
b0 \
#2260
0I"
1:
0m
0D"
b0 (
#2280
1y
1!"
1w
b10 j
b10 r
b10 z
#2290
0O"
1A
1G
0J"
b0 +
1<
b1 0
b1 9
b1 D
03
#2310
1i
#2330
00"
1/
#2340
0)
#2350
0^
#2360
0v
06"
1*
04"
b0 h
b0 q
b0 /"
#2370
0n
04
#2380
0;
0e
0`
b0 .
b0 8
b0 ]
#2390
1|
1F
0p
#2410
1'"
#2420
1="
1?"
1A"
1$"
1("
18"
1>"
1M
1U
1""
b10 !
b10 l
b10 {
b10 %"
1H
b1 ,
b1 2
b1 E
b1 P
06
#2440
1R
#2450
1,"
11"
1%
1k
1)"
b1 o
b1 &"
b1 ."
#2460
11
#2470
1Z
1a
0s
1V
b10 5
b10 Q
b10 \
#2480
1G"
0:
1m
1C"
b10 (
#2500
0y
0!"
0w
b0 j
b0 r
b0 z
#2510
1N"
0A
0G
1H"
b10 +
0<
b0 0
b0 9
b0 D
13
#2530
0i
#2550
10"
0/
#2560
1)
#2570
1^
#2580
1t
15"
0*
12"
b1 h
b1 q
b1 /"
#2590
1n
14
#2600
1=
1f
1b
b10 .
b10 8
b10 ]
#2610
0|
0F
1p
#2630
0'"
#2640
0="
0?"
0A"
0$"
0("
08"
0>"
0M
0U
0""
b0 !
b0 l
b0 {
b0 %"
0H
b0 ,
b0 2
b0 E
b0 P
16
#2660
0R
#2670
0,"
01"
0%
0k
0)"
b0 o
b0 &"
b0 ."
#2680
01
#2690
0Z
0a
1s
0V
b0 5
b0 Q
b0 \
#2700
0G"
1:
0m
0C"
b0 (
#2720
1x
1}
1u
b1 j
b1 r
b1 z
#2730
0N"
1B
1I
0H"
b0 +
1>
b10 0
b10 9
b10 D
03
#2750
1i
#2770
00"
1/
#2780
0)
#2790
0^
#2800
0t
05"
1*
02"
b0 h
b0 q
b0 /"
#2810
0n
04
#2820
0=
0f
0b
b0 .
b0 8
b0 ]
#2830
1|
1F
0p
#2850
1'"
#2860
17"
19"
1;"
1#"
1*"
1:"
1@"
1N
1W
1~
b1 !
b1 l
b1 {
b1 %"
1J
b10 ,
b10 2
b10 E
b10 P
06
#2880
1R
#2890
1-"
13"
1#
1k
1+"
b10 o
b10 &"
b10 ."
#2900
11
#2910
1[
1c
0s
1X
b100 5
b100 Q
b100 \
#2920
1G"
0:
1m
1C"
b10 (
#2940
0x
0}
0u
b0 j
b0 r
b0 z
#2950
1N"
0B
0I
1H"
b10 +
0>
b0 0
b0 9
b0 D
13
#2970
0i
#2990
10"
0/
#3000
1)
#3010
1^
#3020
1v
16"
0*
14"
b10 h
b10 q
b10 /"
#3030
1n
14
#3040
1?
1g
1d
b100 .
b100 8
b100 ]
#3050
0|
0F
1p
#3070
0'"
#3080
07"
09"
0;"
0#"
0*"
0:"
0@"
0N
0W
0~
b0 !
b0 l
b0 {
b0 %"
0J
b0 ,
b0 2
b0 E
b0 P
16
#3100
0R
#3110
0-"
03"
0#
0k
0+"
b0 o
b0 &"
b0 ."
#3120
01
#3130
0[
0c
1s
0X
b0 5
b0 Q
b0 \
#3140
0G"
1:
0m
0C"
b0 (
#3160
1y
1!"
1w
b10 j
b10 r
b10 z
#3170
0N"
1C
1K
0H"
b0 +
1@
b100 0
b100 9
b100 D
03
#3190
1i
#3210
00"
1/
#3220
0)
#3230
0^
#3240
0v
06"
1*
04"
b0 h
b0 q
b0 /"
#3250
0n
04
#3260
0?
0g
0d
b0 .
b0 8
b0 ]
#3270
1|
1F
0p
#3290
1'"
#3300
1="
1?"
1A"
1$"
1("
1<"
1B"
1O
1S
1""
b10 !
b10 l
b10 {
b10 %"
1L
b100 ,
b100 2
b100 E
b100 P
06
#3320
1R
#3330
1K"
1,"
11"
1'
b1000 (
1k
1)"
b1 o
b1 &"
b1 ."
#3340
11
#3350
1Y
1_
0s
1T
b1 5
b1 Q
b1 \
#3360
1P"
0:
1L"
b1000 +
1m
#3380
0y
0!"
0w
b0 j
b0 r
b0 z
#3390
0C
0K
0@
b0 0
b0 9
b0 D
13
#3410
0i
1)
#3430
10"
0*
0/
#3440
1n
14
#3450
1^
#3460
1t
15"
0|
0F
12"
b1 h
b1 q
b1 /"
#3480
1;
1e
1`
b1 .
b1 8
b1 ]
#3490
0="
0?"
0A"
0$"
0("
0<"
0B"
0O
0S
1p
0""
b0 !
b0 l
b0 {
b0 %"
0L
b0 ,
b0 2
b0 E
b0 P
#3510
0'"
#3520
0K"
0'
b0 (
0k
16
#3530
01
#3540
0,"
01"
1s
0R
0)"
b0 o
b0 &"
b0 ."
#3550
0P"
1:
0L"
b0 +
#3570
1x
1}
0Y
0_
0m
1u
b1 j
b1 r
b1 z
0T
b0 5
b0 Q
b0 \
#3580
1A
1G
1<
b1 0
b1 9
b1 D
#3600
1i
0)
#3610
03
#3620
00"
1*
1/
#3630
0n
#3640
0^
04
#3650
0t
05"
1|
02"
b0 h
b0 q
b0 /"
#3660
1F
#3670
0;
0e
0`
b0 .
b0 8
b0 ]
#3680
17"
19"
1;"
1#"
1*"
0p
1~
b1 !
b1 l
b1 {
b1 %"
#3690
18"
1>"
1M
1U
1H
b1 ,
b1 2
b1 E
b1 P
#3700
1'"
#3710
1k
06
#3720
1E"
1"
b1 (
#3730
1-"
13"
0s
1R
1+"
b10 o
b10 &"
b10 ."
11
#3750
1M"
0:
1F"
b1 +
#3760
0x
0}
1Z
1a
1m
0u
b0 j
b0 r
b0 z
1V
b10 5
b10 Q
b10 \
#3780
0A
0G
0<
b0 0
b0 9
b0 D
#3790
0i
#3800
13
1)
#3810
10"
#3820
0*
0/
#3830
14
1n
#3840
1v
16"
1^
14"
b10 h
b10 q
b10 /"
#3850
0F
0|
#3870
1=
1f
1p
1b
b10 .
b10 8
b10 ]
#3880
08"
0>"
0M
0U
07"
09"
0;"
0#"
0*"
0H
b0 ,
b0 2
b0 E
b0 P
0~
b0 !
b0 l
b0 {
b0 %"
#3890
0'"
#3910
0E"
0"
b0 (
0k
16
#3920
0-"
03"
0+"
b0 o
b0 &"
b0 ."
01
#3930
1s
0R
#3940
0M"
1:
0F"
b0 +
#3950
0m
#3960
1y
1!"
0Z
0a
1w
b10 j
b10 r
b10 z
0V
b0 5
b0 Q
b0 \
#3970
1B
1I
1>
b10 0
b10 9
b10 D
#3990
1i
0)
#4000
03
#4010
00"
1*
1/
#4020
0n
#4030
0^
04
#4040
0v
06"
1|
04"
b0 h
b0 q
b0 /"
#4050
1F
#4060
0=
0f
0b
b0 .
b0 8
b0 ]
#4070
1="
1?"
1A"
1$"
1("
0p
1""
b10 !
b10 l
b10 {
b10 %"
#4080
1:"
1@"
1N
1W
1J
b10 ,
b10 2
b10 E
b10 P
#4090
1'"
#4100
1k
06
#4110
1&
#4120
1,"
11"
0s
1R
1)"
b1 o
b1 &"
b1 ."
11
#4140
1I"
0:
1D"
b100 (
#4150
0y
0!"
1[
1c
1m
0w
b0 j
b0 r
b0 z
1X
b100 5
b100 Q
b100 \
#4170
1O"
0B
0I
1J"
b100 +
0>
b0 0
b0 9
b0 D
#4180
0i
#4190
13
#4200
10"
#4210
0/
#4220
1)
#4230
1t
15"
1^
12"
b1 h
b1 q
b1 /"
#4240
0*
#4250
1n
14
#4260
1?
1g
1p
1d
b100 .
b100 8
b100 ]
#4270
0|
0F
#4280
0'"
#4300
0="
0?"
0A"
0$"
0("
0:"
0@"
0N
0W
0""
b0 !
b0 l
b0 {
b0 %"
0J
b0 ,
b0 2
b0 E
b0 P
16
#4320
0R
#4330
0,"
01"
0&
0k
0)"
b0 o
b0 &"
b0 ."
#4340
01
#4350
0[
0c
1s
0X
b0 5
b0 Q
b0 \
#4360
0I"
1:
0m
0D"
b0 (
#4380
1x
1}
1u
b1 j
b1 r
b1 z
#4390
0O"
1C
1K
0J"
b0 +
1@
b100 0
b100 9
b100 D
03
#4410
1i
#4430
00"
1/
#4440
0)
#4450
0^
#4460
0t
05"
1*
02"
b0 h
b0 q
b0 /"
#4470
0n
04
#4480
0?
0g
0d
b0 .
b0 8
b0 ]
#4490
1|
1F
0p
#4510
1'"
#4520
17"
19"
1;"
1#"
1*"
1<"
1B"
1O
1S
1~
b1 !
b1 l
b1 {
b1 %"
1L
b100 ,
b100 2
b100 E
b100 P
06
#4540
1R
#4550
1-"
13"
1$
1k
1+"
b10 o
b10 &"
b10 ."
#4560
11
#4570
1Y
1_
0s
1T
b1 5
b1 Q
b1 \
#4580
1I"
0:
1m
1D"
b100 (
#4600
0x
0}
0u
b0 j
b0 r
b0 z
#4610
1O"
0C
0K
1J"
b100 +
0@
b0 0
b0 9
b0 D
13
#4630
0i
#4650
10"
0/
#4660
1)
#4670
1^
#4680
1v
16"
0*
14"
b10 h
b10 q
b10 /"
#4690
1n
14
#4700
1;
1e
1`
b1 .
b1 8
b1 ]
#4710
0|
0F
1p
#4730
0'"
#4740
07"
09"
0;"
0#"
0*"
0<"
0B"
0O
0S
0~
b0 !
b0 l
b0 {
b0 %"
0L
b0 ,
b0 2
b0 E
b0 P
16
#4760
0R
#4770
0-"
03"
0$
0k
0+"
b0 o
b0 &"
b0 ."
#4780
01
#4790
0Y
0_
1s
0T
b0 5
b0 Q
b0 \
#4800
0I"
1:
0m
0D"
b0 (
#4820
1y
1!"
1w
b10 j
b10 r
b10 z
#4830
0O"
1A
1G
0J"
b0 +
1<
b1 0
b1 9
b1 D
03
#4850
1i
#4870
00"
1/
#4880
0)
#4890
0^
#4900
0v
06"
1*
04"
b0 h
b0 q
b0 /"
#4910
0n
04
#4920
0;
0e
0`
b0 .
b0 8
b0 ]
#4930
1|
1F
0p
#4950
1'"
#4960
1="
1?"
1A"
1$"
1("
18"
1>"
1M
1U
1""
b10 !
b10 l
b10 {
b10 %"
1H
b1 ,
b1 2
b1 E
b1 P
06
#4980
1R
#4990
1,"
11"
1%
1k
1)"
b1 o
b1 &"
b1 ."
#5000
11
#5010
1Z
1a
0s
1V
b10 5
b10 Q
b10 \
#5020
1G"
0:
1m
1C"
b10 (
#5040
0y
0!"
0w
b0 j
b0 r
b0 z
#5050
1N"
0A
0G
1H"
b10 +
0<
b0 0
b0 9
b0 D
13
#5070
0i
#5090
10"
0/
#5100
1)
#5110
1^
#5120
1t
15"
0*
12"
b1 h
b1 q
b1 /"
#5130
1n
14
#5140
1=
1f
1b
b10 .
b10 8
b10 ]
#5150
0|
0F
1p
#5170
0'"
#5180
0="
0?"
0A"
0$"
0("
08"
0>"
0M
0U
0""
b0 !
b0 l
b0 {
b0 %"
0H
b0 ,
b0 2
b0 E
b0 P
16
#5200
0R
#5210
0,"
01"
0%
0k
0)"
b0 o
b0 &"
b0 ."
#5220
01
#5230
0Z
0a
1s
0V
b0 5
b0 Q
b0 \
#5240
0G"
1:
0m
0C"
b0 (
#5260
1x
1}
1u
b1 j
b1 r
b1 z
#5270
0N"
1B
1I
0H"
b0 +
1>
b10 0
b10 9
b10 D
03
#5290
1i
#5310
00"
1/
#5320
0)
#5330
0^
#5340
0t
05"
1*
02"
b0 h
b0 q
b0 /"
#5350
0n
04
#5360
0=
0f
0b
b0 .
b0 8
b0 ]
#5370
1|
1F
0p
#5390
1'"
#5400
17"
19"
1;"
1#"
1*"
1:"
1@"
1N
1W
1~
b1 !
b1 l
b1 {
b1 %"
1J
b10 ,
b10 2
b10 E
b10 P
06
#5420
1R
#5430
1-"
13"
1#
1k
1+"
b10 o
b10 &"
b10 ."
#5440
11
#5450
1[
1c
0s
1X
b100 5
b100 Q
b100 \
#5460
1G"
0:
1m
1C"
b10 (
#5480
0x
0}
0u
b0 j
b0 r
b0 z
#5490
1N"
0B
0I
1H"
b10 +
0>
b0 0
b0 9
b0 D
13
#5510
0i
#5530
10"
0/
#5540
1)
#5550
1^
#5560
1v
16"
0*
14"
b10 h
b10 q
b10 /"
#5570
1n
14
#5580
1?
1g
1d
b100 .
b100 8
b100 ]
#5590
0|
0F
1p
#5610
0'"
#5620
07"
09"
0;"
0#"
0*"
0:"
0@"
0N
0W
0~
b0 !
b0 l
b0 {
b0 %"
0J
b0 ,
b0 2
b0 E
b0 P
16
#5640
0R
#5650
0-"
03"
0#
0k
0+"
b0 o
b0 &"
b0 ."
#5660
01
#5670
0[
0c
1s
0X
b0 5
b0 Q
b0 \
#5680
0G"
1:
0m
0C"
b0 (
#5700
1y
1!"
1w
b10 j
b10 r
b10 z
#5710
0N"
1C
1K
0H"
b0 +
1@
b100 0
b100 9
b100 D
03
#5730
1i
#5750
00"
1/
#5760
0)
#5770
0^
#5780
0v
06"
1*
04"
b0 h
b0 q
b0 /"
#5790
0n
04
#5800
0?
0g
0d
b0 .
b0 8
b0 ]
#5810
1|
1F
0p
#5830
1'"
