interaction/bitriquat/bitriquatCref.vcd
$date
	Sat Aug  8 12:19:23 2015
$end
$version
	Icarus Verilog
$end
$timescale
	1ps
$end
$scope module bitriquatC $end
$var wire 2 ! biin [1:0] $end
$var wire 1 " quatcomp $end
$var wire 1 # quatenable $end
$var wire 4 $ quatout [3:0] $end
$var wire 2 % temp [1:0] $end
$var wire 3 & triin [2:0] $end
$var reg 1 ' init $end
$scope module TB1 $end
$var wire 3 ( A [2:0] $end
$var wire 1 ) ACOMP $end
$var wire 3 * B [2:0] $end
$var wire 1 + BCOMP $end
$var wire 3 , C [2:0] $end
$var wire 1 - CCOMP $end
$var wire 1 . CCOMP2 $end
$var wire 3 / D [2:0] $end
$var wire 1 0 DCOMP $end
$var wire 1 " TCOMP $end
$var wire 1 1 init $end
$scope module u1 $end
$var wire 3 2 A [2:0] $end
$var wire 1 ) ACOMP $end
$var wire 3 3 Z [2:0] $end
$var wire 1 + ZCOMP $end
$var wire 1 4 enable $end
$var wire 1 1 init $end
$scope module u0 $end
$var wire 1 + A $end
$var wire 1 1 B $end
$var wire 1 4 Z $end
$upscope $end
$scope module u1 $end
$var wire 1 5 A $end
$var wire 1 4 B $end
$var wire 1 1 C $end
$var wire 1 6 Z $end
$upscope $end
$scope module u2 $end
$var wire 1 7 A $end
$var wire 1 4 B $end
$var wire 1 8 Z $end
$upscope $end
$scope module u3 $end
$var wire 1 9 A $end
$var wire 1 4 B $end
$var wire 1 : Z $end
$upscope $end
$scope module u5 $end
$var wire 1 ; A $end
$var wire 1 < B $end
$var wire 1 = C $end
$var wire 1 ) Z $end
$upscope $end
$upscope $end
$scope module u2 $end
$var wire 3 > A [2:0] $end
$var wire 1 + ACOMP $end
$var wire 3 ? Z [2:0] $end
$var wire 1 . ZCOMP $end
$var wire 1 @ enable $end
$var wire 1 1 init $end
$scope module u0 $end
$var wire 1 . A $end
$var wire 1 1 B $end
$var wire 1 @ Z $end
$upscope $end
$scope module u1 $end
$var wire 1 A A $end
$var wire 1 @ B $end
$var wire 1 B Z $end
$upscope $end
$scope module u2 $end
$var wire 1 C A $end
$var wire 1 @ B $end
$var wire 1 D Z $end
$upscope $end
$scope module u3 $end
$var wire 1 E A $end
$var wire 1 @ B $end
$var wire 1 F Z $end
$upscope $end
$scope module u5 $end
$var wire 1 G A $end
$var wire 1 H B $end
$var wire 1 I C $end
$var wire 1 + Z $end
$upscope $end
$upscope $end
$scope module u3 $end
$var wire 3 J A [2:0] $end
$var wire 1 - ACOMP $end
$var wire 3 K Z [2:0] $end
$var wire 1 0 ZCOMP $end
$var wire 1 L enable $end
$var wire 1 1 init $end
$scope module u0 $end
$var wire 1 0 A $end
$var wire 1 1 B $end
$var wire 1 L Z $end
$upscope $end
$scope module u1 $end
$var wire 1 M A $end
$var wire 1 L B $end
$var wire 1 N Z $end
$upscope $end
$scope module u2 $end
$var wire 1 O A $end
$var wire 1 L B $end
$var wire 1 P Z $end
$upscope $end
$scope module u3 $end
$var wire 1 Q A $end
$var wire 1 L B $end
$var wire 1 R Z $end
$upscope $end
$scope module u5 $end
$var wire 1 S A $end
$var wire 1 T B $end
$var wire 1 U C $end
$var wire 1 - Z $end
$upscope $end
$upscope $end
$scope module u4 $end
$var wire 3 V A [2:0] $end
$var wire 1 0 ACOMP $end
$var wire 3 W Z [2:0] $end
$var wire 1 ) ZCOMP $end
$var wire 1 X enable $end
$var wire 1 1 init $end
$scope module u0 $end
$var wire 1 ) A $end
$var wire 1 X Z $end
$upscope $end
$scope module u1 $end
$var wire 1 Y A $end
$var wire 1 X B $end
$var wire 1 1 C $end
$var wire 1 Z Z $end
$upscope $end
$scope module u2 $end
$var wire 1 [ A $end
$var wire 1 X B $end
$var wire 1 1 C $end
$var wire 1 \ Z $end
$upscope $end
$scope module u3 $end
$var wire 1 ] A $end
$var wire 1 X B $end
$var wire 1 1 C $end
$var wire 1 ^ Z $end
$upscope $end
$scope module u5 $end
$var wire 1 _ A $end
$var wire 1 ` B $end
$var wire 1 a C $end
$var wire 1 0 Z $end
$upscope $end
$upscope $end
$scope module u5 $end
$var wire 1 - A $end
$var wire 1 " B $end
$var wire 1 . Z $end
$upscope $end
$upscope $end
$scope module TB2 $end
$var wire 2 b A [1:0] $end
$var wire 1 c ACOMP $end
$var wire 2 d B [1:0] $end
$var wire 1 e BCOMP $end
$var wire 2 f C [1:0] $end
$var wire 1 g CCOMP $end
$var wire 1 h CCOMP2 $end
$var wire 2 i D [1:0] $end
$var wire 1 j DCOMP $end
$var wire 1 " TCOMP $end
$var wire 1 1 init $end
$scope module u1 $end
$var wire 2 k A [1:0] $end
$var wire 1 c ACOMP $end
$var wire 2 l Z [1:0] $end
$var wire 1 e ZCOMP $end
$var wire 1 m enable $end
$var wire 1 1 init $end
$scope module u0 $end
$var wire 1 e A $end
$var wire 1 1 B $end
$var wire 1 m Z $end
$upscope $end
$scope module u1 $end
$var wire 1 n A $end
$var wire 1 m B $end
$var wire 1 1 C $end
$var wire 1 o Z $end
$upscope $end
$scope module u2 $end
$var wire 1 p A $end
$var wire 1 m B $end
$var wire 1 q Z $end
$upscope $end
$scope module u5 $end
$var wire 1 r A $end
$var wire 1 s B $end
$var wire 1 c Z $end
$upscope $end
$upscope $end
$scope module u2 $end
$var wire 2 t A [1:0] $end
$var wire 1 e ACOMP $end
$var wire 2 u Z [1:0] $end
$var wire 1 h ZCOMP $end
$var wire 1 v enable $end
$var wire 1 1 init $end
$scope module u0 $end
$var wire 1 h A $end
$var wire 1 1 B $end
$var wire 1 v Z $end
$upscope $end
$scope module u1 $end
$var wire 1 w A $end
$var wire 1 v B $end
$var wire 1 x Z $end
$upscope $end
$scope module u2 $end
$var wire 1 y A $end
$var wire 1 v B $end
$var wire 1 z Z $end
$upscope $end
$scope module u5 $end
$var wire 1 { A $end
$var wire 1 | B $end
$var wire 1 e Z $end
$upscope $end
$upscope $end
$scope module u3 $end
$var wire 2 } A [1:0] $end
$var wire 1 g ACOMP $end
$var wire 2 ~ Z [1:0] $end
$var wire 1 j ZCOMP $end
$var wire 1 !" enable $end
$var wire 1 1 init $end
$scope module u0 $end
$var wire 1 j A $end
$var wire 1 1 B $end
$var wire 1 !" Z $end
$upscope $end
$scope module u1 $end
$var wire 1 "" A $end
$var wire 1 !" B $end
$var wire 1 #" Z $end
$upscope $end
$scope module u2 $end
$var wire 1 $" A $end
$var wire 1 !" B $end
$var wire 1 %" Z $end
$upscope $end
$scope module u5 $end
$var wire 1 &" A $end
$var wire 1 '" B $end
$var wire 1 g Z $end
$upscope $end
$upscope $end
$scope module u4 $end
$var wire 2 (" A [1:0] $end
$var wire 1 j ACOMP $end
$var wire 2 )" Z [1:0] $end
$var wire 1 c ZCOMP $end
$var wire 1 *" enable $end
$var wire 1 1 init $end
$scope module u0 $end
$var wire 1 c A $end
$var wire 1 *" Z $end
$upscope $end
$scope module u1 $end
$var wire 1 +" A $end
$var wire 1 *" B $end
$var wire 1 1 C $end
$var wire 1 ," Z $end
$upscope $end
$scope module u2 $end
$var wire 1 -" A $end
$var wire 1 *" B $end
$var wire 1 1 C $end
$var wire 1 ." Z $end
$upscope $end
$scope module u5 $end
$var wire 1 /" A $end
$var wire 1 0" B $end
$var wire 1 j Z $end
$upscope $end
$upscope $end
$scope module u5 $end
$var wire 1 g A $end
$var wire 1 " B $end
$var wire 1 h Z $end
$upscope $end
$upscope $end
$scope module u1 $end
$var wire 1 1" A $end
$var wire 1 2" B $end
$var wire 1 3" C $end
$var wire 1 4" D $end
$var wire 1 5" Z $end
$upscope $end
$scope module u2 $end
$var wire 1 6" A $end
$var wire 1 7" B $end
$var wire 1 8" C $end
$var wire 1 9" D $end
$var wire 1 :" Z $end
$upscope $end
$scope module o0 $end
$var wire 1 " A $end
$var wire 1 1 B $end
$var wire 1 # Z $end
$upscope $end
$scope module o1 $end
$var wire 1 ;" A $end
$var wire 1 <" B $end
$var wire 1 # C $end
$var wire 1 =" Z $end
$upscope $end
$scope module o2 $end
$var wire 1 # A $end
$var wire 1 >" B $end
$var wire 1 ?" Z $end
$upscope $end
$scope module o3 $end
$var wire 1 # A $end
$var wire 1 @" B $end
$var wire 1 A" Z $end
$upscope $end
$scope module o4 $end
$var wire 1 B" A $end
$var wire 1 C" B $end
$var wire 1 # C $end
$var wire 1 D" Z $end
$upscope $end
$scope module u10 $end
$var wire 1 E" A $end
$var wire 1 F" B $end
$var wire 1 G" C $end
$var wire 1 H" D $end
$var wire 1 " Z $end
$upscope $end
$upscope $end
$enddefinitions $end
#0
$dumpvars
zH"
zG"
zF"
zE"
zD"
zC"
zB"
zA"
z@"
z?"
z>"
z="
z<"
z;"
z:"
z9"
z8"
z7"
z6"
z5"
z4"
z3"
z2"
z1"
z0"
z/"
z."
z-"
z,"
z+"
z*"
bz )"
bz ("
z'"
z&"
z%"
z$"
z#"
z""
z!"
bz ~
bz }
z|
z{
zz
zy
zx
zw
zv
bz u
bz t
zs
zr
zq
zp
zo
zn
zm
bz l
bz k
zj
bz i
zh
zg
bz f
ze
bz d
zc
bz b
za
z`
z_
z^
z]
z\
z[
zZ
zY
zX
bz W
bz V
zU
zT
zS
zR
zQ
zP
zO
zN
zM
zL
bz K
bz J
zI
zH
zG
zF
zE
zD
zC
zB
zA
z@
bz ?
bz >
z=
z<
z;
z:
z9
z8
z7
z6
z5
z4
bz 3
bz 2
11
z0
bz /
z.
z-
bz ,
z+
bz *
z)
bz (
1'
bz &
bz %
bz $
z#
z"
bz !
$end
#20
x<
xC
x=
xE
x4"
x<"
xG
xO
x2"
x9"
xH
xQ
x7"
xC"
xI
xM
xS
xY
xT
x[
xU
x]
xs
xy
x1"
x6"
x;"
x{
x$"
x3"
x8"
xB"
x|
x""
x&"
x+"
x'"
x-"
xE"
xF"
xG"
xH"
x8
x:
bxz *
bxz 3
bxz >
xB
xD
xF
bx &
bx ,
bx ?
bx J
xN
xP
xR
bx /
bx K
bx V
xq
bxz d
bxz l
bxz t
xx
xz
bx !
bx f
bx u
bx }
x#"
x%"
bx i
bx ~
bx ("
x="
x?"
xA"
xD"
bx $
04
0@
0L
0m
0v
0!"
0#
#30
0p
00"
1n
1/"
0r
0w
09
0a
07
0`
15
1_
0;
0A
0h
0."
1,"
b1 b
b1 k
b1 )"
0o
bx0 d
bx0 l
bx0 t
0.
0^
0\
1Z
b1 (
b1 2
b1 W
06
bx0 *
bx0 3
bx0 >
#50
0@"
0>"
0:"
05"
b0 %
#60
0s
0y
01"
06"
0;"
0{
0$"
0=
0E
0<
0C
04"
0<"
0G
0O
0q
b0 d
b0 l
b0 t
1j
0x
bx0 !
bx0 f
bx0 u
bx0 }
0:
08
b0 *
b0 3
b0 >
0B
bx0 &
bx0 ,
bx0 ?
bx0 J
#70
10
#80
0G"
0F"
0A"
0?"
bx00x $
#90
03"
08"
0B"
0|
0""
0'"
0-"
07"
0C"
0I
0M
02"
09"
0H
0Q
0T
0[
0c
0z
b0 !
b0 f
b0 u
b0 }
0%"
b0x i
b0x ~
b0x ("
0F
0D
b0 &
b0 ,
b0 ?
b0 J
0P
bx0x /
bx0x K
bx0x V
#100
0E"
0="
bx000 $
0)
#110
1*"
#120
0&"
0+"
0S
0Y
0U
0]
1X
0e
0#"
b0 i
b0 ~
b0 ("
0N
0R
b0 /
b0 K
b0 V
#130
0H"
0D"
b0 $
0+
#150
0g
#160
0-
#180
xh
0"
#210
0h
#1000
0'
01
#1020
14
1@
1m
1v
1#
#1050
1;
1A
1r
1w
16
b1 *
b1 3
b1 >
1o
b1 d
b1 l
b1 t
#1080
14"
1<"
1G
1O
11"
16"
1;"
1{
1$"
1B
b1 &
b1 ,
b1 ?
b1 J
1c
1x
b1 !
b1 f
b1 u
b1 }
#1090
1)
#1100
0*"
#1110
0X
1e
#1120
1E"
1="
b1 $
1+
#1130
0n
0/"
0m
0,"
b0 b
b0 k
b0 )"
#1140
05
0_
04
0Z
b0 (
b0 2
b0 W
#1160
0r
0w
0o
b0 d
b0 l
b0 t
0j
#1170
0;
0A
06
b0 *
b0 3
b0 >
1"
#1180
1!"
00
#1190
0#
0c
#1200
1L
#1210
1'"
1-"
1*"
1%"
b10 i
b10 ~
b10 ("
0)
#1230
1T
1[
1X
1P
b10 /
b10 K
b10 V
#1240
1p
10"
1g
1."
b10 b
b10 k
b10 )"
#1260
17
1`
1\
b10 (
b10 2
b10 W
#1270
1j
1h
1-
#1290
0!"
0v
#1300
1.
10
#1320
01"
06"
0;"
0{
0$"
0@
0L
0x
b0 !
b0 f
b0 u
b0 }
#1350
0'"
0-"
04"
0<"
0G
0O
0e
0%"
b0 i
b0 ~
b0 ("
0B
b0 &
b0 ,
b0 ?
b0 J
#1370
1m
#1380
0T
0[
0g
0P
b0 /
b0 K
b0 V
#1390
0E"
0="
b0 $
0+
#1400
1s
1y
1q
b10 d
b10 l
b10 t
#1410
14
#1420
0-
#1430
1c
#1440
1<
1C
18
b10 *
b10 3
b10 >
0"
#1450
0*"
#1460
1#
#1470
0h
0.
#1480
0p
00"
0."
b0 b
b0 k
b0 )"
1)
#1490
1v
1@
#1500
0X
#1510
0j
#1520
13"
18"
1B"
1|
1""
12"
19"
1H
1Q
1z
b10 !
b10 f
b10 u
b10 }
1D
b10 &
b10 ,
b10 ?
b10 J
#1530
07
0`
1!"
0\
b0 (
b0 2
b0 W
#1550
1e
#1560
1&"
1+"
1#"
b1 i
b1 ~
b1 ("
1+
#1570
1@"
0m
00
1:"
b10 %
#1580
04
#1590
1L
1g
#1600
1G"
0s
0y
1A"
b100 $
0q
b0 d
b0 l
b0 t
#1610
0<
0C
08
b0 *
b0 3
b0 >
#1620
1U
1]
1R
b100 /
b100 K
b100 V
#1630
0c
#1650
1*"
0)
1"
#1660
1-
#1670
1X
0#
#1680
1n
1/"
1,"
b1 b
b1 k
b1 )"
1h
#1690
1.
#1700
19
1a
0v
1^
b100 (
b100 2
b100 W
#1710
0@
1j
#1730
03"
08"
0B"
0|
0""
0!"
0z
b0 !
b0 f
b0 u
b0 }
#1740
02"
09"
0H
0Q
0D
b0 &
b0 ,
b0 ?
b0 J
10
#1760
0&"
0+"
0L
0e
0#"
b0 i
b0 ~
b0 ("
#1780
1m
0+
#1790
0U
0]
0@"
0g
0R
b0 /
b0 K
b0 V
0:"
b0 %
#1800
14
#1810
1r
1w
1o
b1 d
b1 l
b1 t
#1820
0G"
0A"
b0 $
#1830
1=
1E
1:
b100 *
b100 3
b100 >
0-
#1840
1c
#1860
0*"
#1870
1)
0"
#1890
0n
0/"
0X
1#
0,"
b0 b
b0 k
b0 )"
#1900
0h
0.
#1920
09
0a
1v
1@
0j
0^
b0 (
b0 2
b0 W
#1940
1!"
#1950
11"
16"
1;"
1{
1$"
17"
1C"
1I
1M
1x
b1 !
b1 f
b1 u
b1 }
1F
b100 &
b100 ,
b100 ?
b100 J
#1960
00
#1980
1'"
1-"
1L
1e
1%"
b10 i
b10 ~
b10 ("
#1990
1+
#2000
1@"
0m
1:"
b10 %
#2010
1S
1Y
04
1g
1N
b1 /
b1 K
b1 V
#2030
1G"
0r
0w
1A"
b100 $
0o
b0 d
b0 l
b0 t
#2040
0=
0E
0:
b0 *
b0 3
b0 >
#2050
1-
#2060
0c
#2080
1*"
0)
1"
#2100
1X
0#
#2110
1p
10"
1."
b10 b
b10 k
b10 )"
1h
1.
#2130
15
1_
0v
0@
1Z
b1 (
b1 2
b1 W
#2140
1j
#2160
01"
06"
0;"
0{
0$"
07"
0C"
0I
0M
0!"
0x
b0 !
b0 f
b0 u
b0 }
0F
b0 &
b0 ,
b0 ?
b0 J
#2170
10
#2190
0'"
0-"
0L
0e
0%"
b0 i
b0 ~
b0 ("
#2200
0+
#2210
0@"
1m
0:"
b0 %
#2220
0S
0Y
14
0g
0N
b0 /
b0 K
b0 V
#2240
0G"
1s
1y
0A"
b0 $
1q
b10 d
b10 l
b10 t
#2250
1;
1A
16
b1 *
b1 3
b1 >
#2260
0-
#2270
1c
#2290
0*"
1)
0"
#2310
0X
1#
#2320
0p
00"
0."
b0 b
b0 k
b0 )"
0h
0.
#2340
05
0_
1v
1@
0Z
b0 (
b0 2
b0 W
#2350
0j
#2370
13"
18"
1B"
1|
1""
14"
1<"
1G
1O
1!"
1z
b10 !
b10 f
b10 u
b10 }
1B
b1 &
b1 ,
b1 ?
b1 J
#2380
00
#2400
1&"
1+"
1L
1e
1#"
b1 i
b1 ~
b1 ("
#2410
1+
#2420
1>"
0m
15"
b1 %
#2430
1T
1[
04
1g
1P
b10 /
b10 K
b10 V
#2450
1F"
0s
0y
1?"
b10 $
0q
b0 d
b0 l
b0 t
#2460
0;
0A
06
b0 *
b0 3
b0 >
#2470
1-
#2480
0c
#2500
1*"
0)
1"
#2520
1X
0#
#2530
1n
1/"
1,"
b1 b
b1 k
b1 )"
1h
1.
#2550
17
1`
0v
0@
1\
b10 (
b10 2
b10 W
#2560
1j
#2580
03"
08"
0B"
0|
0""
04"
0<"
0G
0O
0!"
0z
b0 !
b0 f
b0 u
b0 }
0B
b0 &
b0 ,
b0 ?
b0 J
#2590
10
#2610
0&"
0+"
0L
0e
0#"
b0 i
b0 ~
b0 ("
#2620
0+
#2630
0>"
1m
05"
b0 %
#2640
0T
0[
14
0g
0P
b0 /
b0 K
b0 V
#2660
0F"
1r
1w
0?"
b0 $
1o
b1 d
b1 l
b1 t
#2670
1<
1C
18
b10 *
b10 3
b10 >
#2680
0-
#2690
1c
#2710
0*"
1)
0"
#2730
0X
1#
#2740
0n
0/"
0,"
b0 b
b0 k
b0 )"
0h
0.
#2760
07
0`
1v
1@
0\
b0 (
b0 2
b0 W
#2770
0j
#2790
11"
16"
1;"
1{
1$"
12"
19"
1H
1Q
1!"
1x
b1 !
b1 f
b1 u
b1 }
1D
b10 &
b10 ,
b10 ?
b10 J
#2800
00
#2820
1'"
1-"
1L
1e
1%"
b10 i
b10 ~
b10 ("
#2830
1+
#2840
1>"
0m
15"
b1 %
#2850
1U
1]
04
1g
1R
b100 /
b100 K
b100 V
#2870
1F"
0r
0w
1?"
b10 $
0o
b0 d
b0 l
b0 t
#2880
0<
0C
08
b0 *
b0 3
b0 >
#2890
1-
#2900
0c
#2920
1*"
0)
1"
#2940
1X
0#
#2950
1p
10"
1."
b10 b
b10 k
b10 )"
1h
1.
#2970
19
1a
0v
0@
1^
b100 (
b100 2
b100 W
#2980
1j
#3000
01"
06"
0;"
0{
0$"
02"
09"
0H
0Q
0!"
0x
b0 !
b0 f
b0 u
b0 }
0D
b0 &
b0 ,
b0 ?
b0 J
#3010
10
#3030
0'"
0-"
0L
0e
0%"
b0 i
b0 ~
b0 ("
#3040
0+
#3050
0>"
1m
05"
b0 %
#3060
0U
0]
14
0g
0R
b0 /
b0 K
b0 V
#3080
0F"
1s
1y
0?"
b0 $
1q
b10 d
b10 l
b10 t
#3090
1=
1E
1:
b100 *
b100 3
b100 >
#3100
0-
#3110
1c
#3130
0*"
1)
0"
#3150
0X
1#
#3160
0p
00"
0."
b0 b
b0 k
b0 )"
0h
0.
#3180
09
0a
1v
1@
0^
b0 (
b0 2
b0 W
#3190
0j
#3210
13"
18"
1B"
1|
1""
17"
1C"
1I
1M
1!"
1z
b10 !
b10 f
b10 u
b10 }
1F
b100 &
b100 ,
b100 ?
b100 J
#3220
00
#3240
1&"
1+"
1L
1e
1#"
b1 i
b1 ~
b1 ("
#3250
1H"
1D"
b1000 $
1+
#3260
0m
#3270
1S
1Y
04
1g
1N
b1 /
b1 K
b1 V
#3290
0s
0y
0q
b0 d
b0 l
b0 t
#3300
0=
0E
0:
b0 *
b0 3
b0 >
1"
#3310
1-
#3320
0#
0c
#3330
1h
#3340
1*"
1.
0)
#3350
0v
#3360
0@
1X
#3370
1n
1/"
1,"
b1 b
b1 k
b1 )"
#3380
03"
08"
0B"
0|
0""
0z
b0 !
b0 f
b0 u
b0 }
#3390
07"
0C"
0I
0M
15
1_
0F
b0 &
b0 ,
b0 ?
b0 J
1Z
b1 (
b1 2
b1 W
#3400
1j
#3410
0e
#3420
0!"
#3430
0H"
1m
0D"
b0 $
0+
10
#3450
0&"
0+"
14
0L
0#"
b0 i
b0 ~
b0 ("
#3460
1r
1w
1o
b1 d
b1 l
b1 t
#3480
1;
1A
0S
0Y
0g
16
b1 *
b1 3
b1 >
0N
b0 /
b0 K
b0 V
0"
#3490
1c
#3500
1#
#3510
0*"
0h
#3520
1)
0-
#3530
1v
#3540
0n
0/"
0X
0,"
b0 b
b0 k
b0 )"
#3550
0.
#3560
11"
16"
1;"
1{
1$"
1x
b1 !
b1 f
b1 u
b1 }
#3570
05
0_
1@
0j
0Z
b0 (
b0 2
b0 W
#3590
1!"
1e
#3600
14"
1<"
1G
1O
1B
b1 &
b1 ,
b1 ?
b1 J
#3610
0m
00
#3620
1'"
1-"
1%"
b10 i
b10 ~
b10 ("
#3630
1L
#3640
0r
0w
1E"
0o
b0 d
b0 l
b0 t
1="
b1 $
1+
#3650
1g
#3660
1T
1[
04
1P
b10 /
b10 K
b10 V
#3670
0c
#3690
0;
0A
1*"
06
b0 *
b0 3
b0 >
1"
#3700
1-
#3710
0#
#3720
1p
10"
1."
b10 b
b10 k
b10 )"
1h
#3730
1.
0)
#3740
0v
#3750
0@
1X
1j
#3770
01"
06"
0;"
0{
0$"
0!"
0x
b0 !
b0 f
b0 u
b0 }
#3780
04"
0<"
0G
0O
17
1`
0B
b0 &
b0 ,
b0 ?
b0 J
1\
b10 (
b10 2
b10 W
#3800
0'"
0-"
0e
0%"
b0 i
b0 ~
b0 ("
#3820
0E"
1m
0="
b0 $
0+
10
#3830
0g
#3840
14
0L
#3850
1s
1y
1q
b10 d
b10 l
b10 t
#3870
1<
1C
0T
0[
18
b10 *
b10 3
b10 >
0P
b0 /
b0 K
b0 V
0"
#3880
1c
#3890
1#
#3900
0*"
0h
#3910
1)
0-
#3920
1v
#3930
0p
00"
0X
0."
b0 b
b0 k
b0 )"
#3940
0.
#3950
13"
18"
1B"
1|
1""
1z
b10 !
b10 f
b10 u
b10 }
#3960
07
0`
1@
0j
0\
b0 (
b0 2
b0 W
#3980
1!"
1e
#3990
12"
19"
1H
1Q
1D
b10 &
b10 ,
b10 ?
b10 J
#4000
0m
00
#4010
1&"
1+"
1#"
b1 i
b1 ~
b1 ("
#4020
1L
#4030
0s
0y
0q
b0 d
b0 l
b0 t
1+
#4040
1@"
1g
1:"
b10 %
#4050
1U
1]
04
1R
b100 /
b100 K
b100 V
#4060
0c
#4070
1G"
1A"
b100 $
#4080
0<
0C
1*"
08
b0 *
b0 3
b0 >
#4090
1-
#4110
1n
1/"
1,"
b1 b
b1 k
b1 )"
#4120
0)
1"
#4140
1X
0#
1j
#4150
1h
1.
#4160
0!"
#4170
19
1a
0v
0@
1^
b100 (
b100 2
b100 W
#4200
03"
08"
0B"
0|
0""
02"
09"
0H
0Q
0z
b0 !
b0 f
b0 u
b0 }
0D
b0 &
b0 ,
b0 ?
b0 J
#4210
10
#4230
0&"
0+"
0L
0e
0#"
b0 i
b0 ~
b0 ("
#4240
0+
#4250
0@"
1m
0:"
b0 %
#4260
0U
0]
14
0g
0R
b0 /
b0 K
b0 V
#4280
0G"
1r
1w
0A"
b0 $
1o
b1 d
b1 l
b1 t
#4290
1=
1E
1:
b100 *
b100 3
b100 >
#4300
0-
#4310
1c
#4330
0*"
1)
0"
#4350
0X
1#
#4360
0n
0/"
0,"
b0 b
b0 k
b0 )"
0h
0.
#4380
09
0a
1v
1@
0^
b0 (
b0 2
b0 W
#4390
0j
#4410
11"
16"
1;"
1{
1$"
17"
1C"
1I
1M
1!"
1x
b1 !
b1 f
b1 u
b1 }
1F
b100 &
b100 ,
b100 ?
b100 J
#4420
00
#4440
1'"
1-"
1L
1e
1%"
b10 i
b10 ~
b10 ("
#4450
1+
#4460
1@"
0m
1:"
b10 %
#4470
1S
1Y
04
1g
1N
b1 /
b1 K
b1 V
#4490
1G"
0r
0w
1A"
b100 $
0o
b0 d
b0 l
b0 t
#4500
0=
0E
0:
b0 *
b0 3
b0 >
#4510
1-
#4520
0c
#4540
1*"
0)
1"
#4560
1X
0#
#4570
1p
10"
1."
b10 b
b10 k
b10 )"
1h
1.
#4590
15
1_
0v
0@
1Z
b1 (
b1 2
b1 W
#4600
1j
#4620
01"
06"
0;"
0{
0$"
07"
0C"
0I
0M
0!"
0x
b0 !
b0 f
b0 u
b0 }
0F
b0 &
b0 ,
b0 ?
b0 J
#4630
10
#4650
0'"
0-"
0L
0e
0%"
b0 i
b0 ~
b0 ("
#4660
0+
#4670
0@"
1m
0:"
b0 %
#4680
0S
0Y
14
0g
0N
b0 /
b0 K
b0 V
#4700
0G"
1s
1y
0A"
b0 $
1q
b10 d
b10 l
b10 t
#4710
1;
1A
16
b1 *
b1 3
b1 >
#4720
0-
#4730
1c
#4750
0*"
1)
0"
#4770
0X
1#
#4780
0p
00"
0."
b0 b
b0 k
b0 )"
0h
0.
#4800
05
0_
1v
1@
0Z
b0 (
b0 2
b0 W
#4810
0j
#4830
13"
18"
1B"
1|
1""
14"
1<"
1G
1O
1!"
1z
b10 !
b10 f
b10 u
b10 }
1B
b1 &
b1 ,
b1 ?
b1 J
#4840
00
#4860
1&"
1+"
1L
1e
1#"
b1 i
b1 ~
b1 ("
#4870
1+
#4880
1>"
0m
15"
b1 %
#4890
1T
1[
04
1g
1P
b10 /
b10 K
b10 V
#4910
1F"
0s
0y
1?"
b10 $
0q
b0 d
b0 l
b0 t
#4920
0;
0A
06
b0 *
b0 3
b0 >
#4930
1-
#4940
0c
#4960
1*"
0)
1"
#4980
1X
0#
#4990
1n
1/"
1,"
b1 b
b1 k
b1 )"
1h
1.
#5010
17
1`
0v
0@
1\
b10 (
b10 2
b10 W
#5020
1j
#5040
03"
08"
0B"
0|
0""
04"
0<"
0G
0O
0!"
0z
b0 !
b0 f
b0 u
b0 }
0B
b0 &
b0 ,
b0 ?
b0 J
#5050
10
#5070
0&"
0+"
0L
0e
0#"
b0 i
b0 ~
b0 ("
#5080
0+
#5090
0>"
1m
05"
b0 %
#5100
0T
0[
14
0g
0P
b0 /
b0 K
b0 V
#5120
0F"
1r
1w
0?"
b0 $
1o
b1 d
b1 l
b1 t
#5130
1<
1C
18
b10 *
b10 3
b10 >
#5140
0-
#5150
1c
#5170
0*"
1)
0"
#5190
0X
1#
#5200
0n
0/"
0,"
b0 b
b0 k
b0 )"
0h
0.
#5220
07
0`
1v
1@
0\
b0 (
b0 2
b0 W
#5230
0j
#5250
11"
16"
1;"
1{
1$"
12"
19"
1H
1Q
1!"
1x
b1 !
b1 f
b1 u
b1 }
1D
b10 &
b10 ,
b10 ?
b10 J
#5260
00
#5280
1'"
1-"
1L
1e
1%"
b10 i
b10 ~
b10 ("
#5290
1+
#5300
1>"
0m
15"
b1 %
#5310
1U
1]
04
1g
1R
b100 /
b100 K
b100 V
#5330
1F"
0r
0w
1?"
b10 $
0o
b0 d
b0 l
b0 t
#5340
0<
0C
08
b0 *
b0 3
b0 >
#5350
1-
#5360
0c
#5380
1*"
0)
1"
#5400
1X
0#
#5410
1p
10"
1."
b10 b
b10 k
b10 )"
1h
1.
#5430
19
1a
0v
0@
1^
b100 (
b100 2
b100 W
#5440
1j
#5460
01"
06"
0;"
0{
0$"
02"
09"
0H
0Q
0!"
0x
b0 !
b0 f
b0 u
b0 }
0D
b0 &
b0 ,
b0 ?
b0 J
#5470
10
#5490
0'"
0-"
0L
0e
0%"
b0 i
b0 ~
b0 ("
#5500
0+
#5510
0>"
1m
05"
b0 %
#5520
0U
0]
14
0g
0R
b0 /
b0 K
b0 V
#5540
0F"
1s
1y
0?"
b0 $
1q
b10 d
b10 l
b10 t
#5550
1=
1E
1:
b100 *
b100 3
b100 >
#5560
0-
#5570
1c
#5590
0*"
1)
0"
#5610
0X
1#
#5620
0p
00"
0."
b0 b
b0 k
b0 )"
0h
0.
#5640
09
0a
1v
1@
0^
b0 (
b0 2
b0 W
#5650
0j
#5670
13"
18"
1B"
1|
1""
17"
1C"
1I
1M
1!"
1z
b10 !
b10 f
b10 u
b10 }
1F
b100 &
b100 ,
b100 ?
b100 J
#5680
00
#5700
1&"
1+"
1L
1e
1#"
b1 i
b1 ~
b1 ("
#5710
1H"
1D"
b1000 $
1+
#5720
0m
#5730
1S
1Y
04
1g
1N
b1 /
b1 K
b1 V
#5750
0s
0y
0q
b0 d
b0 l
b0 t
#5760
0=
0E
0:
b0 *
b0 3
b0 >
1"
#5770
1-
#5780
0#
0c
#5790
1h
#5800
1*"
1.
0)
#5810
0v
#5820
0@
1X
#5830
1n
1/"
1,"
b1 b
b1 k
b1 )"
#5840
03"
08"
0B"
0|
0""
0z
b0 !
b0 f
b0 u
b0 }
#5850
07"
0C"
0I
0M
15
1_
0F
b0 &
b0 ,
b0 ?
b0 J
1Z
b1 (
b1 2
b1 W
#5860
1j
#5870
0e
#5880
0!"
#5890
0H"
1m
0D"
b0 $
0+
10
#5910
0&"
0+"
14
0L
0#"
b0 i
b0 ~
b0 ("
#5920
1r
1w
1o
b1 d
b1 l
b1 t
#5940
1;
1A
0S
0Y
0g
16
b1 *
b1 3
b1 >
0N
b0 /
b0 K
b0 V
0"
#5950
1c
#5960
1#
#5970
0*"
0h
#5980
1)
0-
#5990
1v
#6000
0n
0/"
0X
0,"
b0 b
b0 k
b0 )"
#6010
0.
#6020
11"
16"
1;"
1{
1$"
1x
b1 !
b1 f
b1 u
b1 }
#6030
05
0_
1@
0j
0Z
b0 (
b0 2
b0 W
#6050
1!"
1e
#6060
14"
1<"
1G
1O
1B
b1 &
b1 ,
b1 ?
b1 J
#6070
0m
00
#6080
1'"
1-"
1%"
b10 i
b10 ~
b10 ("
#6090
1L
