basics/fanoutfanin1ref.vcd
$date
	Thu Jul 23 21:37:47 2015
$end
$version
	Icarus Verilog
$end
$timescale
	1ps
$end
$scope module fanoutfanin1 $end
$var wire 1 ! B $end
$var wire 1 " B2 $end
$var wire 1 # B2COMP $end
$var wire 1 $ BCOMP $end
$var wire 1 % BbotCOMP $end
$var wire 1 & BtopCOMP $end
$var wire 1 ' Cbot $end
$var wire 1 ( CbotCOMP $end
$var wire 1 ) Ctop $end
$var wire 1 * CtopCOMP $end
$var wire 1 + DCOMP $end
$var wire 1 , Dbot $end
$var wire 1 - Dtop $end
$var wire 1 . E $end
$var wire 1 / ECOMP $end
$var wire 1 0 F $end
$var wire 1 1 FCOMP $end
$var reg 1 2 init $end
$scope module A0 $end
$var wire 1 $ A $end
$var wire 1 3 B $end
$var wire 1 ! Z $end
$upscope $end
$scope module u10 $end
$var wire 1 & A $end
$var wire 1 % B $end
$var wire 1 # Z $end
$upscope $end
$scope module u9 $end
$var wire 1 ! A $end
$var wire 1 $ ACOMP $end
$var wire 1 " Z $end
$var wire 1 # ZCOMP $end
$var wire 1 4 enable $end
$var wire 1 3 init $end
$scope module u0 $end
$var wire 1 # A $end
$var wire 1 3 B $end
$var wire 1 4 Z $end
$upscope $end
$scope module u1 $end
$var wire 1 ! A $end
$var wire 1 4 B $end
$var wire 1 " Z $end
$upscope $end
$upscope $end
$scope module u3 $end
$var wire 1 " A $end
$var wire 1 & ACOMP $end
$var wire 1 ) Z $end
$var wire 1 * ZCOMP $end
$var wire 1 5 enable $end
$var wire 1 3 init $end
$scope module u0 $end
$var wire 1 * A $end
$var wire 1 3 B $end
$var wire 1 5 Z $end
$upscope $end
$scope module u1 $end
$var wire 1 " A $end
$var wire 1 5 B $end
$var wire 1 ) Z $end
$upscope $end
$upscope $end
$scope module u4 $end
$var wire 1 " A $end
$var wire 1 % ACOMP $end
$var wire 1 ' Z $end
$var wire 1 ( ZCOMP $end
$var wire 1 6 enable $end
$var wire 1 3 init $end
$scope module u0 $end
$var wire 1 ( A $end
$var wire 1 3 B $end
$var wire 1 6 Z $end
$upscope $end
$scope module u1 $end
$var wire 1 " A $end
$var wire 1 6 B $end
$var wire 1 ' Z $end
$upscope $end
$upscope $end
$scope module u5 $end
$var wire 1 ) A $end
$var wire 1 * ACOMP $end
$var wire 1 - Z $end
$var wire 1 + ZCOMP $end
$var wire 1 7 enable $end
$var wire 1 3 init $end
$scope module u0 $end
$var wire 1 + A $end
$var wire 1 3 B $end
$var wire 1 7 Z $end
$upscope $end
$scope module u1 $end
$var wire 1 ) A $end
$var wire 1 7 B $end
$var wire 1 - Z $end
$upscope $end
$upscope $end
$scope module u6 $end
$var wire 1 ' A $end
$var wire 1 ( ACOMP $end
$var wire 1 , Z $end
$var wire 1 + ZCOMP $end
$var wire 1 8 enable $end
$var wire 1 3 init $end
$scope module u0 $end
$var wire 1 + A $end
$var wire 1 3 B $end
$var wire 1 8 Z $end
$upscope $end
$scope module u1 $end
$var wire 1 ' A $end
$var wire 1 8 B $end
$var wire 1 , Z $end
$upscope $end
$upscope $end
$scope module u7 $end
$var wire 1 - A $end
$var wire 1 + ACOMP $end
$var wire 1 , B $end
$var wire 1 . Z $end
$var wire 1 / ZCOMP $end
$var wire 1 9 enable $end
$var wire 1 3 init $end
$scope module u0 $end
$var wire 1 / A $end
$var wire 1 3 B $end
$var wire 1 9 Z $end
$upscope $end
$scope module u1 $end
$var wire 1 - A $end
$var wire 1 , B $end
$var wire 1 9 C $end
$var wire 1 . Z $end
$upscope $end
$upscope $end
$scope module u8 $end
$var wire 1 . A $end
$var wire 1 / ACOMP $end
$var wire 1 0 Z $end
$var wire 1 1 ZCOMP $end
$var wire 1 : enable $end
$var wire 1 3 init $end
$scope module u0 $end
$var wire 1 1 A $end
$var wire 1 3 B $end
$var wire 1 : Z $end
$upscope $end
$scope module u1 $end
$var wire 1 . A $end
$var wire 1 : B $end
$var wire 1 0 Z $end
$upscope $end
$upscope $end
$upscope $end
$enddefinitions $end
#0
$dumpvars
z:
z9
z8
z7
z6
z5
z4
03
02
z1
z0
z/
z.
z-
z,
z+
z*
z)
z(
z'
z&
z%
z$
z#
z"
z!
$end
#10
12
13
#30
0!
04
05
06
07
08
09
0:
0/
00
01
0(
0,
0*
0-
0%
0'
0&
0)
0$
0"
0#
#40
0+
0.
#210
02
03
#230
1!
14
15
16
17
18
19
1:
#260
1$
1"
#280
0!
#290
1&
1)
1%
1'
#320
1*
1-
1#
1(
1,
#340
05
04
06
#360
1+
1.
#370
0$
0"
#380
08
07
#390
1!
1/
10
11
#400
0&
0)
0%
0'
#410
09
0:
#430
0*
0-
0#
0(
0,
#450
15
14
16
#470
0+
0.
#480
1$
1"
#490
18
17
#500
0!
0/
00
01
#510
1&
1)
1%
1'
#520
19
1:
#540
1*
1-
1#
1(
1,
#560
05
04
06
#580
1+
1.
#590
0$
0"
#600
08
07
#610
1!
1/
10
11
#620
0&
0)
0%
0'
#630
09
0:
#650
0*
0-
0#
0(
0,
#670
15
14
16
#690
0+
0.
#700
1$
1"
#710
18
17
#720
0!
0/
00
01
#730
1&
1)
1%
1'
#740
19
1:
#760
1*
1-
1#
1(
1,
#780
05
04
06
#800
1+
1.
#810
0$
0"
#820
08
07
#830
1!
1/
10
11
#840
0&
0)
0%
0'
#850
09
0:
#870
0*
0-
0#
0(
0,
#890
15
14
16
#910
0+
0.
#920
1$
1"
#930
18
17
#940
0!
0/
00
01
#950
1&
1)
1%
1'
#960
19
1:
#980
1*
1-
1#
1(
1,
#1000
05
04
06
#1020
1+
1.
#1030
0$
0"
#1040
08
07
#1050
1!
1/
10
11
#1060
0&
0)
0%
0'
#1070
09
0:
#1090
0*
0-
0#
0(
0,
#1110
15
14
16
#1130
0+
0.
#1140
1$
1"
#1150
18
17
#1160
0!
0/
00
01
#1170
1&
1)
1%
1'
#1180
19
1:
#1200
1*
1-
1#
1(
1,
#1220
05
04
06
#1240
1+
1.
#1250
0$
0"
#1260
08
07
#1270
1!
1/
10
11
#1280
0&
0)
0%
0'
#1290
09
0:
#1310
0*
0-
0#
0(
0,
#1330
15
14
16
#1350
0+
0.
#1360
1$
1"
#1370
18
17
#1380
0!
0/
00
01
#1390
1&
1)
1%
1'
#1400
19
1:
#1420
1*
1-
1#
1(
1,
#1440
05
04
06
#1460
1+
1.
#1470
0$
0"
#1480
08
07
#1490
1!
1/
10
11
#1500
0&
0)
0%
0'
#1510
09
0:
#1530
0*
0-
0#
0(
0,
#1550
15
14
16
#1570
0+
0.
#1580
1$
1"
#1590
18
17
#1600
0!
0/
00
01
#1610
1&
1)
1%
1'
#1620
19
1:
#1640
1*
1-
1#
1(
1,
#1660
05
04
06
#1680
1+
1.
#1690
0$
0"
#1700
08
07
#1710
1!
1/
10
11
#1720
0&
0)
0%
0'
#1730
09
0:
#1750
0*
0-
0#
0(
0,
#1770
15
14
16
#1790
0+
0.
#1800
1$
1"
#1810
18
17
#1820
0!
0/
00
01
#1830
1&
1)
1%
1'
#1840
19
1:
#1860
1*
1-
1#
1(
1,
#1880
05
04
06
#1900
1+
1.
#1910
0$
0"
#1920
08
07
#1930
1!
1/
10
11
#1940
0&
0)
0%
0'
#1950
09
0:
#1970
0*
0-
0#
0(
0,
#1990
15
14
16
#2010
0+
0.
#2020
1$
1"
#2030
18
17
#2040
0!
0/
00
01
#2050
1&
1)
1%
1'
#2060
19
1:
#2080
1*
1-
1#
1(
1,
#2100
05
04
06
#2120
1+
1.
#2130
0$
0"
#2140
08
07
#2150
1!
1/
10
11
#2160
0&
0)
0%
0'
#2170
09
0:
#2190
0*
0-
0#
0(
0,
#2210
15
14
16
#2230
0+
0.
#2240
1$
1"
#2250
18
17
#2260
0!
0/
00
01
#2270
1&
1)
1%
1'
#2280
19
1:
#2300
1*
1-
1#
1(
1,
#2320
05
04
06
#2340
1+
1.
#2350
0$
0"
#2360
08
07
#2370
1!
1/
10
11
#2380
0&
0)
0%
0'
#2390
09
0:
#2410
0*
0-
0#
0(
0,
#2430
15
14
16
#2450
0+
0.
#2460
1$
1"
#2470
18
17
#2480
0!
0/
00
01
#2490
1&
1)
1%
1'
#2500
19
1:
#2520
1*
1-
1#
1(
1,
#2540
05
04
06
#2560
1+
1.
#2570
0$
0"
#2580
08
07
#2590
1!
1/
10
11
#2600
0&
0)
0%
0'
#2610
09
0:
#2630
0*
0-
0#
0(
0,
#2650
15
14
16
#2670
0+
0.
#2680
1$
1"
#2690
18
17
#2700
0!
0/
00
01
#2710
1&
1)
1%
1'
#2720
19
1:
#2740
1*
1-
1#
1(
1,
#2760
05
04
06
#2780
1+
1.
#2790
0$
0"
#2800
08
07
#2810
1!
1/
10
11
#2820
0&
0)
0%
0'
#2830
09
0:
#2850
0*
0-
0#
0(
0,
#2870
15
14
16
#2890
0+
0.
#2900
1$
1"
#2910
18
17
#2920
0!
0/
00
01
#2930
1&
1)
1%
1'
#2940
19
1:
#2960
1*
1-
1#
1(
1,
#2980
05
04
06
#3000
1+
1.
#3010
0$
0"
#3020
08
07
#3030
1!
1/
10
11
#3040
0&
0)
0%
0'
#3050
09
0:
#3070
0*
0-
0#
0(
0,
#3090
15
14
16
#3110
0+
0.
#3120
1$
1"
#3130
18
17
#3140
0!
0/
00
01
#3150
1&
1)
1%
1'
#3160
19
1:
#3180
1*
1-
1#
1(
1,
#3200
05
04
06
#3220
1+
1.
#3230
0$
0"
#3240
08
07
#3250
1!
1/
10
11
#3260
0&
0)
0%
0'
#3270
09
0:
#3290
0*
0-
0#
0(
0,
#3310
15
14
16
#3330
0+
0.
#3340
1$
1"
#3350
18
17
#3360
0!
0/
00
01
#3370
1&
1)
1%
1'
#3380
19
1:
#3400
1*
1-
1#
1(
1,
#3420
05
04
06
#3440
1+
1.
#3450
0$
0"
#3460
08
07
#3470
1!
1/
10
11
#3480
0&
0)
0%
0'
#3490
09
0:
#3510
0*
0-
0#
0(
0,
#3530
15
14
16
#3550
0+
0.
#3560
1$
1"
#3570
18
17
#3580
0!
0/
00
01
#3590
1&
1)
1%
1'
#3600
19
1:
#3620
1*
1-
1#
1(
1,
#3640
05
04
06
#3660
1+
1.
#3670
0$
0"
#3680
08
07
#3690
1!
1/
10
11
#3700
0&
0)
0%
0'
#3710
09
0:
#3730
0*
0-
0#
0(
0,
#3750
15
14
16
#3770
0+
0.
#3780
1$
1"
#3790
18
17
#3800
0!
0/
00
01
#3810
1&
1)
1%
1'
#3820
19
1:
#3840
1*
1-
1#
1(
1,
#3860
05
04
06
#3880
1+
1.
#3890
0$
0"
#3900
08
07
#3910
1!
1/
10
11
#3920
0&
0)
0%
0'
#3930
09
0:
#3950
0*
0-
0#
0(
0,
#3970
15
14
16
#3990
0+
0.
#4000
1$
1"
#4010
18
17
#4020
0!
0/
00
01
#4030
1&
1)
1%
1'
#4040
19
1:
#4060
1*
1-
1#
1(
1,
#4080
05
04
06
#4100
1+
1.
#4110
0$
0"
#4120
08
07
#4130
1!
1/
10
11
#4140
0&
0)
0%
0'
#4150
09
0:
#4170
0*
0-
0#
0(
0,
#4190
15
14
16
#4210
0+
0.
#4220
1$
1"
#4230
18
17
#4240
0!
0/
00
01
#4250
1&
1)
1%
1'
#4260
19
1:
#4280
1*
1-
1#
1(
1,
#4300
05
04
06
#4320
1+
1.
#4330
0$
0"
#4340
08
07
#4350
1!
1/
10
11
#4360
0&
0)
0%
0'
#4370
09
0:
#4390
0*
0-
0#
0(
0,
#4410
15
14
16
#4430
0+
0.
#4440
1$
1"
#4450
18
17
#4460
0!
0/
00
01
#4470
1&
1)
1%
1'
#4480
19
1:
#4500
1*
1-
1#
1(
1,
#4520
05
04
06
#4540
1+
1.
#4550
0$
0"
#4560
08
07
#4570
1!
1/
10
11
#4580
0&
0)
0%
0'
#4590
09
0:
#4610
0*
0-
0#
0(
0,
#4630
15
14
16
#4650
0+
0.
#4660
1$
1"
#4670
18
17
#4680
0!
0/
00
01
#4690
1&
1)
1%
1'
#4700
19
1:
#4720
1*
1-
1#
1(
1,
#4740
05
04
06
#4760
1+
1.
#4770
0$
0"
#4780
08
07
#4790
1!
1/
10
11
#4800
0&
0)
0%
0'
#4810
09
0:
#4830
0*
0-
0#
0(
0,
#4850
15
14
16
#4870
0+
0.
#4880
1$
1"
#4890
18
17
#4900
0!
0/
00
01
#4910
1&
1)
1%
1'
#4920
19
1:
#4940
1*
1-
1#
1(
1,
#4960
05
04
06
#4980
1+
1.
#4990
0$
0"
#5000
08
07
#5010
1!
1/
10
11
#5020
0&
0)
0%
0'
#5030
09
0:
#5050
0*
0-
0#
0(
0,
#5070
15
14
16
#5090
0+
0.
#5100
1$
1"
#5110
18
17
#5120
0!
0/
00
01
#5130
1&
1)
1%
1'
#5140
19
1:
#5160
1*
1-
1#
1(
1,
#5180
05
04
06
#5200
1+
1.
#5210
0$
0"
#5220
08
07
#5230
1!
1/
10
11
#5240
0&
0)
0%
0'
#5250
09
0:
#5270
0*
0-
0#
0(
0,
#5290
15
14
16
#5310
0+
0.
#5320
1$
1"
#5330
18
17
#5340
0!
0/
00
01
#5350
1&
1)
1%
1'
#5360
19
1:
#5380
1*
1-
1#
1(
1,
#5400
05
04
06
#5420
1+
1.
#5430
0$
0"
#5440
08
07
#5450
1!
1/
10
11
#5460
0&
0)
0%
0'
#5470
09
0:
#5490
0*
0-
0#
0(
0,
#5510
15
14
16
#5530
0+
0.
#5540
1$
1"
#5550
18
17
#5560
0!
0/
00
01
#5570
1&
1)
1%
1'
#5580
19
1:
#5600
1*
1-
1#
1(
1,
#5620
05
04
06
#5640
1+
1.
#5650
0$
0"
#5660
08
07
#5670
1!
1/
10
11
#5680
0&
0)
0%
0'
#5690
09
0:
#5710
0*
0-
0#
0(
0,
#5730
15
14
16
#5750
0+
0.
#5760
1$
1"
#5770
18
17
#5780
0!
0/
00
01
#5790
1&
1)
1%
1'
#5800
19
1:
#5820
1*
1-
1#
1(
1,
#5840
05
04
06
#5860
1+
1.
#5870
0$
0"
#5880
08
07
#5890
1!
1/
10
11
#5900
0&
0)
0%
0'
#5910
09
0:
#5930
0*
0-
0#
0(
0,
#5950
15
14
16
#5970
0+
0.
#5980
1$
1"
#5990
18
17
#6000
0!
0/
00
01
#6010
1&
1)
1%
1'
#6020
19
1:
#6040
1*
1-
1#
1(
1,
#6060
05
04
06
#6080
1+
1.
#6090
0$
0"
#6100
08
07
#6110
1!
1/
10
11
#6120
0&
0)
0%
0'
#6130
09
0:
#6150
0*
0-
0#
0(
0,
#6170
15
14
16
#6190
0+
0.
#6200
1$
1"
#6210
18
17
#6220
0!
0/
00
01
#6230
1&
1)
1%
1'
#6240
19
1:
#6260
1*
1-
1#
1(
1,
#6280
05
04
06
#6300
1+
1.
#6310
0$
0"
#6320
08
07
#6330
1!
1/
10
11
#6340
0&
0)
0%
0'
#6350
09
0:
#6370
0*
0-
0#
0(
0,
#6390
15
14
16
#6410
0+
0.
#6420
1$
1"
#6430
18
17
#6440
0!
0/
00
01
#6450
1&
1)
1%
1'
#6460
19
1:
#6480
1*
1-
1#
1(
1,
#6500
05
04
06
#6520
1+
1.
#6530
0$
0"
#6540
08
07
#6550
1!
1/
10
11
#6560
0&
0)
0%
0'
#6570
09
0:
#6590
0*
0-
0#
0(
0,
#6610
15
14
16
#6630
0+
0.
#6640
1$
1"
#6650
18
17
#6660
0!
0/
00
01
#6670
1&
1)
1%
1'
#6680
19
1:
#6700
1*
1-
1#
1(
1,
#6720
05
04
06
#6740
1+
1.
#6750
0$
0"
#6760
08
07
#6770
1!
1/
10
11
#6780
0&
0)
0%
0'
#6790
09
0:
#6810
0*
0-
0#
0(
0,
#6830
15
14
16
#6850
0+
0.
#6860
1$
1"
#6870
18
17
#6880
0!
0/
00
01
#6890
1&
1)
1%
1'
#6900
19
1:
#6920
1*
1-
1#
1(
1,
#6940
05
04
06
#6960
1+
1.
#6970
0$
0"
#6980
08
07
#6990
1!
1/
10
11
#7000
0&
0)
0%
0'
#7010
09
0:
#7030
0*
0-
0#
0(
0,
#7050
15
14
16
#7070
0+
0.
#7080
1$
1"
#7090
18
17
#7100
0!
0/
00
01
#7110
1&
1)
1%
1'
#7120
19
1:
#7140
1*
1-
1#
1(
1,
#7160
05
04
06
#7180
1+
1.
#7190
0$
0"
#7200
08
07
#7210
1!
1/
10
11
#7220
0&
0)
0%
0'
#7230
09
0:
#7250
0*
0-
0#
0(
0,
#7270
15
14
16
#7290
0+
0.
#7300
1$
1"
#7310
18
17
#7320
0!
0/
00
01
#7330
1&
1)
1%
1'
#7340
19
1:
#7360
1*
1-
1#
1(
1,
#7380
05
04
06
#7400
1+
1.
#7410
0$
0"
#7420
08
07
#7430
1!
1/
10
11
#7440
0&
0)
0%
0'
#7450
09
0:
#7470
0*
0-
0#
0(
0,
#7490
15
14
16
#7510
0+
0.
#7520
1$
1"
#7530
18
17
#7540
0!
0/
00
01
#7550
1&
1)
1%
1'
#7560
19
1:
#7580
1*
1-
1#
1(
1,
#7600
05
04
06
#7620
1+
1.
#7630
0$
0"
#7640
08
07
#7650
1!
1/
10
11
#7660
0&
0)
0%
0'
#7670
09
0:
#7690
0*
0-
0#
0(
0,
#7710
15
14
16
#7730
0+
0.
#7740
1$
1"
#7750
18
17
#7760
0!
0/
00
01
#7770
1&
1)
1%
1'
#7780
19
1:
#7800
1*
1-
1#
1(
1,
#7820
05
04
06
#7840
1+
1.
#7850
0$
0"
#7860
08
07
#7870
1!
1/
10
11
#7880
0&
0)
0%
0'
#7890
09
0:
#7910
0*
0-
0#
0(
0,
#7930
15
14
16
#7950
0+
0.
#7960
1$
1"
#7970
18
17
#7980
0!
0/
00
01
#7990
1&
1)
1%
1'
#8000
19
1:
#8020
1*
1-
1#
1(
1,
#8040
05
04
06
#8060
1+
1.
#8070
0$
0"
#8080
08
07
#8090
1!
1/
10
11
#8100
0&
0)
0%
0'
#8110
09
0:
#8130
0*
0-
0#
0(
0,
#8150
15
14
16
#8170
0+
0.
#8180
1$
1"
#8190
18
17
#8200
0!
0/
00
01
#8210
1&
1)
1%
1'
#8220
19
1:
#8240
1*
1-
1#
1(
1,
#8260
05
04
06
#8280
1+
1.
#8290
0$
0"
#8300
08
07
#8310
1!
1/
10
11
#8320
0&
0)
0%
0'
#8330
09
0:
#8350
0*
0-
0#
0(
0,
#8370
15
14
16
#8390
0+
0.
#8400
1$
1"
#8410
18
17
#8420
0!
0/
00
01
#8430
1&
1)
1%
1'
#8440
19
1:
#8460
1*
1-
1#
1(
1,
#8480
05
04
06
#8500
1+
1.
#8510
0$
0"
#8520
08
07
#8530
1!
1/
10
11
#8540
0&
0)
0%
0'
#8550
09
0:
#8570
0*
0-
0#
0(
0,
#8590
15
14
16
#8610
0+
0.
#8620
1$
1"
#8630
18
17
#8640
0!
0/
00
01
#8650
1&
1)
1%
1'
#8660
19
1:
#8680
1*
1-
1#
1(
1,
#8700
05
04
06
#8720
1+
1.
#8730
0$
0"
#8740
08
07
#8750
1!
1/
10
11
#8760
0&
0)
0%
0'
#8770
09
0:
#8790
0*
0-
0#
0(
0,
#8810
15
14
16
#8830
0+
0.
#8840
1$
1"
#8850
18
17
#8860
0!
0/
00
01
#8870
1&
1)
1%
1'
#8880
19
1:
#8900
1*
1-
1#
1(
1,
#8920
05
04
06
#8940
1+
1.
#8950
0$
0"
#8960
08
07
#8970
1!
1/
10
11
#8980
0&
0)
0%
0'
#8990
09
0:
#9010
0*
0-
0#
0(
0,
#9030
15
14
16
#9050
0+
0.
#9060
1$
1"
#9070
18
17
#9080
0!
0/
00
01
#9090
1&
1)
1%
1'
#9100
19
1:
#9120
1*
1-
1#
1(
1,
#9140
05
04
06
#9160
1+
1.
#9170
0$
0"
#9180
08
07
#9190
1!
1/
10
11
#9200
0&
0)
0%
0'
#9210
09
0:
#9230
0*
0-
0#
0(
0,
#9250
15
14
16
#9270
0+
0.
#9280
1$
1"
#9290
18
17
#9300
0!
0/
00
01
#9310
1&
1)
1%
1'
#9320
19
1:
#9340
1*
1-
1#
1(
1,
#9360
05
04
06
#9380
1+
1.
#9390
0$
0"
#9400
08
07
#9410
1!
1/
10
11
#9420
0&
0)
0%
0'
#9430
09
0:
#9450
0*
0-
0#
0(
0,
#9470
15
14
16
#9490
0+
0.
#9500
1$
1"
#9510
18
17
#9520
0!
0/
00
01
#9530
1&
1)
1%
1'
#9540
19
1:
#9560
1*
1-
1#
1(
1,
#9580
05
04
06
#9600
1+
1.
#9610
0$
0"
#9620
08
07
#9630
1!
1/
10
11
#9640
0&
0)
0%
0'
#9650
09
0:
#9670
0*
0-
0#
0(
0,
#9690
15
14
16
#9710
0+
0.
#9720
1$
1"
#9730
18
17
#9740
0!
0/
00
01
#9750
1&
1)
1%
1'
#9760
19
1:
#9780
1*
1-
1#
1(
1,
#9800
05
04
06
#9820
1+
1.
#9830
0$
0"
#9840
08
07
#9850
1!
1/
10
11
#9860
0&
0)
0%
0'
#9870
09
0:
#9890
0*
0-
0#
0(
0,
#9910
15
14
16
#9930
0+
0.
#9940
1$
1"
#9950
18
17
#9960
0!
0/
00
01
#9970
1&
1)
1%
1'
#9980
19
1:
#10000
1*
1-
1#
1(
1,
#10020
05
04
06
#10040
1+
1.
#10050
0$
0"
#10060
08
07
#10070
1!
1/
10
11
#10080
0&
0)
0%
0'
#10090
09
0:
#10110
0*
0-
0#
0(
0,
#10130
15
14
16
#10150
0+
0.
#10160
1$
1"
#10170
18
17
#10180
0!
0/
00
01
#10190
1&
1)
1%
1'
#10200
19
1:
