basics/pipeline1ref.vcd
$date
	Thu Jul 23 21:33:20 2015
$end
$version
	Icarus Verilog
$end
$timescale
	1ps
$end
$scope module pipeline1 $end
$var wire 1 ! A $end
$var wire 1 " ACOMP $end
$var wire 1 # B $end
$var wire 1 $ BCOMP $end
$var wire 1 % C $end
$var wire 1 & CCOMP $end
$var wire 1 ' D $end
$var wire 1 ( DCOMP $end
$var wire 1 ) E $end
$var wire 1 * ECOMP $end
$var reg 1 + init $end
$scope module A0 $end
$var wire 1 " A $end
$var wire 1 , B $end
$var wire 1 ! Z $end
$upscope $end
$scope module u1 $end
$var wire 1 ! A $end
$var wire 1 " ACOMP $end
$var wire 1 # Z $end
$var wire 1 $ ZCOMP $end
$var wire 1 - enable $end
$var wire 1 , init $end
$scope module u0 $end
$var wire 1 $ A $end
$var wire 1 , B $end
$var wire 1 - Z $end
$upscope $end
$scope module u1 $end
$var wire 1 ! A $end
$var wire 1 - B $end
$var wire 1 # Z $end
$upscope $end
$upscope $end
$scope module u2 $end
$var wire 1 # A $end
$var wire 1 $ ACOMP $end
$var wire 1 % Z $end
$var wire 1 & ZCOMP $end
$var wire 1 . enable $end
$var wire 1 , init $end
$scope module u0 $end
$var wire 1 & A $end
$var wire 1 , B $end
$var wire 1 . Z $end
$upscope $end
$scope module u1 $end
$var wire 1 # A $end
$var wire 1 . B $end
$var wire 1 % Z $end
$upscope $end
$upscope $end
$scope module u3 $end
$var wire 1 % A $end
$var wire 1 & ACOMP $end
$var wire 1 ' Z $end
$var wire 1 ( ZCOMP $end
$var wire 1 / enable $end
$var wire 1 , init $end
$scope module u0 $end
$var wire 1 ( A $end
$var wire 1 , B $end
$var wire 1 / Z $end
$upscope $end
$scope module u1 $end
$var wire 1 % A $end
$var wire 1 / B $end
$var wire 1 ' Z $end
$upscope $end
$upscope $end
$scope module u4 $end
$var wire 1 ' A $end
$var wire 1 ( ACOMP $end
$var wire 1 ) Z $end
$var wire 1 * ZCOMP $end
$var wire 1 0 enable $end
$var wire 1 , init $end
$scope module u0 $end
$var wire 1 * A $end
$var wire 1 , B $end
$var wire 1 0 Z $end
$upscope $end
$scope module u1 $end
$var wire 1 ' A $end
$var wire 1 0 B $end
$var wire 1 ) Z $end
$upscope $end
$upscope $end
$upscope $end
$enddefinitions $end
#0
$dumpvars
z0
z/
z.
z-
1,
1+
z*
z)
z(
z'
z&
z%
z$
z#
z"
z!
$end
#20
x$
x%
x&
x'
x(
x)
x*
0!
0-
0.
0/
00
#30
0"
0#
#60
0$
0%
#90
0&
0'
#120
0(
0)
0*
#200
0+
0,
#220
1!
1-
1.
1/
10
#250
1"
1#
#270
0!
#280
1$
1%
#300
0-
#310
1&
1'
#330
0.
0"
0#
#340
1(
1)
1*
#350
1!
#360
0/
00
0$
0%
#380
1-
#390
0&
0'
#410
1.
1"
1#
#420
0(
0)
0*
#430
0!
#440
1/
10
1$
1%
#460
0-
#470
1&
1'
#490
0.
0"
0#
#500
1(
1)
1*
#510
1!
#520
0/
00
0$
0%
#540
1-
#550
0&
0'
#570
1.
1"
1#
#580
0(
0)
0*
#590
0!
#600
1/
10
1$
1%
#620
0-
#630
1&
1'
#650
0.
0"
0#
#660
1(
1)
1*
#670
1!
#680
0/
00
0$
0%
#700
1-
#710
0&
0'
#730
1.
1"
1#
#740
0(
0)
0*
#750
0!
#760
1/
10
1$
1%
#780
0-
#790
1&
1'
#810
0.
0"
0#
#820
1(
1)
1*
#830
1!
#840
0/
00
0$
0%
#860
1-
#870
0&
0'
#890
1.
1"
1#
#900
0(
0)
0*
#910
0!
#920
1/
10
1$
1%
#940
0-
#950
1&
1'
#970
0.
0"
0#
#980
1(
1)
1*
#990
1!
#1000
0/
00
0$
0%
#1020
1-
#1030
0&
0'
#1050
1.
1"
1#
#1060
0(
0)
0*
#1070
0!
#1080
1/
10
1$
1%
#1100
0-
#1110
1&
1'
#1130
0.
0"
0#
#1140
1(
1)
1*
#1150
1!
#1160
0/
00
0$
0%
#1180
1-
#1190
0&
0'
#1210
1.
1"
1#
#1220
0(
0)
0*
#1230
0!
#1240
1/
10
1$
1%
#1260
0-
#1270
1&
1'
#1290
0.
0"
0#
#1300
1(
1)
1*
#1310
1!
#1320
0/
00
0$
0%
#1340
1-
#1350
0&
0'
#1370
1.
1"
1#
#1380
0(
0)
0*
#1390
0!
#1400
1/
10
1$
1%
#1420
0-
#1430
1&
1'
#1450
0.
0"
0#
#1460
1(
1)
1*
#1470
1!
#1480
0/
00
0$
0%
#1500
1-
#1510
0&
0'
#1530
1.
1"
1#
#1540
0(
0)
0*
#1550
0!
#1560
1/
10
1$
1%
#1580
0-
#1590
1&
1'
#1610
0.
0"
0#
#1620
1(
1)
1*
#1630
1!
#1640
0/
00
0$
0%
#1660
1-
#1670
0&
0'
#1690
1.
1"
1#
#1700
0(
0)
0*
#1710
0!
#1720
1/
10
1$
1%
#1740
0-
#1750
1&
1'
#1770
0.
0"
0#
#1780
1(
1)
1*
#1790
1!
#1800
0/
00
0$
0%
#1820
1-
#1830
0&
0'
#1850
1.
1"
1#
#1860
0(
0)
0*
#1870
0!
#1880
1/
10
1$
1%
#1900
0-
#1910
1&
1'
#1930
0.
0"
0#
#1940
1(
1)
1*
#1950
1!
#1960
0/
00
0$
0%
#1980
1-
#1990
0&
0'
#2010
1.
1"
1#
#2020
0(
0)
0*
#2030
0!
#2040
1/
10
1$
1%
#2060
0-
#2070
1&
1'
#2090
0.
0"
0#
#2100
1(
1)
1*
#2110
1!
#2120
0/
00
0$
0%
#2140
1-
#2150
0&
0'
#2170
1.
1"
1#
#2180
0(
0)
0*
#2190
0!
#2200
1/
10
1$
1%
#2220
0-
#2230
1&
1'
#2250
0.
0"
0#
#2260
1(
1)
1*
#2270
1!
#2280
0/
00
0$
0%
#2300
1-
#2310
0&
0'
#2330
1.
1"
1#
#2340
0(
0)
0*
#2350
0!
#2360
1/
10
1$
1%
#2380
0-
#2390
1&
1'
#2410
0.
0"
0#
#2420
1(
1)
1*
#2430
1!
#2440
0/
00
0$
0%
#2460
1-
#2470
0&
0'
#2490
1.
1"
1#
#2500
0(
0)
0*
#2510
0!
#2520
1/
10
1$
1%
#2540
0-
#2550
1&
1'
#2570
0.
0"
0#
#2580
1(
1)
1*
#2590
1!
#2600
0/
00
0$
0%
#2620
1-
#2630
0&
0'
#2650
1.
1"
1#
#2660
0(
0)
0*
#2670
0!
#2680
1/
10
1$
1%
#2700
0-
#2710
1&
1'
#2730
0.
0"
0#
#2740
1(
1)
1*
#2750
1!
#2760
0/
00
0$
0%
#2780
1-
#2790
0&
0'
#2810
1.
1"
1#
#2820
0(
0)
0*
#2830
0!
#2840
1/
10
1$
1%
#2860
0-
#2870
1&
1'
#2890
0.
0"
0#
#2900
1(
1)
1*
#2910
1!
#2920
0/
00
0$
0%
#2940
1-
#2950
0&
0'
#2970
1.
1"
1#
#2980
0(
0)
0*
#2990
0!
#3000
1/
10
1$
1%
#3020
0-
#3030
1&
1'
#3050
0.
0"
0#
#3060
1(
1)
1*
#3070
1!
#3080
0/
00
0$
0%
#3100
1-
#3110
0&
0'
#3130
1.
1"
1#
#3140
0(
0)
0*
#3150
0!
#3160
1/
10
1$
1%
#3180
0-
#3190
1&
1'
#3210
0.
0"
0#
#3220
1(
1)
1*
#3230
1!
#3240
0/
00
0$
0%
#3260
1-
#3270
0&
0'
#3290
1.
1"
1#
#3300
0(
0)
0*
#3310
0!
#3320
1/
10
1$
1%
#3340
0-
#3350
1&
1'
#3370
0.
0"
0#
#3380
1(
1)
1*
#3390
1!
#3400
0/
00
0$
0%
#3420
1-
#3430
0&
0'
#3450
1.
1"
1#
#3460
0(
0)
0*
#3470
0!
#3480
1/
10
1$
1%
#3500
0-
#3510
1&
1'
#3530
0.
0"
0#
#3540
1(
1)
1*
#3550
1!
#3560
0/
00
0$
0%
#3580
1-
#3590
0&
0'
#3610
1.
1"
1#
#3620
0(
0)
0*
#3630
0!
#3640
1/
10
1$
1%
#3660
0-
#3670
1&
1'
#3690
0.
0"
0#
#3700
1(
1)
1*
#3710
1!
#3720
0/
00
0$
0%
#3740
1-
#3750
0&
0'
#3770
1.
1"
1#
#3780
0(
0)
0*
#3790
0!
#3800
1/
10
1$
1%
#3820
0-
#3830
1&
1'
#3850
0.
0"
0#
#3860
1(
1)
1*
#3870
1!
#3880
0/
00
0$
0%
#3900
1-
#3910
0&
0'
#3930
1.
1"
1#
#3940
0(
0)
0*
#3950
0!
#3960
1/
10
1$
1%
#3980
0-
#3990
1&
1'
#4010
0.
0"
0#
#4020
1(
1)
1*
#4030
1!
#4040
0/
00
0$
0%
#4060
1-
#4070
0&
0'
#4090
1.
1"
1#
#4100
0(
0)
0*
#4110
0!
#4120
1/
10
1$
1%
#4140
0-
#4150
1&
1'
#4170
0.
0"
0#
#4180
1(
1)
1*
#4190
1!
#4200
0/
00
0$
0%
#4220
1-
#4230
0&
0'
#4250
1.
1"
1#
#4260
0(
0)
0*
#4270
0!
#4280
1/
10
1$
1%
#4300
0-
#4310
1&
1'
#4330
0.
0"
0#
#4340
1(
1)
1*
#4350
1!
#4360
0/
00
0$
0%
#4380
1-
#4390
0&
0'
#4410
1.
1"
1#
#4420
0(
0)
0*
#4430
0!
#4440
1/
10
1$
1%
#4460
0-
#4470
1&
1'
#4490
0.
0"
0#
#4500
1(
1)
1*
#4510
1!
#4520
0/
00
0$
0%
#4540
1-
#4550
0&
0'
#4570
1.
1"
1#
#4580
0(
0)
0*
#4590
0!
#4600
1/
10
1$
1%
#4620
0-
#4630
1&
1'
#4650
0.
0"
0#
#4660
1(
1)
1*
#4670
1!
#4680
0/
00
0$
0%
#4700
1-
#4710
0&
0'
#4730
1.
1"
1#
#4740
0(
0)
0*
#4750
0!
#4760
1/
10
1$
1%
#4780
0-
#4790
1&
1'
#4810
0.
0"
0#
#4820
1(
1)
1*
#4830
1!
#4840
0/
00
0$
0%
#4860
1-
#4870
0&
0'
#4890
1.
1"
1#
#4900
0(
0)
0*
#4910
0!
#4920
1/
10
1$
1%
#4940
0-
#4950
1&
1'
#4970
0.
0"
0#
#4980
1(
1)
1*
#4990
1!
#5000
0/
00
0$
0%
#5020
1-
#5030
0&
0'
#5050
1.
1"
1#
#5060
0(
0)
0*
#5070
0!
#5080
1/
10
1$
1%
#5100
0-
#5110
1&
1'
#5130
0.
0"
0#
#5140
1(
1)
1*
#5150
1!
#5160
0/
00
0$
0%
#5180
1-
#5190
0&
0'
#5210
1.
1"
1#
#5220
0(
0)
0*
#5230
0!
#5240
1/
10
1$
1%
#5260
0-
#5270
1&
1'
#5290
0.
0"
0#
#5300
1(
1)
1*
#5310
1!
#5320
0/
00
0$
0%
#5340
1-
#5350
0&
0'
#5370
1.
1"
1#
#5380
0(
0)
0*
#5390
0!
#5400
1/
10
1$
1%
#5420
0-
#5430
1&
1'
#5450
0.
0"
0#
#5460
1(
1)
1*
#5470
1!
#5480
0/
00
0$
0%
#5500
1-
#5510
0&
0'
#5530
1.
1"
1#
#5540
0(
0)
0*
#5550
0!
#5560
1/
10
1$
1%
#5580
0-
#5590
1&
1'
#5610
0.
0"
0#
#5620
1(
1)
1*
#5630
1!
#5640
0/
00
0$
0%
#5660
1-
#5670
0&
0'
#5690
1.
1"
1#
#5700
0(
0)
0*
#5710
0!
#5720
1/
10
1$
1%
#5740
0-
#5750
1&
1'
#5770
0.
0"
0#
#5780
1(
1)
1*
#5790
1!
#5800
0/
00
0$
0%
#5820
1-
#5830
0&
0'
#5850
1.
1"
1#
#5860
0(
0)
0*
#5870
0!
#5880
1/
10
1$
1%
#5900
0-
#5910
1&
1'
#5930
0.
0"
0#
#5940
1(
1)
1*
#5950
1!
#5960
0/
00
0$
0%
#5980
1-
#5990
0&
0'
#6010
1.
1"
1#
#6020
0(
0)
0*
#6030
0!
#6040
1/
10
1$
1%
#6060
0-
#6070
1&
1'
#6090
0.
0"
0#
#6100
1(
1)
1*
#6110
1!
#6120
0/
00
0$
0%
#6140
1-
#6150
0&
0'
#6170
1.
1"
1#
#6180
0(
0)
0*
#6190
0!
#6200
1/
10
1$
1%
#6220
0-
#6230
1&
1'
#6250
0.
0"
0#
#6260
1(
1)
1*
#6270
1!
#6280
0/
00
0$
0%
#6300
1-
#6310
0&
0'
#6330
1.
1"
1#
#6340
0(
0)
0*
#6350
0!
#6360
1/
10
1$
1%
#6380
0-
#6390
1&
1'
#6410
0.
0"
0#
#6420
1(
1)
1*
#6430
1!
#6440
0/
00
0$
0%
#6460
1-
#6470
0&
0'
#6490
1.
1"
1#
#6500
0(
0)
0*
#6510
0!
#6520
1/
10
1$
1%
#6540
0-
#6550
1&
1'
#6570
0.
0"
0#
#6580
1(
1)
1*
#6590
1!
#6600
0/
00
0$
0%
#6620
1-
#6630
0&
0'
#6650
1.
1"
1#
#6660
0(
0)
0*
#6670
0!
#6680
1/
10
1$
1%
#6700
0-
#6710
1&
1'
#6730
0.
0"
0#
#6740
1(
1)
1*
#6750
1!
#6760
0/
00
0$
0%
#6780
1-
#6790
0&
0'
#6810
1.
1"
1#
#6820
0(
0)
0*
#6830
0!
#6840
1/
10
1$
1%
#6860
0-
#6870
1&
1'
#6890
0.
0"
0#
#6900
1(
1)
1*
#6910
1!
#6920
0/
00
0$
0%
#6940
1-
#6950
0&
0'
#6970
1.
1"
1#
#6980
0(
0)
0*
#6990
0!
#7000
1/
10
1$
1%
#7020
0-
#7030
1&
1'
#7050
0.
0"
0#
#7060
1(
1)
1*
#7070
1!
#7080
0/
00
0$
0%
#7100
1-
#7110
0&
0'
#7130
1.
1"
1#
#7140
0(
0)
0*
#7150
0!
#7160
1/
10
1$
1%
#7180
0-
#7190
1&
1'
#7210
0.
0"
0#
#7220
1(
1)
1*
#7230
1!
#7240
0/
00
0$
0%
#7260
1-
#7270
0&
0'
#7290
1.
1"
1#
#7300
0(
0)
0*
#7310
0!
#7320
1/
10
1$
1%
#7340
0-
#7350
1&
1'
#7370
0.
0"
0#
#7380
1(
1)
1*
#7390
1!
#7400
0/
00
0$
0%
#7420
1-
#7430
0&
0'
#7450
1.
1"
1#
#7460
0(
0)
0*
#7470
0!
#7480
1/
10
1$
1%
#7500
0-
#7510
1&
1'
#7530
0.
0"
0#
#7540
1(
1)
1*
#7550
1!
#7560
0/
00
0$
0%
#7580
1-
#7590
0&
0'
#7610
1.
1"
1#
#7620
0(
0)
0*
#7630
0!
#7640
1/
10
1$
1%
#7660
0-
#7670
1&
1'
#7690
0.
0"
0#
#7700
1(
1)
1*
#7710
1!
#7720
0/
00
0$
0%
#7740
1-
#7750
0&
0'
#7770
1.
1"
1#
#7780
0(
0)
0*
#7790
0!
#7800
1/
10
1$
1%
#7820
0-
#7830
1&
1'
#7850
0.
0"
0#
#7860
1(
1)
1*
#7870
1!
#7880
0/
00
0$
0%
#7900
1-
#7910
0&
0'
#7930
1.
1"
1#
#7940
0(
0)
0*
#7950
0!
#7960
1/
10
1$
1%
#7980
0-
#7990
1&
1'
#8010
0.
0"
0#
#8020
1(
1)
1*
#8030
1!
#8040
0/
00
0$
0%
#8060
1-
#8070
0&
0'
#8090
1.
1"
1#
#8100
0(
0)
0*
#8110
0!
#8120
1/
10
1$
1%
#8140
0-
#8150
1&
1'
#8170
0.
0"
0#
#8180
1(
1)
1*
#8190
1!
#8200
0/
00
0$
0%
#8220
1-
#8230
0&
0'
#8250
1.
1"
1#
#8260
0(
0)
0*
#8270
0!
#8280
1/
10
1$
1%
#8300
0-
#8310
1&
1'
#8330
0.
0"
0#
#8340
1(
1)
1*
#8350
1!
#8360
0/
00
0$
0%
#8380
1-
#8390
0&
0'
#8410
1.
1"
1#
#8420
0(
0)
0*
#8430
0!
#8440
1/
10
1$
1%
#8460
0-
#8470
1&
1'
#8490
0.
0"
0#
#8500
1(
1)
1*
#8510
1!
#8520
0/
00
0$
0%
#8540
1-
#8550
0&
0'
#8570
1.
1"
1#
#8580
0(
0)
0*
#8590
0!
#8600
1/
10
1$
1%
#8620
0-
#8630
1&
1'
#8650
0.
0"
0#
#8660
1(
1)
1*
#8670
1!
#8680
0/
00
0$
0%
#8700
1-
#8710
0&
0'
#8730
1.
1"
1#
#8740
0(
0)
0*
#8750
0!
#8760
1/
10
1$
1%
#8780
0-
#8790
1&
1'
#8810
0.
0"
0#
#8820
1(
1)
1*
#8830
1!
#8840
0/
00
0$
0%
#8860
1-
#8870
0&
0'
#8890
1.
1"
1#
#8900
0(
0)
0*
#8910
0!
#8920
1/
10
1$
1%
#8940
0-
#8950
1&
1'
#8970
0.
0"
0#
#8980
1(
1)
1*
#8990
1!
#9000
0/
00
0$
0%
#9020
1-
#9030
0&
0'
#9050
1.
1"
1#
#9060
0(
0)
0*
#9070
0!
#9080
1/
10
1$
1%
#9100
0-
#9110
1&
1'
#9130
0.
0"
0#
#9140
1(
1)
1*
#9150
1!
#9160
0/
00
0$
0%
#9180
1-
#9190
0&
0'
#9210
1.
1"
1#
#9220
0(
0)
0*
#9230
0!
#9240
1/
10
1$
1%
#9260
0-
#9270
1&
1'
#9290
0.
0"
0#
#9300
1(
1)
1*
#9310
1!
#9320
0/
00
0$
0%
#9340
1-
#9350
0&
0'
#9370
1.
1"
1#
#9380
0(
0)
0*
#9390
0!
#9400
1/
10
1$
1%
#9420
0-
#9430
1&
1'
#9450
0.
0"
0#
#9460
1(
1)
1*
#9470
1!
#9480
0/
00
0$
0%
#9500
1-
#9510
0&
0'
#9530
1.
1"
1#
#9540
0(
0)
0*
#9550
0!
#9560
1/
10
1$
1%
#9580
0-
#9590
1&
1'
#9610
0.
0"
0#
#9620
1(
1)
1*
#9630
1!
#9640
0/
00
0$
0%
#9660
1-
#9670
0&
0'
#9690
1.
1"
1#
#9700
0(
0)
0*
#9710
0!
#9720
1/
10
1$
1%
#9740
0-
#9750
1&
1'
#9770
0.
0"
0#
#9780
1(
1)
1*
#9790
1!
#9800
0/
00
0$
0%
#9820
1-
#9830
0&
0'
#9850
1.
1"
1#
#9860
0(
0)
0*
#9870
0!
#9880
1/
10
1$
1%
#9900
0-
#9910
1&
1'
#9930
0.
0"
0#
#9940
1(
1)
1*
#9950
1!
#9960
0/
00
0$
0%
#9980
1-
#9990
0&
0'
#10010
1.
1"
1#
#10020
0(
0)
0*
#10030
0!
#10040
1/
10
1$
1%
#10060
0-
#10070
1&
1'
#10090
0.
0"
0#
#10100
1(
1)
1*
#10110
1!
#10120
0/
00
0$
0%
#10140
1-
#10150
0&
0'
#10170
1.
1"
1#
#10180
0(
0)
0*
#10190
0!
