ring behavior/ring3ref.vcd
$date
	Tue Mar 15 15:02:40 2016
$end
$version
	Icarus Verilog
$end
$timescale
	1ps
$end
$scope module ring3 $end
$var wire 3 ! COMP [2:0] $end
$var reg 1 " init $end
$scope module u0 $end
$var wire 1 # ZCOMP $end
$var wire 1 " init $end
$var wire 1 $ enable $end
$var wire 2 % Z [1:0] $end
$var wire 1 & ACOMP $end
$var wire 2 ' A [1:0] $end
$scope module u0 $end
$var wire 1 # A $end
$var wire 1 $ Z $end
$upscope $end
$scope module u1 $end
$var wire 1 ( A $end
$var wire 1 $ B $end
$var wire 1 " C $end
$var wire 1 ) Z $end
$upscope $end
$scope module u2 $end
$var wire 1 * A $end
$var wire 1 $ B $end
$var wire 1 " C $end
$var wire 1 + Z $end
$upscope $end
$scope module u3 $end
$var wire 1 , A $end
$var wire 1 - B $end
$var wire 1 & Z $end
$upscope $end
$upscope $end
$scope module u1 $end
$var wire 2 . A [1:0] $end
$var wire 1 / ZCOMP $end
$var wire 1 " init $end
$var wire 1 0 enable $end
$var wire 2 1 Z [1:0] $end
$var wire 1 2 ACOMP $end
$scope module u0 $end
$var wire 1 / A $end
$var wire 1 " B $end
$var wire 1 0 Z $end
$upscope $end
$scope module u1 $end
$var wire 1 3 A $end
$var wire 1 0 B $end
$var wire 1 " C $end
$var wire 1 4 Z $end
$upscope $end
$scope module u2 $end
$var wire 1 5 A $end
$var wire 1 0 B $end
$var wire 1 " C $end
$var wire 1 6 Z $end
$upscope $end
$scope module u3 $end
$var wire 1 7 A $end
$var wire 1 8 B $end
$var wire 1 2 Z $end
$upscope $end
$upscope $end
$scope module u2 $end
$var wire 2 9 A [1:0] $end
$var wire 1 : ZCOMP $end
$var wire 1 " init $end
$var wire 1 ; enable $end
$var wire 2 < Z [1:0] $end
$var wire 1 = ACOMP $end
$scope module u0 $end
$var wire 1 : A $end
$var wire 1 " B $end
$var wire 1 ; Z $end
$upscope $end
$scope module u1 $end
$var wire 1 > A $end
$var wire 1 ; B $end
$var wire 1 ? Z $end
$upscope $end
$scope module u2 $end
$var wire 1 @ A $end
$var wire 1 ; B $end
$var wire 1 A Z $end
$upscope $end
$scope module u3 $end
$var wire 1 B A $end
$var wire 1 C B $end
$var wire 1 = Z $end
$upscope $end
$upscope $end
$upscope $end
$enddefinitions $end
#0
$dumpvars
xC
xB
xA
x@
x?
x>
x=
bx <
x;
x:
bx 9
x8
x7
x6
x5
x4
x3
x2
bx 1
x0
x/
bx .
x-
x,
x+
x*
x)
x(
bx '
x&
bx %
x$
x#
0"
bx !
$end
#30
0C
0*
0B
0(
0A
b0 '
b0 <
0?
#60
0/
b0xx !
0=
#80
10
#100
1"
#120
00
0;
#130
0,
03
1-
15
07
0>
08
0@
0)
b10 %
b10 .
1+
04
b0 1
b0 9
06
#160
1:
0#
1&
b1 !
02
#180
1$
#2100
0"
#2120
10
#2150
18
1@
b10 1
b10 9
16
#2180
1#
b11 !
12
#2200
0$
#2230
0-
05
b0 %
b0 .
0+
#2260
0:
b10 !
0&
#2280
1;
#2310
1C
1*
b10 '
b10 <
1A
#2340
1/
b110 !
1=
#2360
00
#2390
08
0@
b0 1
b0 9
06
#2420
0#
b100 !
02
#2440
1$
#2470
1-
15
b10 %
b10 .
1+
#2500
1:
b101 !
1&
#2520
0;
#2550
0C
0*
b0 '
b0 <
0A
#2580
0/
b1 !
0=
#2600
10
#2630
18
1@
b10 1
b10 9
16
#2660
1#
b11 !
12
#2680
0$
#2710
0-
05
b0 %
b0 .
0+
#2740
0:
b10 !
0&
#2760
1;
#2790
1C
1*
b10 '
b10 <
1A
#2820
1/
b110 !
1=
#2840
00
#2870
08
0@
b0 1
b0 9
06
#2900
0#
b100 !
02
#2920
1$
#2950
1-
15
b10 %
b10 .
1+
#2980
1:
b101 !
1&
#3000
0;
#3030
0C
0*
b0 '
b0 <
0A
#3060
0/
b1 !
0=
#3080
10
#3110
18
1@
b10 1
b10 9
16
#3140
1#
b11 !
12
#3160
0$
#3190
0-
05
b0 %
b0 .
0+
#3220
0:
b10 !
0&
#3240
1;
#3270
1C
1*
b10 '
b10 <
1A
#3300
1/
b110 !
1=
#3320
00
#3350
08
0@
b0 1
b0 9
06
#3380
0#
b100 !
02
#3400
1$
#3430
1-
15
b10 %
b10 .
1+
#3460
1:
b101 !
1&
#3480
0;
#3510
0C
0*
b0 '
b0 <
0A
#3540
0/
b1 !
0=
#3560
10
#3590
18
1@
b10 1
b10 9
16
#3620
1#
b11 !
12
#3640
0$
#3670
0-
05
b0 %
b0 .
0+
#3700
0:
b10 !
0&
#3720
1;
#3750
1C
1*
b10 '
b10 <
1A
#3780
1/
b110 !
1=
#3800
00
#3830
08
0@
b0 1
b0 9
06
#3860
0#
b100 !
02
#3880
1$
#3910
1-
15
b10 %
b10 .
1+
#3940
1:
b101 !
1&
#3960
0;
#3990
0C
0*
b0 '
b0 <
0A
#4020
0/
b1 !
0=
#4040
10
#4070
18
1@
b10 1
b10 9
16
#4100
1#
b11 !
12
#4120
0$
#4150
0-
05
b0 %
b0 .
0+
#4180
0:
b10 !
0&
#4200
1;
#4230
1C
1*
b10 '
b10 <
1A
#4260
1/
b110 !
1=
#4280
00
#4310
08
0@
b0 1
b0 9
06
#4340
0#
b100 !
02
#4360
1$
#4390
1-
15
b10 %
b10 .
1+
#4420
1:
b101 !
1&
#4440
0;
#4470
0C
0*
b0 '
b0 <
0A
#4500
0/
b1 !
0=
#4520
10
#4550
18
1@
b10 1
b10 9
16
#4580
1#
b11 !
12
#4600
0$
#4630
0-
05
b0 %
b0 .
0+
#4660
0:
b10 !
0&
#4680
1;
#4710
1C
1*
b10 '
b10 <
1A
#4740
1/
b110 !
1=
#4760
00
#4790
08
0@
b0 1
b0 9
06
#4820
0#
b100 !
02
#4840
1$
#4870
1-
15
b10 %
b10 .
1+
#4900
1:
b101 !
1&
#4920
0;
#4950
0C
0*
b0 '
b0 <
0A
#4980
0/
b1 !
0=
#5000
10
#5030
18
1@
b10 1
b10 9
16
#5060
1#
b11 !
12
#5080
0$
#5110
0-
05
b0 %
b0 .
0+
#5140
0:
b10 !
0&
#5160
1;
#5190
1C
1*
b10 '
b10 <
1A
#5220
1/
b110 !
1=
#5240
00
#5270
08
0@
b0 1
b0 9
06
#5300
0#
b100 !
02
#5320
1$
#5350
1-
15
b10 %
b10 .
1+
#5380
1:
b101 !
1&
#5400
0;
#5430
0C
0*
b0 '
b0 <
0A
#5460
0/
b1 !
0=
#5480
10
#5510
18
1@
b10 1
b10 9
16
#5540
1#
b11 !
12
#5560
0$
#5590
0-
05
b0 %
b0 .
0+
#5620
0:
b10 !
0&
#5640
1;
#5670
1C
1*
b10 '
b10 <
1A
#5700
1/
b110 !
1=
#5720
00
#5750
08
0@
b0 1
b0 9
06
#5780
0#
b100 !
02
#5800
1$
#5830
1-
15
b10 %
b10 .
1+
#5860
1:
b101 !
1&
#5880
0;
#5910
0C
0*
b0 '
b0 <
0A
#5940
0/
b1 !
0=
#5960
10
#5990
18
1@
b10 1
b10 9
16
#6020
1#
b11 !
12
#6040
0$
#6070
0-
05
b0 %
b0 .
0+
#6100
0:
b10 !
0&
#6120
1;
#6150
1C
1*
b10 '
b10 <
1A
#6180
1/
b110 !
1=
#6200
00
#6230
08
0@
b0 1
b0 9
06
#6260
0#
b100 !
02
#6280
1$
#6310
1-
15
b10 %
b10 .
1+
#6340
1:
b101 !
1&
#6360
0;
#6390
0C
0*
b0 '
b0 <
0A
#6420
0/
b1 !
0=
#6440
10
#6470
18
1@
b10 1
b10 9
16
#6500
1#
b11 !
12
#6520
0$
#6550
0-
05
b0 %
b0 .
0+
#6580
0:
b10 !
0&
#6600
1;
#6630
1C
1*
b10 '
b10 <
1A
#6660
1/
b110 !
1=
#6680
00
#6710
08
0@
b0 1
b0 9
06
#6740
0#
b100 !
02
#6760
1$
#6790
1-
15
b10 %
b10 .
1+
#6820
1:
b101 !
1&
#6840
0;
#6870
0C
0*
b0 '
b0 <
0A
#6900
0/
b1 !
0=
#6920
10
#6950
18
1@
b10 1
b10 9
16
#6980
1#
b11 !
12
#7000
0$
#7030
0-
05
b0 %
b0 .
0+
#7060
0:
b10 !
0&
#7080
1;
#7110
1C
1*
b10 '
b10 <
1A
#7140
1/
b110 !
1=
#7160
00
#7190
08
0@
b0 1
b0 9
06
#7220
0#
b100 !
02
#7240
1$
#7270
1-
15
b10 %
b10 .
1+
#7300
1:
b101 !
1&
#7320
0;
#7350
0C
0*
b0 '
b0 <
0A
#7380
0/
b1 !
0=
#7400
10
#7430
18
1@
b10 1
b10 9
16
#7460
1#
b11 !
12
#7480
0$
#7510
0-
05
b0 %
b0 .
0+
#7540
0:
b10 !
0&
#7560
1;
#7590
1C
1*
b10 '
b10 <
1A
#7620
1/
b110 !
1=
#7640
00
#7670
08
0@
b0 1
b0 9
06
#7700
0#
b100 !
02
#7720
1$
#7750
1-
15
b10 %
b10 .
1+
#7780
1:
b101 !
1&
#7800
0;
#7830
0C
0*
b0 '
b0 <
0A
#7860
0/
b1 !
0=
#7880
10
#7910
18
1@
b10 1
b10 9
16
#7940
1#
b11 !
12
#7960
0$
#7990
0-
05
b0 %
b0 .
0+
#8020
0:
b10 !
0&
#8040
1;
#8070
1C
1*
b10 '
b10 <
1A
#8100
1/
b110 !
1=
#8120
00
#8150
08
0@
b0 1
b0 9
06
#8180
0#
b100 !
02
#8200
1$
#8230
1-
15
b10 %
b10 .
1+
#8260
1:
b101 !
1&
#8280
0;
#8310
0C
0*
b0 '
b0 <
0A
#8340
0/
b1 !
0=
#8360
10
#8390
18
1@
b10 1
b10 9
16
#8420
1#
b11 !
12
#8440
0$
#8470
0-
05
b0 %
b0 .
0+
#8500
0:
b10 !
0&
#8520
1;
#8550
1C
1*
b10 '
b10 <
1A
#8580
1/
b110 !
1=
#8600
00
#8630
08
0@
b0 1
b0 9
06
#8660
0#
b100 !
02
#8680
1$
#8710
1-
15
b10 %
b10 .
1+
#8740
1:
b101 !
1&
#8760
0;
#8790
0C
0*
b0 '
b0 <
0A
#8820
0/
b1 !
0=
#8840
10
#8870
18
1@
b10 1
b10 9
16
#8900
1#
b11 !
12
#8920
0$
#8950
0-
05
b0 %
b0 .
0+
#8980
0:
b10 !
0&
#9000
1;
#9030
1C
1*
b10 '
b10 <
1A
#9060
1/
b110 !
1=
#9080
00
#9110
08
0@
b0 1
b0 9
06
#9140
0#
b100 !
02
#9160
1$
#9190
1-
15
b10 %
b10 .
1+
#9220
1:
b101 !
1&
#9240
0;
#9270
0C
0*
b0 '
b0 <
0A
#9300
0/
b1 !
0=
#9320
10
#9350
18
1@
b10 1
b10 9
16
#9380
1#
b11 !
12
#9400
0$
#9430
0-
05
b0 %
b0 .
0+
#9460
0:
b10 !
0&
#9480
1;
#9510
1C
1*
b10 '
b10 <
1A
#9540
1/
b110 !
1=
#9560
00
#9590
08
0@
b0 1
b0 9
06
#9620
0#
b100 !
02
#9640
1$
#9670
1-
15
b10 %
b10 .
1+
#9700
1:
b101 !
1&
#9720
0;
#9750
0C
0*
b0 '
b0 <
0A
#9780
0/
b1 !
0=
#9800
10
#9830
18
1@
b10 1
b10 9
16
#9860
1#
b11 !
12
#9880
0$
#9910
0-
05
b0 %
b0 .
0+
#9940
0:
b10 !
0&
#9960
1;
#9990
1C
1*
b10 '
b10 <
1A
#10020
1/
b110 !
1=
#10040
00
#10070
08
0@
b0 1
b0 9
06
#10100
0#
b100 !
02
#10120
1$
#10150
1-
15
b10 %
b10 .
1+
#10180
1:
b101 !
1&
#10200
0;
#10230
0C
0*
b0 '
b0 <
0A
#10260
0/
b1 !
0=
#10280
10
#10310
18
1@
b10 1
b10 9
16
#10340
1#
b11 !
12
#10360
0$
#10390
0-
05
b0 %
b0 .
0+
#10420
0:
b10 !
0&
#10440
1;
#10470
1C
1*
b10 '
b10 <
1A
#10500
1/
b110 !
1=
#10520
00
#10550
08
0@
b0 1
b0 9
06
#10580
0#
b100 !
02
#10600
1$
#10630
1-
15
b10 %
b10 .
1+
#10660
1:
b101 !
1&
#10680
0;
#10710
0C
0*
b0 '
b0 <
0A
#10740
0/
b1 !
0=
#10760
10
#10790
18
1@
b10 1
b10 9
16
#10820
1#
b11 !
12
#10840
0$
#10870
0-
05
b0 %
b0 .
0+
#10900
0:
b10 !
0&
#10920
1;
#10950
1C
1*
b10 '
b10 <
1A
#10980
1/
b110 !
1=
#11000
00
#11030
08
0@
b0 1
b0 9
06
#11060
0#
b100 !
02
#11080
1$
#11110
1-
15
b10 %
b10 .
1+
#11140
1:
b101 !
1&
#11160
0;
#11190
0C
0*
b0 '
b0 <
0A
#11220
0/
b1 !
0=
#11240
10
#11270
18
1@
b10 1
b10 9
16
#11300
1#
b11 !
12
#11320
0$
#11350
0-
05
b0 %
b0 .
0+
#11380
0:
b10 !
0&
#11400
1;
#11430
1C
1*
b10 '
b10 <
1A
#11460
1/
b110 !
1=
#11480
00
#11510
08
0@
b0 1
b0 9
06
#11540
0#
b100 !
02
#11560
1$
#11590
1-
15
b10 %
b10 .
1+
#11620
1:
b101 !
1&
#11640
0;
#11670
0C
0*
b0 '
b0 <
0A
#11700
0/
b1 !
0=
#11720
10
#11750
18
1@
b10 1
b10 9
16
#11780
1#
b11 !
12
#11800
0$
#11830
0-
05
b0 %
b0 .
0+
#11860
0:
b10 !
0&
#11880
1;
#11910
1C
1*
b10 '
b10 <
1A
#11940
1/
b110 !
1=
#11960
00
#11990
08
0@
b0 1
b0 9
06
#12020
0#
b100 !
02
#12040
1$
#12070
1-
15
b10 %
b10 .
1+
#12100
1:
b101 !
1&
#12120
0;
#12150
0C
0*
b0 '
b0 <
0A
#12180
0/
b1 !
0=
#12200
10
#12230
18
1@
b10 1
b10 9
16
#12260
1#
b11 !
12
#12280
0$
#12310
0-
05
b0 %
b0 .
0+
#12340
0:
b10 !
0&
#12360
1;
#12390
1C
1*
b10 '
b10 <
1A
#12420
1/
b110 !
1=
#12440
00
#12470
08
0@
b0 1
b0 9
06
#12500
0#
b100 !
02
#12520
1$
#12550
1-
15
b10 %
b10 .
1+
#12580
1:
b101 !
1&
#12600
0;
#12630
0C
0*
b0 '
b0 <
0A
#12660
0/
b1 !
0=
#12680
10
#12710
18
1@
b10 1
b10 9
16
#12740
1#
b11 !
12
#12760
0$
#12790
0-
05
b0 %
b0 .
0+
#12820
0:
b10 !
0&
#12840
1;
#12870
1C
1*
b10 '
b10 <
1A
#12900
1/
b110 !
1=
#12920
00
#12950
08
0@
b0 1
b0 9
06
#12980
0#
b100 !
02
#13000
1$
#13030
1-
15
b10 %
b10 .
1+
#13060
1:
b101 !
1&
#13080
0;
#13110
0C
0*
b0 '
b0 <
0A
#13140
0/
b1 !
0=
#13160
10
#13190
18
1@
b10 1
b10 9
16
#13220
1#
b11 !
12
#13240
0$
#13270
0-
05
b0 %
b0 .
0+
#13300
0:
b10 !
0&
#13320
1;
#13350
1C
1*
b10 '
b10 <
1A
#13380
1/
b110 !
1=
#13400
00
#13430
08
0@
b0 1
b0 9
06
#13460
0#
b100 !
02
#13480
1$
#13510
1-
15
b10 %
b10 .
1+
#13540
1:
b101 !
1&
#13560
0;
#13590
0C
0*
b0 '
b0 <
0A
#13620
0/
b1 !
0=
#13640
10
#13670
18
1@
b10 1
b10 9
16
#13700
1#
b11 !
12
#13720
0$
#13750
0-
05
b0 %
b0 .
0+
#13780
0:
b10 !
0&
#13800
1;
#13830
1C
1*
b10 '
b10 <
1A
#13860
1/
b110 !
1=
#13880
00
#13910
08
0@
b0 1
b0 9
06
#13940
0#
b100 !
02
#13960
1$
#13990
1-
15
b10 %
b10 .
1+
#14020
1:
b101 !
1&
#14040
0;
#14070
0C
0*
b0 '
b0 <
0A
#14100
0/
b1 !
0=
#14120
10
#14150
18
1@
b10 1
b10 9
16
#14180
1#
b11 !
12
#14200
0$
#14230
0-
05
b0 %
b0 .
0+
#14260
0:
b10 !
0&
#14280
1;
#14310
1C
1*
b10 '
b10 <
1A
#14340
1/
b110 !
1=
#14360
00
#14390
08
0@
b0 1
b0 9
06
#14420
0#
b100 !
02
#14440
1$
#14470
1-
15
b10 %
b10 .
1+
#14500
1:
b101 !
1&
#14520
0;
#14550
0C
0*
b0 '
b0 <
0A
#14580
0/
b1 !
0=
#14600
10
#14630
18
1@
b10 1
b10 9
16
#14660
1#
b11 !
12
#14680
0$
#14710
0-
05
b0 %
b0 .
0+
#14740
0:
b10 !
0&
#14760
1;
#14790
1C
1*
b10 '
b10 <
1A
#14820
1/
b110 !
1=
#14840
00
#14870
08
0@
b0 1
b0 9
06
#14900
0#
b100 !
02
#14920
1$
#14950
1-
15
b10 %
b10 .
1+
#14980
1:
b101 !
1&
#15000
0;
#15030
0C
0*
b0 '
b0 <
0A
#15060
0/
b1 !
0=
#15080
10
#15110
18
1@
b10 1
b10 9
16
#15140
1#
b11 !
12
#15160
0$
#15190
0-
05
b0 %
b0 .
0+
#15220
0:
b10 !
0&
#15240
1;
#15270
1C
1*
b10 '
b10 <
1A
#15300
1/
b110 !
1=
#15320
00
#15350
08
0@
b0 1
b0 9
06
#15380
0#
b100 !
02
#15400
1$
#15430
1-
15
b10 %
b10 .
1+
#15460
1:
b101 !
1&
#15480
0;
#15510
0C
0*
b0 '
b0 <
0A
#15540
0/
b1 !
0=
#15560
10
#15590
18
1@
b10 1
b10 9
16
#15620
1#
b11 !
12
#15640
0$
#15670
0-
05
b0 %
b0 .
0+
#15700
0:
b10 !
0&
#15720
1;
#15750
1C
1*
b10 '
b10 <
1A
#15780
1/
b110 !
1=
#15800
00
#15830
08
0@
b0 1
b0 9
06
#15860
0#
b100 !
02
#15880
1$
#15910
1-
15
b10 %
b10 .
1+
#15940
1:
b101 !
1&
#15960
0;
#15990
0C
0*
b0 '
b0 <
0A
#16020
0/
b1 !
0=
#16040
10
#16070
18
1@
b10 1
b10 9
16
#16100
1#
b11 !
12
#16120
0$
#16150
0-
05
b0 %
b0 .
0+
#16180
0:
b10 !
0&
#16200
1;
#16230
1C
1*
b10 '
b10 <
1A
#16260
1/
b110 !
1=
#16280
00
#16310
08
0@
b0 1
b0 9
06
#16340
0#
b100 !
02
#16360
1$
#16390
1-
15
b10 %
b10 .
1+
#16420
1:
b101 !
1&
#16440
0;
#16470
0C
0*
b0 '
b0 <
0A
#16500
0/
b1 !
0=
#16520
10
#16550
18
1@
b10 1
b10 9
16
#16580
1#
b11 !
12
#16600
0$
#16630
0-
05
b0 %
b0 .
0+
#16660
0:
b10 !
0&
#16680
1;
#16710
1C
1*
b10 '
b10 <
1A
#16740
1/
b110 !
1=
#16760
00
#16790
08
0@
b0 1
b0 9
06
#16820
0#
b100 !
02
#16840
1$
#16870
1-
15
b10 %
b10 .
1+
#16900
1:
b101 !
1&
#16920
0;
#16950
0C
0*
b0 '
b0 <
0A
#16980
0/
b1 !
0=
#17000
10
#17030
18
1@
b10 1
b10 9
16
#17060
1#
b11 !
12
#17080
0$
#17110
0-
05
b0 %
b0 .
0+
#17140
0:
b10 !
0&
#17160
1;
#17190
1C
1*
b10 '
b10 <
1A
#17220
1/
b110 !
1=
#17240
00
#17270
08
0@
b0 1
b0 9
06
#17300
0#
b100 !
02
#17320
1$
#17350
1-
15
b10 %
b10 .
1+
#17380
1:
b101 !
1&
#17400
0;
#17430
0C
0*
b0 '
b0 <
0A
#17460
0/
b1 !
0=
#17480
10
#17510
18
1@
b10 1
b10 9
16
#17540
1#
b11 !
12
#17560
0$
#17590
0-
05
b0 %
b0 .
0+
#17620
0:
b10 !
0&
#17640
1;
#17670
1C
1*
b10 '
b10 <
1A
#17700
1/
b110 !
1=
#17720
00
#17750
08
0@
b0 1
b0 9
06
#17780
0#
b100 !
02
#17800
1$
#17830
1-
15
b10 %
b10 .
1+
#17860
1:
b101 !
1&
#17880
0;
#17910
0C
0*
b0 '
b0 <
0A
#17940
0/
b1 !
0=
#17960
10
#17990
18
1@
b10 1
b10 9
16
#18020
1#
b11 !
12
#18040
0$
#18070
0-
05
b0 %
b0 .
0+
#18100
0:
b10 !
0&
#18120
1;
#18150
1C
1*
b10 '
b10 <
1A
#18180
1/
b110 !
1=
#18200
00
#18230
08
0@
b0 1
b0 9
06
#18260
0#
b100 !
02
#18280
1$
#18310
1-
15
b10 %
b10 .
1+
#18340
1:
b101 !
1&
#18360
0;
#18390
0C
0*
b0 '
b0 <
0A
#18420
0/
b1 !
0=
#18440
10
#18470
18
1@
b10 1
b10 9
16
#18500
1#
b11 !
12
#18520
0$
#18550
0-
05
b0 %
b0 .
0+
#18580
0:
b10 !
0&
#18600
1;
#18630
1C
1*
b10 '
b10 <
1A
#18660
1/
b110 !
1=
#18680
00
#18710
08
0@
b0 1
b0 9
06
#18740
0#
b100 !
02
#18760
1$
#18790
1-
15
b10 %
b10 .
1+
#18820
1:
b101 !
1&
#18840
0;
#18870
0C
0*
b0 '
b0 <
0A
#18900
0/
b1 !
0=
#18920
10
#18950
18
1@
b10 1
b10 9
16
#18980
1#
b11 !
12
#19000
0$
#19030
0-
05
b0 %
b0 .
0+
#19060
0:
b10 !
0&
#19080
1;
#19110
1C
1*
b10 '
b10 <
1A
#19140
1/
b110 !
1=
#19160
00
#19190
08
0@
b0 1
b0 9
06
#19220
0#
b100 !
02
#19240
1$
#19270
1-
15
b10 %
b10 .
1+
#19300
1:
b101 !
1&
#19320
0;
#19350
0C
0*
b0 '
b0 <
0A
#19380
0/
b1 !
0=
#19400
10
#19430
18
1@
b10 1
b10 9
16
#19460
1#
b11 !
12
#19480
0$
#19510
0-
05
b0 %
b0 .
0+
#19540
0:
b10 !
0&
#19560
1;
#19590
1C
1*
b10 '
b10 <
1A
#19620
1/
b110 !
1=
#19640
00
#19670
08
0@
b0 1
b0 9
06
#19700
0#
b100 !
02
#19720
1$
#19750
1-
15
b10 %
b10 .
1+
#19780
1:
b101 !
1&
#19800
0;
#19830
0C
0*
b0 '
b0 <
0A
#19860
0/
b1 !
0=
#19880
10
#19910
18
1@
b10 1
b10 9
16
#19940
1#
b11 !
12
#19960
0$
#19990
0-
05
b0 %
b0 .
0+
#20020
0:
b10 !
0&
#20040
1;
#20070
1C
1*
b10 '
b10 <
1A
#20100
1/
b110 !
1=
#20120
00
#20150
08
0@
b0 1
b0 9
06
#20180
0#
b100 !
02
#20200
1$
#20230
1-
15
b10 %
b10 .
1+
#20260
1:
b101 !
1&
#20280
0;
#20310
0C
0*
b0 '
b0 <
0A
#20340
0/
b1 !
0=
#20360
10
#20390
18
1@
b10 1
b10 9
16
#20420
1#
b11 !
12
#20440
0$
#20470
0-
05
b0 %
b0 .
0+
#20500
0:
b10 !
0&
#20520
1;
#20550
1C
1*
b10 '
b10 <
1A
#20580
1/
b110 !
1=
#20600
00
#20630
08
0@
b0 1
b0 9
06
#20660
0#
b100 !
02
#20680
1$
#20710
1-
15
b10 %
b10 .
1+
#20740
1:
b101 !
1&
#20760
0;
#20790
0C
0*
b0 '
b0 <
0A
#20820
0/
b1 !
0=
#20840
10
#20870
18
1@
b10 1
b10 9
16
#20900
1#
b11 !
12
#20920
0$
#20950
0-
05
b0 %
b0 .
0+
#20980
0:
b10 !
0&
#21000
1;
#21030
1C
1*
b10 '
b10 <
1A
#21060
1/
b110 !
1=
#21080
00
#21110
08
0@
b0 1
b0 9
06
#21140
0#
b100 !
02
#21160
1$
#21190
1-
15
b10 %
b10 .
1+
#21220
1:
b101 !
1&
#21240
0;
#21270
0C
0*
b0 '
b0 <
0A
#21300
0/
b1 !
0=
#21320
10
#21350
18
1@
b10 1
b10 9
16
#21380
1#
b11 !
12
#21400
0$
#21430
0-
05
b0 %
b0 .
0+
#21460
0:
b10 !
0&
#21480
1;
#21510
1C
1*
b10 '
b10 <
1A
#21540
1/
b110 !
1=
#21560
00
#21590
08
0@
b0 1
b0 9
06
#21620
0#
b100 !
02
#21640
1$
#21670
1-
15
b10 %
b10 .
1+
#21700
1:
b101 !
1&
#21720
0;
#21750
0C
0*
b0 '
b0 <
0A
#21780
0/
b1 !
0=
#21800
10
#21830
18
1@
b10 1
b10 9
16
#21860
1#
b11 !
12
#21880
0$
#21910
0-
05
b0 %
b0 .
0+
#21940
0:
b10 !
0&
#21960
1;
#21990
1C
1*
b10 '
b10 <
1A
#22020
1/
b110 !
1=
#22040
00
#22070
08
0@
b0 1
b0 9
06
#22100
0#
b100 !
02
#22120
1$
#22150
1-
15
b10 %
b10 .
1+
#22180
1:
b101 !
1&
#22200
0;
#22230
0C
0*
b0 '
b0 <
0A
#22260
0/
b1 !
0=
#22280
10
#22310
18
1@
b10 1
b10 9
16
#22340
1#
b11 !
12
#22360
0$
#22390
0-
05
b0 %
b0 .
0+
#22420
0:
b10 !
0&
#22440
1;
#22470
1C
1*
b10 '
b10 <
1A
#22500
1/
b110 !
1=
#22520
00
#22550
08
0@
b0 1
b0 9
06
#22580
0#
b100 !
02
#22600
1$
#22630
1-
15
b10 %
b10 .
1+
#22660
1:
b101 !
1&
#22680
0;
#22710
0C
0*
b0 '
b0 <
0A
#22740
0/
b1 !
0=
#22760
10
#22790
18
1@
b10 1
b10 9
16
#22820
1#
b11 !
12
#22840
0$
#22870
0-
05
b0 %
b0 .
0+
#22900
0:
b10 !
0&
#22920
1;
#22950
1C
1*
b10 '
b10 <
1A
#22980
1/
b110 !
1=
#23000
00
#23030
08
0@
b0 1
b0 9
06
#23060
0#
b100 !
02
#23080
1$
#23110
1-
15
b10 %
b10 .
1+
#23140
1:
b101 !
1&
#23160
0;
#23190
0C
0*
b0 '
b0 <
0A
#23220
0/
b1 !
0=
#23240
10
#23270
18
1@
b10 1
b10 9
16
#23300
1#
b11 !
12
#23320
0$
#23350
0-
05
b0 %
b0 .
0+
#23380
0:
b10 !
0&
#23400
1;
#23430
1C
1*
b10 '
b10 <
1A
#23460
1/
b110 !
1=
#23480
00
#23510
08
0@
b0 1
b0 9
06
#23540
0#
b100 !
02
#23560
1$
#23590
1-
15
b10 %
b10 .
1+
#23620
1:
b101 !
1&
#23640
0;
#23670
0C
0*
b0 '
b0 <
0A
#23700
0/
b1 !
0=
#23720
10
#23750
18
1@
b10 1
b10 9
16
#23780
1#
b11 !
12
#23800
0$
#23830
0-
05
b0 %
b0 .
0+
#23860
0:
b10 !
0&
#23880
1;
#23910
1C
1*
b10 '
b10 <
1A
#23940
1/
b110 !
1=
#23960
00
#23990
08
0@
b0 1
b0 9
06
#24020
0#
b100 !
02
#24040
1$
#24070
1-
15
b10 %
b10 .
1+
#24100
1:
b101 !
1&
#24120
0;
#24150
0C
0*
b0 '
b0 <
0A
#24180
0/
b1 !
0=
#24200
10
#24230
18
1@
b10 1
b10 9
16
#24260
1#
b11 !
12
#24280
0$
#24310
0-
05
b0 %
b0 .
0+
#24340
0:
b10 !
0&
#24360
1;
#24390
1C
1*
b10 '
b10 <
1A
#24420
1/
b110 !
1=
#24440
00
#24470
08
0@
b0 1
b0 9
06
#24500
0#
b100 !
02
#24520
1$
#24550
1-
15
b10 %
b10 .
1+
#24580
1:
b101 !
1&
#24600
0;
#24630
0C
0*
b0 '
b0 <
0A
#24660
0/
b1 !
0=
#24680
10
#24710
18
1@
b10 1
b10 9
16
#24740
1#
b11 !
12
#24760
0$
#24790
0-
05
b0 %
b0 .
0+
#24820
0:
b10 !
0&
#24840
1;
#24870
1C
1*
b10 '
b10 <
1A
#24900
1/
b110 !
1=
#24920
00
#24950
08
0@
b0 1
b0 9
06
#24980
0#
b100 !
02
#25000
1$
#25030
1-
15
b10 %
b10 .
1+
#25060
1:
b101 !
1&
#25080
0;
#25110
0C
0*
b0 '
b0 <
0A
#25140
0/
b1 !
0=
#25160
10
#25190
18
1@
b10 1
b10 9
16
#25220
1#
b11 !
12
#25240
0$
#25270
0-
05
b0 %
b0 .
0+
#25300
0:
b10 !
0&
#25320
1;
#25350
1C
1*
b10 '
b10 <
1A
#25380
1/
b110 !
1=
#25400
00
#25430
08
0@
b0 1
b0 9
06
#25460
0#
b100 !
02
#25480
1$
#25510
1-
15
b10 %
b10 .
1+
#25540
1:
b101 !
1&
#25560
0;
#25590
0C
0*
b0 '
b0 <
0A
#25620
0/
b1 !
0=
#25640
10
#25670
18
1@
b10 1
b10 9
16
#25700
1#
b11 !
12
#25720
0$
#25750
0-
05
b0 %
b0 .
0+
#25780
0:
b10 !
0&
#25800
1;
#25830
1C
1*
b10 '
b10 <
1A
#25860
1/
b110 !
1=
#25880
00
#25910
08
0@
b0 1
b0 9
06
#25940
0#
b100 !
02
#25960
1$
#25990
1-
15
b10 %
b10 .
1+
#26020
1:
b101 !
1&
#26040
0;
#26070
0C
0*
b0 '
b0 <
0A
#26100
0/
b1 !
0=
#26120
10
#26150
18
1@
b10 1
b10 9
16
#26180
1#
b11 !
12
#26200
0$
#26230
0-
05
b0 %
b0 .
0+
#26260
0:
b10 !
0&
#26280
1;
#26310
1C
1*
b10 '
b10 <
1A
#26340
1/
b110 !
1=
#26360
00
#26390
08
0@
b0 1
b0 9
06
#26420
0#
b100 !
02
#26440
1$
#26470
1-
15
b10 %
b10 .
1+
#26500
1:
b101 !
1&
#26520
0;
#26550
0C
0*
b0 '
b0 <
0A
#26580
0/
b1 !
0=
#26600
10
#26630
18
1@
b10 1
b10 9
16
#26660
1#
b11 !
12
#26680
0$
#26710
0-
05
b0 %
b0 .
0+
#26740
0:
b10 !
0&
#26760
1;
#26790
1C
1*
b10 '
b10 <
1A
#26820
1/
b110 !
1=
#26840
00
#26870
08
0@
b0 1
b0 9
06
#26900
0#
b100 !
02
#26920
1$
#26950
1-
15
b10 %
b10 .
1+
#26980
1:
b101 !
1&
#27000
0;
#27030
0C
0*
b0 '
b0 <
0A
#27060
0/
b1 !
0=
#27080
10
#27110
18
1@
b10 1
b10 9
16
