ring behavior/ring23ref.vcd
$date
	Tue Apr 12 16:33:51 2016
$end
$version
	Icarus Verilog
$end
$timescale
	1ps
$end
$scope module ring23 $end
$var wire 23 ! COMP [22:0] $end
$var reg 1 " init $end
$scope module u0 $end
$var wire 1 # ZCOMP $end
$var wire 1 " init $end
$var wire 1 $ enable $end
$var wire 2 % Z [1:0] $end
$var wire 1 & ACOMP $end
$var wire 2 ' A [1:0] $end
$scope module u0 $end
$var wire 1 # A $end
$var wire 1 $ Z $end
$upscope $end
$scope module u1 $end
$var wire 1 ( A $end
$var wire 1 $ B $end
$var wire 1 " C $end
$var wire 1 ) Z $end
$upscope $end
$scope module u2 $end
$var wire 1 * A $end
$var wire 1 $ B $end
$var wire 1 " C $end
$var wire 1 + Z $end
$upscope $end
$scope module u3 $end
$var wire 1 , A $end
$var wire 1 - B $end
$var wire 1 & Z $end
$upscope $end
$upscope $end
$scope module u1 $end
$var wire 2 . A [1:0] $end
$var wire 1 / ZCOMP $end
$var wire 1 " init $end
$var wire 1 0 enable $end
$var wire 2 1 Z [1:0] $end
$var wire 1 2 ACOMP $end
$scope module u0 $end
$var wire 1 / A $end
$var wire 1 " B $end
$var wire 1 0 Z $end
$upscope $end
$scope module u1 $end
$var wire 1 3 A $end
$var wire 1 0 B $end
$var wire 1 " C $end
$var wire 1 4 Z $end
$upscope $end
$scope module u2 $end
$var wire 1 5 A $end
$var wire 1 0 B $end
$var wire 1 " C $end
$var wire 1 6 Z $end
$upscope $end
$scope module u3 $end
$var wire 1 7 A $end
$var wire 1 8 B $end
$var wire 1 2 Z $end
$upscope $end
$upscope $end
$scope module u10 $end
$var wire 1 9 ZCOMP $end
$var wire 1 " init $end
$var wire 1 : enable $end
$var wire 2 ; Z [1:0] $end
$var wire 2 < X [1:0] $end
$var wire 1 = ACOMP $end
$var wire 2 > A [1:0] $end
$scope module u0 $end
$var wire 1 9 A $end
$var wire 1 : Z $end
$upscope $end
$scope module u1 $end
$var wire 1 ? A $end
$var wire 1 : B $end
$var wire 1 " C $end
$var wire 1 @ Z $end
$upscope $end
$scope module u2 $end
$var wire 1 A A $end
$var wire 1 : B $end
$var wire 1 " C $end
$var wire 1 B Z $end
$upscope $end
$scope module u3 $end
$var wire 1 C A $end
$var wire 1 D B $end
$var wire 1 = Z $end
$upscope $end
$scope module u4 $end
$var wire 1 E A $end
$var wire 1 F B $end
$var wire 1 G Z $end
$upscope $end
$scope module u5 $end
$var wire 1 H A $end
$var wire 1 I B $end
$var wire 1 J Z $end
$upscope $end
$upscope $end
$scope module u11 $end
$var wire 2 K A [1:0] $end
$var wire 1 L ZCOMP $end
$var wire 1 " init $end
$var wire 1 M enable $end
$var wire 2 N Z [1:0] $end
$var wire 1 O ACOMP $end
$scope module u0 $end
$var wire 1 L A $end
$var wire 1 " B $end
$var wire 1 M Z $end
$upscope $end
$scope module u1 $end
$var wire 1 P A $end
$var wire 1 M B $end
$var wire 1 " C $end
$var wire 1 Q Z $end
$upscope $end
$scope module u2 $end
$var wire 1 R A $end
$var wire 1 M B $end
$var wire 1 " C $end
$var wire 1 S Z $end
$upscope $end
$scope module u3 $end
$var wire 1 T A $end
$var wire 1 U B $end
$var wire 1 O Z $end
$upscope $end
$upscope $end
$scope module u12 $end
$var wire 2 V A [1:0] $end
$var wire 1 W ZCOMP $end
$var wire 1 " init $end
$var wire 1 X enable $end
$var wire 2 Y Z [1:0] $end
$var wire 2 Z X [1:0] $end
$var wire 1 [ ACOMP $end
$scope module u0 $end
$var wire 1 W A $end
$var wire 1 X Z $end
$upscope $end
$scope module u1 $end
$var wire 1 \ A $end
$var wire 1 X B $end
$var wire 1 " C $end
$var wire 1 ] Z $end
$upscope $end
$scope module u2 $end
$var wire 1 ^ A $end
$var wire 1 X B $end
$var wire 1 " C $end
$var wire 1 _ Z $end
$upscope $end
$scope module u3 $end
$var wire 1 ` A $end
$var wire 1 a B $end
$var wire 1 [ Z $end
$upscope $end
$scope module u4 $end
$var wire 1 b A $end
$var wire 1 c B $end
$var wire 1 d Z $end
$upscope $end
$scope module u5 $end
$var wire 1 e A $end
$var wire 1 f B $end
$var wire 1 g Z $end
$upscope $end
$upscope $end
$scope module u13 $end
$var wire 2 h A [1:0] $end
$var wire 1 i ZCOMP $end
$var wire 1 " init $end
$var wire 1 j enable $end
$var wire 2 k Z [1:0] $end
$var wire 1 l ACOMP $end
$scope module u0 $end
$var wire 1 i A $end
$var wire 1 " B $end
$var wire 1 j Z $end
$upscope $end
$scope module u1 $end
$var wire 1 m A $end
$var wire 1 j B $end
$var wire 1 " C $end
$var wire 1 n Z $end
$upscope $end
$scope module u2 $end
$var wire 1 o A $end
$var wire 1 j B $end
$var wire 1 " C $end
$var wire 1 p Z $end
$upscope $end
$scope module u3 $end
$var wire 1 q A $end
$var wire 1 r B $end
$var wire 1 l Z $end
$upscope $end
$upscope $end
$scope module u14 $end
$var wire 2 s A [1:0] $end
$var wire 1 t ZCOMP $end
$var wire 1 " init $end
$var wire 1 u enable $end
$var wire 2 v Z [1:0] $end
$var wire 2 w X [1:0] $end
$var wire 1 x ACOMP $end
$scope module u0 $end
$var wire 1 t A $end
$var wire 1 u Z $end
$upscope $end
$scope module u1 $end
$var wire 1 y A $end
$var wire 1 u B $end
$var wire 1 " C $end
$var wire 1 z Z $end
$upscope $end
$scope module u2 $end
$var wire 1 { A $end
$var wire 1 u B $end
$var wire 1 " C $end
$var wire 1 | Z $end
$upscope $end
$scope module u3 $end
$var wire 1 } A $end
$var wire 1 ~ B $end
$var wire 1 x Z $end
$upscope $end
$scope module u4 $end
$var wire 1 !" A $end
$var wire 1 "" B $end
$var wire 1 #" Z $end
$upscope $end
$scope module u5 $end
$var wire 1 $" A $end
$var wire 1 %" B $end
$var wire 1 &" Z $end
$upscope $end
$upscope $end
$scope module u15 $end
$var wire 2 '" A [1:0] $end
$var wire 1 (" ZCOMP $end
$var wire 1 " init $end
$var wire 1 )" enable $end
$var wire 2 *" Z [1:0] $end
$var wire 1 +" ACOMP $end
$scope module u0 $end
$var wire 1 (" A $end
$var wire 1 " B $end
$var wire 1 )" Z $end
$upscope $end
$scope module u1 $end
$var wire 1 ," A $end
$var wire 1 )" B $end
$var wire 1 " C $end
$var wire 1 -" Z $end
$upscope $end
$scope module u2 $end
$var wire 1 ." A $end
$var wire 1 )" B $end
$var wire 1 " C $end
$var wire 1 /" Z $end
$upscope $end
$scope module u3 $end
$var wire 1 0" A $end
$var wire 1 1" B $end
$var wire 1 +" Z $end
$upscope $end
$upscope $end
$scope module u16 $end
$var wire 2 2" A [1:0] $end
$var wire 1 3" ZCOMP $end
$var wire 1 " init $end
$var wire 1 4" enable $end
$var wire 2 5" Z [1:0] $end
$var wire 2 6" X [1:0] $end
$var wire 1 7" ACOMP $end
$scope module u0 $end
$var wire 1 3" A $end
$var wire 1 4" Z $end
$upscope $end
$scope module u1 $end
$var wire 1 8" A $end
$var wire 1 4" B $end
$var wire 1 " C $end
$var wire 1 9" Z $end
$upscope $end
$scope module u2 $end
$var wire 1 :" A $end
$var wire 1 4" B $end
$var wire 1 " C $end
$var wire 1 ;" Z $end
$upscope $end
$scope module u3 $end
$var wire 1 <" A $end
$var wire 1 =" B $end
$var wire 1 7" Z $end
$upscope $end
$scope module u4 $end
$var wire 1 >" A $end
$var wire 1 ?" B $end
$var wire 1 @" Z $end
$upscope $end
$scope module u5 $end
$var wire 1 A" A $end
$var wire 1 B" B $end
$var wire 1 C" Z $end
$upscope $end
$upscope $end
$scope module u17 $end
$var wire 2 D" A [1:0] $end
$var wire 1 E" ZCOMP $end
$var wire 1 " init $end
$var wire 1 F" enable $end
$var wire 2 G" Z [1:0] $end
$var wire 1 H" ACOMP $end
$scope module u0 $end
$var wire 1 E" A $end
$var wire 1 " B $end
$var wire 1 F" Z $end
$upscope $end
$scope module u1 $end
$var wire 1 I" A $end
$var wire 1 F" B $end
$var wire 1 " C $end
$var wire 1 J" Z $end
$upscope $end
$scope module u2 $end
$var wire 1 K" A $end
$var wire 1 F" B $end
$var wire 1 " C $end
$var wire 1 L" Z $end
$upscope $end
$scope module u3 $end
$var wire 1 M" A $end
$var wire 1 N" B $end
$var wire 1 H" Z $end
$upscope $end
$upscope $end
$scope module u18 $end
$var wire 2 O" A [1:0] $end
$var wire 1 P" ZCOMP $end
$var wire 1 " init $end
$var wire 1 Q" enable $end
$var wire 2 R" Z [1:0] $end
$var wire 2 S" X [1:0] $end
$var wire 1 T" ACOMP $end
$scope module u0 $end
$var wire 1 P" A $end
$var wire 1 Q" Z $end
$upscope $end
$scope module u1 $end
$var wire 1 U" A $end
$var wire 1 Q" B $end
$var wire 1 " C $end
$var wire 1 V" Z $end
$upscope $end
$scope module u2 $end
$var wire 1 W" A $end
$var wire 1 Q" B $end
$var wire 1 " C $end
$var wire 1 X" Z $end
$upscope $end
$scope module u3 $end
$var wire 1 Y" A $end
$var wire 1 Z" B $end
$var wire 1 T" Z $end
$upscope $end
$scope module u4 $end
$var wire 1 [" A $end
$var wire 1 \" B $end
$var wire 1 ]" Z $end
$upscope $end
$scope module u5 $end
$var wire 1 ^" A $end
$var wire 1 _" B $end
$var wire 1 `" Z $end
$upscope $end
$upscope $end
$scope module u19 $end
$var wire 2 a" A [1:0] $end
$var wire 1 b" ZCOMP $end
$var wire 1 " init $end
$var wire 1 c" enable $end
$var wire 2 d" Z [1:0] $end
$var wire 1 e" ACOMP $end
$scope module u0 $end
$var wire 1 b" A $end
$var wire 1 " B $end
$var wire 1 c" Z $end
$upscope $end
$scope module u1 $end
$var wire 1 f" A $end
$var wire 1 c" B $end
$var wire 1 " C $end
$var wire 1 g" Z $end
$upscope $end
$scope module u2 $end
$var wire 1 h" A $end
$var wire 1 c" B $end
$var wire 1 " C $end
$var wire 1 i" Z $end
$upscope $end
$scope module u3 $end
$var wire 1 j" A $end
$var wire 1 k" B $end
$var wire 1 e" Z $end
$upscope $end
$upscope $end
$scope module u2 $end
$var wire 2 l" A [1:0] $end
$var wire 1 m" ZCOMP $end
$var wire 1 " init $end
$var wire 1 n" enable $end
$var wire 2 o" Z [1:0] $end
$var wire 1 p" ACOMP $end
$scope module u0 $end
$var wire 1 m" A $end
$var wire 1 n" Z $end
$upscope $end
$scope module u1 $end
$var wire 1 q" A $end
$var wire 1 n" B $end
$var wire 1 " C $end
$var wire 1 r" Z $end
$upscope $end
$scope module u2 $end
$var wire 1 s" A $end
$var wire 1 n" B $end
$var wire 1 " C $end
$var wire 1 t" Z $end
$upscope $end
$scope module u3 $end
$var wire 1 u" A $end
$var wire 1 v" B $end
$var wire 1 p" Z $end
$upscope $end
$upscope $end
$scope module u20 $end
$var wire 2 w" A [1:0] $end
$var wire 1 x" ZCOMP $end
$var wire 1 " init $end
$var wire 1 y" enable $end
$var wire 2 z" Z [1:0] $end
$var wire 2 {" X [1:0] $end
$var wire 1 |" ACOMP $end
$scope module u0 $end
$var wire 1 x" A $end
$var wire 1 y" Z $end
$upscope $end
$scope module u1 $end
$var wire 1 }" A $end
$var wire 1 y" B $end
$var wire 1 " C $end
$var wire 1 ~" Z $end
$upscope $end
$scope module u2 $end
$var wire 1 !# A $end
$var wire 1 y" B $end
$var wire 1 " C $end
$var wire 1 "# Z $end
$upscope $end
$scope module u3 $end
$var wire 1 ## A $end
$var wire 1 $# B $end
$var wire 1 |" Z $end
$upscope $end
$scope module u4 $end
$var wire 1 %# A $end
$var wire 1 &# B $end
$var wire 1 '# Z $end
$upscope $end
$scope module u5 $end
$var wire 1 (# A $end
$var wire 1 )# B $end
$var wire 1 *# Z $end
$upscope $end
$upscope $end
$scope module u21 $end
$var wire 2 +# A [1:0] $end
$var wire 1 ,# ZCOMP $end
$var wire 1 " init $end
$var wire 1 -# enable $end
$var wire 2 .# Z [1:0] $end
$var wire 1 /# ACOMP $end
$scope module u0 $end
$var wire 1 ,# A $end
$var wire 1 " B $end
$var wire 1 -# Z $end
$upscope $end
$scope module u1 $end
$var wire 1 0# A $end
$var wire 1 -# B $end
$var wire 1 " C $end
$var wire 1 1# Z $end
$upscope $end
$scope module u2 $end
$var wire 1 2# A $end
$var wire 1 -# B $end
$var wire 1 " C $end
$var wire 1 3# Z $end
$upscope $end
$scope module u3 $end
$var wire 1 4# A $end
$var wire 1 5# B $end
$var wire 1 /# Z $end
$upscope $end
$upscope $end
$scope module u22 $end
$var wire 2 6# A [1:0] $end
$var wire 1 7# ZCOMP $end
$var wire 1 " init $end
$var wire 1 8# enable $end
$var wire 2 9# Z [1:0] $end
$var wire 1 :# ACOMP $end
$scope module u0 $end
$var wire 1 7# A $end
$var wire 1 " B $end
$var wire 1 8# Z $end
$upscope $end
$scope module u1 $end
$var wire 1 ;# A $end
$var wire 1 8# B $end
$var wire 1 <# Z $end
$upscope $end
$scope module u2 $end
$var wire 1 =# A $end
$var wire 1 8# B $end
$var wire 1 ># Z $end
$upscope $end
$scope module u3 $end
$var wire 1 ?# A $end
$var wire 1 @# B $end
$var wire 1 :# Z $end
$upscope $end
$upscope $end
$scope module u3 $end
$var wire 2 A# A [1:0] $end
$var wire 1 B# ZCOMP $end
$var wire 1 " init $end
$var wire 1 C# enable $end
$var wire 2 D# Z [1:0] $end
$var wire 1 E# ACOMP $end
$scope module u0 $end
$var wire 1 B# A $end
$var wire 1 " B $end
$var wire 1 C# Z $end
$upscope $end
$scope module u1 $end
$var wire 1 F# A $end
$var wire 1 C# B $end
$var wire 1 " C $end
$var wire 1 G# Z $end
$upscope $end
$scope module u2 $end
$var wire 1 H# A $end
$var wire 1 C# B $end
$var wire 1 " C $end
$var wire 1 I# Z $end
$upscope $end
$scope module u3 $end
$var wire 1 J# A $end
$var wire 1 K# B $end
$var wire 1 E# Z $end
$upscope $end
$upscope $end
$scope module u4 $end
$var wire 2 L# A [1:0] $end
$var wire 1 M# ZCOMP $end
$var wire 1 " init $end
$var wire 1 N# enable $end
$var wire 2 O# Z [1:0] $end
$var wire 1 P# ACOMP $end
$scope module u0 $end
$var wire 1 M# A $end
$var wire 1 N# Z $end
$upscope $end
$scope module u1 $end
$var wire 1 Q# A $end
$var wire 1 N# B $end
$var wire 1 " C $end
$var wire 1 R# Z $end
$upscope $end
$scope module u2 $end
$var wire 1 S# A $end
$var wire 1 N# B $end
$var wire 1 " C $end
$var wire 1 T# Z $end
$upscope $end
$scope module u3 $end
$var wire 1 U# A $end
$var wire 1 V# B $end
$var wire 1 P# Z $end
$upscope $end
$upscope $end
$scope module u5 $end
$var wire 2 W# A [1:0] $end
$var wire 1 X# ZCOMP $end
$var wire 1 " init $end
$var wire 1 Y# enable $end
$var wire 2 Z# Z [1:0] $end
$var wire 1 [# ACOMP $end
$scope module u0 $end
$var wire 1 X# A $end
$var wire 1 " B $end
$var wire 1 Y# Z $end
$upscope $end
$scope module u1 $end
$var wire 1 \# A $end
$var wire 1 Y# B $end
$var wire 1 " C $end
$var wire 1 ]# Z $end
$upscope $end
$scope module u2 $end
$var wire 1 ^# A $end
$var wire 1 Y# B $end
$var wire 1 " C $end
$var wire 1 _# Z $end
$upscope $end
$scope module u3 $end
$var wire 1 `# A $end
$var wire 1 a# B $end
$var wire 1 [# Z $end
$upscope $end
$upscope $end
$scope module u6 $end
$var wire 2 b# A [1:0] $end
$var wire 1 c# ZCOMP $end
$var wire 1 " init $end
$var wire 1 d# enable $end
$var wire 2 e# Z [1:0] $end
$var wire 2 f# X [1:0] $end
$var wire 1 g# ACOMP $end
$scope module u0 $end
$var wire 1 c# A $end
$var wire 1 d# Z $end
$upscope $end
$scope module u1 $end
$var wire 1 h# A $end
$var wire 1 d# B $end
$var wire 1 " C $end
$var wire 1 i# Z $end
$upscope $end
$scope module u2 $end
$var wire 1 j# A $end
$var wire 1 d# B $end
$var wire 1 " C $end
$var wire 1 k# Z $end
$upscope $end
$scope module u3 $end
$var wire 1 l# A $end
$var wire 1 m# B $end
$var wire 1 g# Z $end
$upscope $end
$scope module u4 $end
$var wire 1 n# A $end
$var wire 1 o# B $end
$var wire 1 p# Z $end
$upscope $end
$scope module u5 $end
$var wire 1 q# A $end
$var wire 1 r# B $end
$var wire 1 s# Z $end
$upscope $end
$upscope $end
$scope module u7 $end
$var wire 2 t# A [1:0] $end
$var wire 1 u# ZCOMP $end
$var wire 1 " init $end
$var wire 1 v# enable $end
$var wire 2 w# Z [1:0] $end
$var wire 1 x# ACOMP $end
$scope module u0 $end
$var wire 1 u# A $end
$var wire 1 " B $end
$var wire 1 v# Z $end
$upscope $end
$scope module u1 $end
$var wire 1 y# A $end
$var wire 1 v# B $end
$var wire 1 " C $end
$var wire 1 z# Z $end
$upscope $end
$scope module u2 $end
$var wire 1 {# A $end
$var wire 1 v# B $end
$var wire 1 " C $end
$var wire 1 |# Z $end
$upscope $end
$scope module u3 $end
$var wire 1 }# A $end
$var wire 1 ~# B $end
$var wire 1 x# Z $end
$upscope $end
$upscope $end
$scope module u8 $end
$var wire 2 !$ A [1:0] $end
$var wire 1 "$ ZCOMP $end
$var wire 1 " init $end
$var wire 1 #$ enable $end
$var wire 2 $$ Z [1:0] $end
$var wire 2 %$ X [1:0] $end
$var wire 1 &$ ACOMP $end
$scope module u0 $end
$var wire 1 "$ A $end
$var wire 1 #$ Z $end
$upscope $end
$scope module u1 $end
$var wire 1 '$ A $end
$var wire 1 #$ B $end
$var wire 1 " C $end
$var wire 1 ($ Z $end
$upscope $end
$scope module u2 $end
$var wire 1 )$ A $end
$var wire 1 #$ B $end
$var wire 1 " C $end
$var wire 1 *$ Z $end
$upscope $end
$scope module u3 $end
$var wire 1 +$ A $end
$var wire 1 ,$ B $end
$var wire 1 &$ Z $end
$upscope $end
$scope module u4 $end
$var wire 1 -$ A $end
$var wire 1 .$ B $end
$var wire 1 /$ Z $end
$upscope $end
$scope module u5 $end
$var wire 1 0$ A $end
$var wire 1 1$ B $end
$var wire 1 2$ Z $end
$upscope $end
$upscope $end
$scope module u9 $end
$var wire 2 3$ A [1:0] $end
$var wire 1 4$ ZCOMP $end
$var wire 1 " init $end
$var wire 1 5$ enable $end
$var wire 2 6$ Z [1:0] $end
$var wire 1 7$ ACOMP $end
$scope module u0 $end
$var wire 1 4$ A $end
$var wire 1 " B $end
$var wire 1 5$ Z $end
$upscope $end
$scope module u1 $end
$var wire 1 8$ A $end
$var wire 1 5$ B $end
$var wire 1 " C $end
$var wire 1 9$ Z $end
$upscope $end
$scope module u2 $end
$var wire 1 :$ A $end
$var wire 1 5$ B $end
$var wire 1 " C $end
$var wire 1 ;$ Z $end
$upscope $end
$scope module u3 $end
$var wire 1 <$ A $end
$var wire 1 =$ B $end
$var wire 1 7$ Z $end
$upscope $end
$upscope $end
$upscope $end
$enddefinitions $end
#0
$dumpvars
x=$
x<$
x;$
x:$
x9$
x8$
x7$
bx 6$
x5$
x4$
bx 3$
x2$
x1$
x0$
x/$
x.$
x-$
x,$
x+$
x*$
x)$
x($
x'$
x&$
bx %$
bx $$
x#$
x"$
bx !$
x~#
x}#
x|#
x{#
xz#
xy#
xx#
bx w#
xv#
xu#
bx t#
xs#
xr#
xq#
xp#
xo#
xn#
xm#
xl#
xk#
xj#
xi#
xh#
xg#
bx f#
bx e#
xd#
xc#
bx b#
xa#
x`#
x_#
x^#
x]#
x\#
x[#
bx Z#
xY#
xX#
bx W#
xV#
xU#
xT#
xS#
xR#
xQ#
xP#
bx O#
xN#
xM#
bx L#
xK#
xJ#
xI#
xH#
xG#
xF#
xE#
bx D#
xC#
xB#
bx A#
x@#
x?#
x>#
x=#
x<#
x;#
x:#
bx 9#
x8#
x7#
bx 6#
x5#
x4#
x3#
x2#
x1#
x0#
x/#
bx .#
x-#
x,#
bx +#
x*#
x)#
x(#
x'#
x&#
x%#
x$#
x##
x"#
x!#
x~"
x}"
x|"
bx {"
bx z"
xy"
xx"
bx w"
xv"
xu"
xt"
xs"
xr"
xq"
xp"
bx o"
xn"
xm"
bx l"
xk"
xj"
xi"
xh"
xg"
xf"
xe"
bx d"
xc"
xb"
bx a"
x`"
x_"
x^"
x]"
x\"
x["
xZ"
xY"
xX"
xW"
xV"
xU"
xT"
bx S"
bx R"
xQ"
xP"
bx O"
xN"
xM"
xL"
xK"
xJ"
xI"
xH"
bx G"
xF"
xE"
bx D"
xC"
xB"
xA"
x@"
x?"
x>"
x="
x<"
x;"
x:"
x9"
x8"
x7"
bx 6"
bx 5"
x4"
x3"
bx 2"
x1"
x0"
x/"
x."
x-"
x,"
x+"
bx *"
x)"
x("
bx '"
x&"
x%"
x$"
x#"
x""
x!"
x~
x}
x|
x{
xz
xy
xx
bx w
bx v
xu
xt
bx s
xr
xq
xp
xo
xn
xm
xl
bx k
xj
xi
bx h
xg
xf
xe
xd
xc
xb
xa
x`
x_
x^
x]
x\
x[
bx Z
bx Y
xX
xW
bx V
xU
xT
xS
xR
xQ
xP
xO
bx N
xM
xL
bx K
xJ
xI
xH
xG
xF
xE
xD
xC
xB
xA
x@
x?
bx >
x=
bx <
bx ;
x:
x9
x8
x7
x6
x5
x4
x3
x2
bx 1
x0
x/
bx .
x-
x,
x+
x*
x)
x(
bx '
x&
bx %
x$
x#
0"
bx !
$end
#30
0@#
0*
0?#
0(
0>#
b0 '
b0 9#
0<#
#60
0,#
b0xxxxxxxxxxxxxxxxxxxxxx !
0:#
#80
1-#
#100
1"
#120
00
0M
0j
0)"
0F"
0c"
0-#
08#
0C#
0Y#
0v#
05$
#130
0,
03
1-
15
07
0q"
08
0s"
1C
1P
0D
0R
0T
0b
0f
0U
0c
0e
1`
1m
0a
0o
0q
0!"
0%"
0r
0""
0$"
1}
1,"
0~
0."
00"
0>"
0B"
01"
0?"
0A"
1<"
1I"
0="
0K"
0M"
0["
0_"
0N"
0\"
0^"
1Y"
1f"
0Z"
0h"
0j"
0%#
0)#
0k"
0&#
0(#
0u"
0F#
1v"
1H#
1##
10#
0$#
02#
04#
0;#
05#
0=#
0J#
0Q#
0K#
0S#
0U#
0\#
1V#
1^#
0`#
0n#
0r#
0a#
0o#
0q#
1l#
1y#
0m#
0{#
0}#
0-$
01$
0~#
0.$
00$
1+$
18$
0,$
0:$
0<$
0I
0E
0=$
0H
0F
0)
b10 %
b10 .
1+
04
b0 1
b0 l"
06
1@
b1 ;
b1 K
0B
0Q
b0 N
b0 V
0S
1]
b1 Y
b1 h
0_
0n
b0 k
b0 s
0p
1z
b1 v
b1 '"
0|
0-"
b0 *"
b0 2"
0/"
19"
b1 5"
b1 D"
0;"
0J"
b0 G"
b0 O"
0L"
1V"
b1 R"
b1 a"
0X"
0g"
b0 d"
b0 w"
0i"
0r"
b10 o"
b10 A#
1t"
1~"
b1 z"
b1 +#
0"#
01#
b0 .#
b0 6#
03#
0G#
b0 D#
b0 L#
0I#
0R#
b10 O#
b10 W#
1T#
0]#
b0 Z#
b0 b#
0_#
1i#
b1 e#
b1 t#
0k#
0z#
b0 w#
b0 !$
0|#
1($
b1 $$
b1 3$
0*$
09$
b0 >
b0 6$
0;$
#160
17#
0#
14$
09
0\
0^
1L
0W
0y
0{
1i
0t
08"
0:"
1("
03"
0U"
0W"
1E"
0P"
0}"
0!#
1/
1b"
0x"
0m"
1B#
0M#
0h#
0j#
1X#
0c#
0'$
0)$
1u#
0"$
0A
0?
1&
02
1=
0O
0d
b0 Z
0g
1[
0l
0#"
b0 w
0&"
1x
0+"
0@"
b0 6"
0C"
17"
0H"
0]"
b0 S"
0`"
1T"
0e"
0'#
b0 {"
0*#
1p"
1|"
0/#
0E#
1P#
0[#
0p#
b0 f#
0s#
1g#
0x#
0/$
b0 %$
02$
1&$
b101010101010101010101 !
07$
0J
b0 <
0G
#180
1$
1:
1X
1u
14"
1Q"
1y"
1n"
1N#
1d#
1#$
#2100
0"
#2120
1-#
#2150
14#
1;#
b1 .#
b1 6#
11#
#2180
1x"
b1101010101010101010101 !
1/#
#2200
0y"
#2230
0##
00#
b0 z"
b0 +#
0~"
#2260
0b"
b1001010101010101010101 !
0|"
#2280
1c"
#2310
1j"
1%#
1)#
b1 d"
b1 w"
1g"
#2340
1P"
1}"
1!#
b1011010101010101010101 !
1e"
1'#
b11 {"
1*#
#2360
0Q"
#2390
0Y"
0f"
b0 R"
b0 a"
0V"
#2420
0E"
b1010010101010101010101 !
0T"
#2440
1F"
#2470
1M"
1["
1_"
b1 G"
b1 O"
1J"
#2500
13"
1U"
1W"
b1010110101010101010101 !
1H"
1]"
b11 S"
1`"
#2520
04"
#2550
0<"
0I"
b0 5"
b0 D"
09"
#2580
0("
b1010100101010101010101 !
07"
#2600
1)"
#2630
10"
1>"
1B"
b1 *"
b1 2"
1-"
#2660
1t
18"
1:"
b1010101101010101010101 !
1+"
1@"
b11 6"
1C"
#2680
0u
#2710
0}
0,"
b0 v
b0 '"
0z
#2740
0i
b1010101001010101010101 !
0x
#2760
1j
#2790
1q
1!"
1%"
b1 k
b1 s
1n
#2820
1W
1y
1{
b1010101011010101010101 !
1l
1#"
b11 w
1&"
#2840
0X
#2870
0`
0m
b0 Y
b0 h
0]
#2900
0L
b1010101010010101010101 !
0[
#2920
1M
#2950
1T
1b
1f
b1 N
b1 V
1Q
#2980
19
1\
1^
b1010101010110101010101 !
1O
1d
b11 Z
1g
#3000
0:
#3030
0C
0P
b0 ;
b0 K
0@
#3060
04$
b1010101010100101010101 !
0=
#3080
15$
#3110
1<$
1I
1E
b1 >
b1 6$
19$
#3140
1"$
1A
1?
b1010101010101101010101 !
17$
1J
b11 <
1G
#3160
0#$
#3190
0+$
08$
b0 $$
b0 3$
0($
#3220
0u#
b1010101010101001010101 !
0&$
#3240
1v#
#3270
1}#
1-$
11$
b1 w#
b1 !$
1z#
#3300
1c#
1'$
1)$
b1010101010101011010101 !
1x#
1/$
b11 %$
12$
#3320
0d#
#3350
0l#
0y#
b0 e#
b0 t#
0i#
#3380
0X#
b1010101010101010010101 !
0g#
#3400
1Y#
#3430
1a#
1o#
1q#
b10 Z#
b10 b#
1_#
#3460
1M#
1h#
1j#
b1010101010101010110101 !
1[#
1p#
b11 f#
1s#
#3480
0N#
#3510
0V#
0^#
b0 O#
b0 W#
0T#
#3540
0B#
b1010101010101010100101 !
0P#
#3560
1C#
#3590
1K#
1S#
b10 D#
b10 L#
1I#
#3620
1m"
b1010101010101010101101 !
1E#
#3640
0n"
#3670
0v"
0H#
b0 o"
b0 A#
0t"
#3700
0/
b1010101010101010101001 !
0p"
#3720
10
#3750
18
1s"
b10 1
b10 l"
16
#3780
1#
b1010101010101010101011 !
12
#3800
0$
#3830
0-
05
b0 %
b0 .
0+
#3860
07#
b1010101010101010101010 !
0&
#3880
18#
#3910
1?#
1(
b1 '
b1 9#
1<#
#3940
1,#
b11010101010101010101010 !
1:#
#3960
0-#
#3990
04#
0;#
b0 .#
b0 6#
01#
#4020
0x"
b10010101010101010101010 !
0/#
#4040
1y"
#4070
1##
10#
1$#
12#
1~"
b11 z"
b11 +#
1"#
#4100
1b"
b10110101010101010101010 !
1|"
#4120
0c"
#4150
0j"
0%#
0)#
b0 d"
b0 w"
0g"
#4180
0P"
0}"
0!#
b10100101010101010101010 !
0e"
0'#
b0 {"
0*#
#4200
1Q"
#4230
1Y"
1f"
1Z"
1h"
1V"
b11 R"
b11 a"
1X"
#4260
1E"
b10101101010101010101010 !
1T"
#4280
0F"
#4310
0M"
0["
0_"
b0 G"
b0 O"
0J"
#4340
03"
0U"
0W"
b10101001010101010101010 !
0H"
0]"
b0 S"
0`"
#4360
14"
#4390
1<"
1I"
1="
1K"
19"
b11 5"
b11 D"
1;"
#4420
1("
b10101011010101010101010 !
17"
#4440
0)"
#4470
00"
0>"
0B"
b0 *"
b0 2"
0-"
#4500
0t
08"
0:"
b10101010010101010101010 !
0+"
0@"
b0 6"
0C"
#4520
1u
#4550
1}
1,"
1~
1."
1z
b11 v
b11 '"
1|
#4580
1i
b10101010110101010101010 !
1x
#4600
0j
#4630
0q
0!"
0%"
b0 k
b0 s
0n
#4660
0W
0y
0{
b10101010100101010101010 !
0l
0#"
b0 w
0&"
#4680
1X
#4710
1`
1m
1a
1o
1]
b11 Y
b11 h
1_
#4740
1L
b10101010101101010101010 !
1[
#4760
0M
#4790
0T
0b
0f
b0 N
b0 V
0Q
#4820
09
0\
0^
b10101010101001010101010 !
0O
0d
b0 Z
0g
#4840
1:
#4870
1C
1P
1D
1R
1@
b11 ;
b11 K
1B
#4900
14$
b10101010101011010101010 !
1=
#4920
05$
#4950
0<$
0I
0E
b0 >
b0 6$
09$
#4980
0"$
0A
0?
b10101010101010010101010 !
07$
0J
b0 <
0G
#5000
1#$
#5030
1+$
18$
1,$
1:$
1($
b11 $$
b11 3$
1*$
#5060
1u#
b10101010101010110101010 !
1&$
#5080
0v#
#5110
0}#
0-$
01$
b0 w#
b0 !$
0z#
#5140
0c#
0'$
0)$
b10101010101010100101010 !
0x#
0/$
b0 %$
02$
#5160
1d#
#5190
1l#
1y#
1m#
1{#
1i#
b11 e#
b11 t#
1k#
#5220
1X#
b10101010101010101101010 !
1g#
#5240
0Y#
#5270
0a#
0o#
0q#
b0 Z#
b0 b#
0_#
#5300
0M#
0h#
0j#
b10101010101010101001010 !
0[#
0p#
b0 f#
0s#
#5320
1N#
#5350
1V#
1^#
b10 O#
b10 W#
1T#
#5380
1B#
b10101010101010101011010 !
1P#
#5400
0C#
#5430
0K#
0S#
b0 D#
b0 L#
0I#
#5460
0m"
b10101010101010101010010 !
0E#
#5480
1n"
#5510
1v"
1H#
b10 o"
b10 A#
1t"
#5540
1/
b10101010101010101010110 !
1p"
#5560
00
#5590
08
0s"
b0 1
b0 l"
06
#5620
0#
b10101010101010101010100 !
02
#5640
1$
#5670
1,
13
b1 %
b1 .
1)
#5700
17#
b10101010101010101010101 !
1&
#5720
08#
