multirail/pipeline4ref.vcd
$date
	Tue Aug  4 16:58:10 2015
$end
$version
	Icarus Verilog
$end
$timescale
	1ps
$end
$scope module pipeline4 $end
$var wire 4 ! A [3:0] $end
$var wire 1 " ACOMP $end
$var wire 4 # B [3:0] $end
$var wire 1 $ BCOMP $end
$var wire 4 % C [3:0] $end
$var wire 1 & CCOMP $end
$var wire 4 ' D [3:0] $end
$var wire 1 ( DCOMP $end
$var wire 4 ) E [3:0] $end
$var wire 1 * ECOMP $end
$var reg 1 + init $end
$scope module A0 $end
$var wire 1 " A $end
$var wire 1 , B $end
$var wire 1 - Z $end
$upscope $end
$scope module u1 $end
$var wire 4 . A [3:0] $end
$var wire 1 " ACOMP $end
$var wire 4 / Z [3:0] $end
$var wire 1 $ ZCOMP $end
$var wire 1 0 enable $end
$var wire 1 , init $end
$scope module u0 $end
$var wire 1 $ A $end
$var wire 1 , B $end
$var wire 1 0 Z $end
$upscope $end
$scope module u1 $end
$var wire 1 1 A $end
$var wire 1 0 B $end
$var wire 1 2 Z $end
$upscope $end
$scope module u2 $end
$var wire 1 3 A $end
$var wire 1 0 B $end
$var wire 1 4 Z $end
$upscope $end
$scope module u3 $end
$var wire 1 5 A $end
$var wire 1 0 B $end
$var wire 1 6 Z $end
$upscope $end
$scope module u4 $end
$var wire 1 7 A $end
$var wire 1 0 B $end
$var wire 1 8 Z $end
$upscope $end
$scope module u5 $end
$var wire 1 9 A $end
$var wire 1 : B $end
$var wire 1 ; C $end
$var wire 1 < D $end
$var wire 1 " Z $end
$upscope $end
$upscope $end
$scope module u2 $end
$var wire 4 = A [3:0] $end
$var wire 1 $ ACOMP $end
$var wire 4 > Z [3:0] $end
$var wire 1 & ZCOMP $end
$var wire 1 ? enable $end
$var wire 1 , init $end
$scope module u0 $end
$var wire 1 & A $end
$var wire 1 , B $end
$var wire 1 ? Z $end
$upscope $end
$scope module u1 $end
$var wire 1 @ A $end
$var wire 1 ? B $end
$var wire 1 A Z $end
$upscope $end
$scope module u2 $end
$var wire 1 B A $end
$var wire 1 ? B $end
$var wire 1 C Z $end
$upscope $end
$scope module u3 $end
$var wire 1 D A $end
$var wire 1 ? B $end
$var wire 1 E Z $end
$upscope $end
$scope module u4 $end
$var wire 1 F A $end
$var wire 1 ? B $end
$var wire 1 G Z $end
$upscope $end
$scope module u5 $end
$var wire 1 H A $end
$var wire 1 I B $end
$var wire 1 J C $end
$var wire 1 K D $end
$var wire 1 $ Z $end
$upscope $end
$upscope $end
$scope module u3 $end
$var wire 4 L A [3:0] $end
$var wire 1 & ACOMP $end
$var wire 4 M Z [3:0] $end
$var wire 1 ( ZCOMP $end
$var wire 1 N enable $end
$var wire 1 , init $end
$scope module u0 $end
$var wire 1 ( A $end
$var wire 1 , B $end
$var wire 1 N Z $end
$upscope $end
$scope module u1 $end
$var wire 1 O A $end
$var wire 1 N B $end
$var wire 1 P Z $end
$upscope $end
$scope module u2 $end
$var wire 1 Q A $end
$var wire 1 N B $end
$var wire 1 R Z $end
$upscope $end
$scope module u3 $end
$var wire 1 S A $end
$var wire 1 N B $end
$var wire 1 T Z $end
$upscope $end
$scope module u4 $end
$var wire 1 U A $end
$var wire 1 N B $end
$var wire 1 V Z $end
$upscope $end
$scope module u5 $end
$var wire 1 W A $end
$var wire 1 X B $end
$var wire 1 Y C $end
$var wire 1 Z D $end
$var wire 1 & Z $end
$upscope $end
$upscope $end
$scope module u4 $end
$var wire 4 [ A [3:0] $end
$var wire 1 ( ACOMP $end
$var wire 4 \ Z [3:0] $end
$var wire 1 * ZCOMP $end
$var wire 1 ] enable $end
$var wire 1 , init $end
$scope module u0 $end
$var wire 1 * A $end
$var wire 1 , B $end
$var wire 1 ] Z $end
$upscope $end
$scope module u1 $end
$var wire 1 ^ A $end
$var wire 1 ] B $end
$var wire 1 _ Z $end
$upscope $end
$scope module u2 $end
$var wire 1 ` A $end
$var wire 1 ] B $end
$var wire 1 a Z $end
$upscope $end
$scope module u3 $end
$var wire 1 b A $end
$var wire 1 ] B $end
$var wire 1 c Z $end
$upscope $end
$scope module u4 $end
$var wire 1 d A $end
$var wire 1 ] B $end
$var wire 1 e Z $end
$upscope $end
$scope module u5 $end
$var wire 1 f A $end
$var wire 1 g B $end
$var wire 1 h C $end
$var wire 1 i D $end
$var wire 1 ( Z $end
$upscope $end
$upscope $end
$scope module u5 $end
$var wire 1 j A $end
$var wire 1 k B $end
$var wire 1 l C $end
$var wire 1 m D $end
$var wire 1 * Z $end
$upscope $end
$upscope $end
$enddefinitions $end
#0
$dumpvars
zm
zl
zk
zj
zi
zh
zg
zf
ze
zd
zc
zb
za
z`
z_
z^
z]
bz \
bz [
zZ
zY
zX
zW
zV
zU
zT
zS
zR
zQ
zP
zO
zN
bz M
bz L
zK
zJ
zI
zH
zG
xF
zE
xD
zC
xB
zA
z@
z?
bz >
bxz =
x<
x;
x:
z9
x8
07
x6
05
x4
03
z2
z1
z0
bxz /
b0z .
z-
1,
1+
z*
bz )
z(
bz '
z&
bz %
z$
bxz #
z"
b0z !
$end
#20
x9
x@
xH
xI
xJ
xK
xO
xQ
xS
xU
xW
xX
xY
xZ
x^
x`
xb
xd
xj
xk
xl
xm
xf
xg
xh
xi
01
x2
bx #
bx /
bx =
xA
xC
xE
xG
bx %
bx >
bx L
xP
xR
xT
xV
bx '
bx M
bx [
x_
xa
xc
xe
bx )
bx \
0-
b0 !
b0 .
00
0?
0N
0]
#50
09
0@
0:
0B
0;
0D
0<
0F
02
04
06
08
b0 #
b0 /
b0 =
#80
0H
0O
0I
0Q
0J
0S
0K
0U
0A
0C
0E
0G
b0 %
b0 >
b0 L
#100
0"
#110
0W
0^
0X
0`
0Y
0b
0Z
0d
0P
0R
0T
0V
b0 '
b0 M
b0 [
#130
0$
#140
0j
0f
0k
0g
0l
0h
0m
0i
0_
0a
0c
0e
b0 )
b0 \
#160
0&
#190
0*
0(
#200
0+
0,
#220
11
1-
b1 !
b1 .
10
1?
1N
1]
#250
19
1@
12
b1 #
b1 /
b1 =
#280
1H
1O
1A
b1 %
b1 >
b1 L
#300
1"
#310
1W
1^
1P
b1 '
b1 M
b1 [
#320
01
0-
b0 !
b0 .
#330
1$
#340
1j
1f
1_
b1 )
b1 \
#350
00
#360
1&
#380
09
0@
0?
02
b0 #
b0 /
b0 =
#390
1*
1(
#410
0H
0O
0]
0N
0A
b0 %
b0 >
b0 L
#430
0"
#440
0W
0^
0P
b0 '
b0 M
b0 [
#450
11
1-
b1 !
b1 .
#460
0$
#470
0j
0f
0_
b0 )
b0 \
#480
10
#490
0&
#510
19
1@
1?
12
b1 #
b1 /
b1 =
#520
0*
0(
#540
1H
1O
1]
1N
1A
b1 %
b1 >
b1 L
#560
1"
#570
1W
1^
1P
b1 '
b1 M
b1 [
#580
01
0-
b0 !
b0 .
#590
1$
#600
1j
1f
1_
b1 )
b1 \
#610
00
#620
1&
#640
09
0@
0?
02
b0 #
b0 /
b0 =
#650
1*
1(
#670
0H
0O
0]
0N
0A
b0 %
b0 >
b0 L
#690
0"
#700
0W
0^
0P
b0 '
b0 M
b0 [
#710
11
1-
b1 !
b1 .
#720
0$
#730
0j
0f
0_
b0 )
b0 \
#740
10
#750
0&
#770
19
1@
1?
12
b1 #
b1 /
b1 =
#780
0*
0(
#800
1H
1O
1]
1N
1A
b1 %
b1 >
b1 L
#820
1"
#830
1W
1^
1P
b1 '
b1 M
b1 [
#840
01
0-
b0 !
b0 .
#850
1$
#860
1j
1f
1_
b1 )
b1 \
#870
00
#880
1&
#900
09
0@
0?
02
b0 #
b0 /
b0 =
#910
1*
1(
#930
0H
0O
0]
0N
0A
b0 %
b0 >
b0 L
#950
0"
#960
0W
0^
0P
b0 '
b0 M
b0 [
#970
11
1-
b1 !
b1 .
#980
0$
#990
0j
0f
0_
b0 )
b0 \
#1000
10
#1010
0&
#1030
19
1@
1?
12
b1 #
b1 /
b1 =
#1040
0*
0(
#1060
1H
1O
1]
1N
1A
b1 %
b1 >
b1 L
#1080
1"
#1090
1W
1^
1P
b1 '
b1 M
b1 [
#1100
01
0-
b0 !
b0 .
#1110
1$
#1120
1j
1f
1_
b1 )
b1 \
#1130
00
#1140
1&
#1160
09
0@
0?
02
b0 #
b0 /
b0 =
#1170
1*
1(
#1190
0H
0O
0]
0N
0A
b0 %
b0 >
b0 L
#1210
0"
#1220
0W
0^
0P
b0 '
b0 M
b0 [
#1230
11
1-
b1 !
b1 .
#1240
0$
#1250
0j
0f
0_
b0 )
b0 \
#1260
10
#1270
0&
#1290
19
1@
1?
12
b1 #
b1 /
b1 =
#1300
0*
0(
#1320
1H
1O
1]
1N
1A
b1 %
b1 >
b1 L
#1340
1"
#1350
1W
1^
1P
b1 '
b1 M
b1 [
#1360
01
0-
b0 !
b0 .
#1370
1$
#1380
1j
1f
1_
b1 )
b1 \
#1390
00
#1400
1&
#1420
09
0@
0?
02
b0 #
b0 /
b0 =
#1430
1*
1(
#1450
0H
0O
0]
0N
0A
b0 %
b0 >
b0 L
#1470
0"
#1480
0W
0^
0P
b0 '
b0 M
b0 [
#1490
11
1-
b1 !
b1 .
#1500
0$
#1510
0j
0f
0_
b0 )
b0 \
#1520
10
#1530
0&
#1550
19
1@
1?
12
b1 #
b1 /
b1 =
#1560
0*
0(
#1580
1H
1O
1]
1N
1A
b1 %
b1 >
b1 L
#1600
1"
#1610
1W
1^
1P
b1 '
b1 M
b1 [
#1620
01
0-
b0 !
b0 .
#1630
1$
#1640
1j
1f
1_
b1 )
b1 \
#1650
00
#1660
1&
#1680
09
0@
0?
02
b0 #
b0 /
b0 =
#1690
1*
1(
#1710
0H
0O
0]
0N
0A
b0 %
b0 >
b0 L
#1730
0"
#1740
0W
0^
0P
b0 '
b0 M
b0 [
#1750
11
1-
b1 !
b1 .
#1760
0$
#1770
0j
0f
0_
b0 )
b0 \
#1780
10
#1790
0&
#1810
19
1@
1?
12
b1 #
b1 /
b1 =
#1820
0*
0(
#1840
1H
1O
1]
1N
1A
b1 %
b1 >
b1 L
#1860
1"
#1870
1W
1^
1P
b1 '
b1 M
b1 [
#1880
01
0-
b0 !
b0 .
#1890
1$
#1900
1j
1f
1_
b1 )
b1 \
#1910
00
#1920
1&
#1940
09
0@
0?
02
b0 #
b0 /
b0 =
#1950
1*
1(
#1970
0H
0O
0]
0N
0A
b0 %
b0 >
b0 L
#1990
0"
#2000
0W
0^
0P
b0 '
b0 M
b0 [
#2010
11
1-
b1 !
b1 .
#2020
0$
#2030
0j
0f
0_
b0 )
b0 \
#2040
10
#2050
0&
#2070
19
1@
1?
12
b1 #
b1 /
b1 =
#2080
0*
0(
#2100
1H
1O
1]
1N
1A
b1 %
b1 >
b1 L
#2120
1"
#2130
1W
1^
1P
b1 '
b1 M
b1 [
#2140
01
0-
b0 !
b0 .
#2150
1$
#2160
1j
1f
1_
b1 )
b1 \
#2170
00
#2180
1&
#2200
09
0@
0?
02
b0 #
b0 /
b0 =
#2210
1*
1(
#2230
0H
0O
0]
0N
0A
b0 %
b0 >
b0 L
#2250
0"
#2260
0W
0^
0P
b0 '
b0 M
b0 [
#2270
11
1-
b1 !
b1 .
#2280
0$
#2290
0j
0f
0_
b0 )
b0 \
#2300
10
#2310
0&
#2330
19
1@
1?
12
b1 #
b1 /
b1 =
#2340
0*
0(
#2360
1H
1O
1]
1N
1A
b1 %
b1 >
b1 L
#2380
1"
#2390
1W
1^
1P
b1 '
b1 M
b1 [
#2400
01
0-
b0 !
b0 .
#2410
1$
#2420
1j
1f
1_
b1 )
b1 \
#2430
00
#2440
1&
#2460
09
0@
0?
02
b0 #
b0 /
b0 =
#2470
1*
1(
#2490
0H
0O
0]
0N
0A
b0 %
b0 >
b0 L
#2510
0"
#2520
0W
0^
0P
b0 '
b0 M
b0 [
#2530
11
1-
b1 !
b1 .
#2540
0$
#2550
0j
0f
0_
b0 )
b0 \
#2560
10
#2570
0&
#2590
19
1@
1?
12
b1 #
b1 /
b1 =
#2600
0*
0(
#2620
1H
1O
1]
1N
1A
b1 %
b1 >
b1 L
#2640
1"
#2650
1W
1^
1P
b1 '
b1 M
b1 [
#2660
01
0-
b0 !
b0 .
#2670
1$
#2680
1j
1f
1_
b1 )
b1 \
#2690
00
#2700
1&
#2720
09
0@
0?
02
b0 #
b0 /
b0 =
#2730
1*
1(
#2750
0H
0O
0]
0N
0A
b0 %
b0 >
b0 L
#2770
0"
#2780
0W
0^
0P
b0 '
b0 M
b0 [
#2790
11
1-
b1 !
b1 .
#2800
0$
#2810
0j
0f
0_
b0 )
b0 \
#2820
10
#2830
0&
#2850
19
1@
1?
12
b1 #
b1 /
b1 =
#2860
0*
0(
#2880
1H
1O
1]
1N
1A
b1 %
b1 >
b1 L
#2900
1"
#2910
1W
1^
1P
b1 '
b1 M
b1 [
#2920
01
0-
b0 !
b0 .
#2930
1$
#2940
1j
1f
1_
b1 )
b1 \
#2950
00
#2960
1&
#2980
09
0@
0?
02
b0 #
b0 /
b0 =
#2990
1*
1(
#3010
0H
0O
0]
0N
0A
b0 %
b0 >
b0 L
#3030
0"
#3040
0W
0^
0P
b0 '
b0 M
b0 [
#3050
11
1-
b1 !
b1 .
#3060
0$
#3070
0j
0f
0_
b0 )
b0 \
#3080
10
#3090
0&
#3110
19
1@
1?
12
b1 #
b1 /
b1 =
#3120
0*
0(
#3140
1H
1O
1]
1N
1A
b1 %
b1 >
b1 L
#3160
1"
#3170
1W
1^
1P
b1 '
b1 M
b1 [
#3180
01
0-
b0 !
b0 .
#3190
1$
#3200
1j
1f
1_
b1 )
b1 \
#3210
00
#3220
1&
#3240
09
0@
0?
02
b0 #
b0 /
b0 =
#3250
1*
1(
#3270
0H
0O
0]
0N
0A
b0 %
b0 >
b0 L
#3290
0"
#3300
0W
0^
0P
b0 '
b0 M
b0 [
#3310
11
1-
b1 !
b1 .
#3320
0$
#3330
0j
0f
0_
b0 )
b0 \
#3340
10
#3350
0&
#3370
19
1@
1?
12
b1 #
b1 /
b1 =
#3380
0*
0(
#3400
1H
1O
1]
1N
1A
b1 %
b1 >
b1 L
#3420
1"
#3430
1W
1^
1P
b1 '
b1 M
b1 [
#3440
01
0-
b0 !
b0 .
#3450
1$
#3460
1j
1f
1_
b1 )
b1 \
#3470
00
#3480
1&
#3500
09
0@
0?
02
b0 #
b0 /
b0 =
#3510
1*
1(
#3530
0H
0O
0]
0N
0A
b0 %
b0 >
b0 L
#3550
0"
#3560
0W
0^
0P
b0 '
b0 M
b0 [
#3570
11
1-
b1 !
b1 .
#3580
0$
#3590
0j
0f
0_
b0 )
b0 \
#3600
10
#3610
0&
#3630
19
1@
1?
12
b1 #
b1 /
b1 =
#3640
0*
0(
#3660
1H
1O
1]
1N
1A
b1 %
b1 >
b1 L
#3680
1"
#3690
1W
1^
1P
b1 '
b1 M
b1 [
#3700
01
0-
b0 !
b0 .
#3710
1$
#3720
1j
1f
1_
b1 )
b1 \
#3730
00
#3740
1&
#3760
09
0@
0?
02
b0 #
b0 /
b0 =
#3770
1*
1(
#3790
0H
0O
0]
0N
0A
b0 %
b0 >
b0 L
#3810
0"
#3820
0W
0^
0P
b0 '
b0 M
b0 [
#3830
11
1-
b1 !
b1 .
#3840
0$
#3850
0j
0f
0_
b0 )
b0 \
#3860
10
#3870
0&
#3890
19
1@
1?
12
b1 #
b1 /
b1 =
#3900
0*
0(
#3920
1H
1O
1]
1N
1A
b1 %
b1 >
b1 L
#3940
1"
#3950
1W
1^
1P
b1 '
b1 M
b1 [
#3960
01
0-
b0 !
b0 .
#3970
1$
#3980
1j
1f
1_
b1 )
b1 \
#3990
00
#4000
1&
#4020
09
0@
0?
02
b0 #
b0 /
b0 =
#4030
1*
1(
#4050
0H
0O
0]
0N
0A
b0 %
b0 >
b0 L
#4070
0"
#4080
0W
0^
0P
b0 '
b0 M
b0 [
#4090
11
1-
b1 !
b1 .
#4100
0$
#4110
0j
0f
0_
b0 )
b0 \
#4120
10
#4130
0&
#4150
19
1@
1?
12
b1 #
b1 /
b1 =
#4160
0*
0(
#4180
1H
1O
1]
1N
1A
b1 %
b1 >
b1 L
#4200
1"
#4210
1W
1^
1P
b1 '
b1 M
b1 [
#4220
01
0-
b0 !
b0 .
#4230
1$
#4240
1j
1f
1_
b1 )
b1 \
#4250
00
#4260
1&
#4280
09
0@
0?
02
b0 #
b0 /
b0 =
#4290
1*
1(
#4310
0H
0O
0]
0N
0A
b0 %
b0 >
b0 L
#4330
0"
#4340
0W
0^
0P
b0 '
b0 M
b0 [
#4350
11
1-
b1 !
b1 .
#4360
0$
#4370
0j
0f
0_
b0 )
b0 \
#4380
10
#4390
0&
#4410
19
1@
1?
12
b1 #
b1 /
b1 =
#4420
0*
0(
#4440
1H
1O
1]
1N
1A
b1 %
b1 >
b1 L
#4460
1"
#4470
1W
1^
1P
b1 '
b1 M
b1 [
#4480
01
0-
b0 !
b0 .
#4490
1$
#4500
1j
1f
1_
b1 )
b1 \
#4510
00
#4520
1&
#4540
09
0@
0?
02
b0 #
b0 /
b0 =
#4550
1*
1(
#4570
0H
0O
0]
0N
0A
b0 %
b0 >
b0 L
#4590
0"
#4600
0W
0^
0P
b0 '
b0 M
b0 [
#4610
11
1-
b1 !
b1 .
#4620
0$
#4630
0j
0f
0_
b0 )
b0 \
#4640
10
#4650
0&
#4670
19
1@
1?
12
b1 #
b1 /
b1 =
#4680
0*
0(
#4700
1H
1O
1]
1N
1A
b1 %
b1 >
b1 L
#4720
1"
#4730
1W
1^
1P
b1 '
b1 M
b1 [
#4740
01
0-
b0 !
b0 .
#4750
1$
#4760
1j
1f
1_
b1 )
b1 \
#4770
00
#4780
1&
#4800
09
0@
0?
02
b0 #
b0 /
b0 =
#4810
1*
1(
#4830
0H
0O
0]
0N
0A
b0 %
b0 >
b0 L
#4850
0"
#4860
0W
0^
0P
b0 '
b0 M
b0 [
#4870
11
1-
b1 !
b1 .
#4880
0$
#4890
0j
0f
0_
b0 )
b0 \
#4900
10
#4910
0&
#4930
19
1@
1?
12
b1 #
b1 /
b1 =
#4940
0*
0(
#4960
1H
1O
1]
1N
1A
b1 %
b1 >
b1 L
#4980
1"
#4990
1W
1^
1P
b1 '
b1 M
b1 [
#5000
01
0-
b0 !
b0 .
#5010
1$
#5020
1j
1f
1_
b1 )
b1 \
#5030
00
#5040
1&
#5060
09
0@
0?
02
b0 #
b0 /
b0 =
#5070
1*
1(
#5090
0H
0O
0]
0N
0A
b0 %
b0 >
b0 L
#5110
0"
#5120
0W
0^
0P
b0 '
b0 M
b0 [
#5130
11
1-
b1 !
b1 .
#5140
0$
#5150
0j
0f
0_
b0 )
b0 \
#5160
10
#5170
0&
#5190
19
1@
1?
12
b1 #
b1 /
b1 =
#5200
0*
0(
#5220
1H
1O
1]
1N
1A
b1 %
b1 >
b1 L
#5240
1"
#5250
1W
1^
1P
b1 '
b1 M
b1 [
#5260
01
0-
b0 !
b0 .
#5270
1$
#5280
1j
1f
1_
b1 )
b1 \
#5290
00
#5300
1&
#5320
09
0@
0?
02
b0 #
b0 /
b0 =
#5330
1*
1(
#5350
0H
0O
0]
0N
0A
b0 %
b0 >
b0 L
#5370
0"
#5380
0W
0^
0P
b0 '
b0 M
b0 [
#5390
11
1-
b1 !
b1 .
#5400
0$
#5410
0j
0f
0_
b0 )
b0 \
#5420
10
#5430
0&
#5450
19
1@
1?
12
b1 #
b1 /
b1 =
#5460
0*
0(
#5480
1H
1O
1]
1N
1A
b1 %
b1 >
b1 L
#5500
1"
#5510
1W
1^
1P
b1 '
b1 M
b1 [
#5520
01
0-
b0 !
b0 .
#5530
1$
#5540
1j
1f
1_
b1 )
b1 \
#5550
00
#5560
1&
#5580
09
0@
0?
02
b0 #
b0 /
b0 =
#5590
1*
1(
#5610
0H
0O
0]
0N
0A
b0 %
b0 >
b0 L
#5630
0"
#5640
0W
0^
0P
b0 '
b0 M
b0 [
#5650
11
1-
b1 !
b1 .
#5660
0$
#5670
0j
0f
0_
b0 )
b0 \
#5680
10
#5690
0&
#5710
19
1@
1?
12
b1 #
b1 /
b1 =
#5720
0*
0(
#5740
1H
1O
1]
1N
1A
b1 %
b1 >
b1 L
#5760
1"
#5770
1W
1^
1P
b1 '
b1 M
b1 [
#5780
01
0-
b0 !
b0 .
#5790
1$
#5800
1j
1f
1_
b1 )
b1 \
#5810
00
#5820
1&
#5840
09
0@
0?
02
b0 #
b0 /
b0 =
#5850
1*
1(
#5870
0H
0O
0]
0N
0A
b0 %
b0 >
b0 L
#5890
0"
#5900
0W
0^
0P
b0 '
b0 M
b0 [
#5910
11
1-
b1 !
b1 .
#5920
0$
#5930
0j
0f
0_
b0 )
b0 \
#5940
10
#5950
0&
#5970
19
1@
1?
12
b1 #
b1 /
b1 =
#5980
0*
0(
#6000
1H
1O
1]
1N
1A
b1 %
b1 >
b1 L
#6020
1"
#6030
1W
1^
1P
b1 '
b1 M
b1 [
#6040
01
0-
b0 !
b0 .
#6050
1$
#6060
1j
1f
1_
b1 )
b1 \
#6070
00
#6080
1&
#6100
09
0@
0?
02
b0 #
b0 /
b0 =
#6110
1*
1(
#6130
0H
0O
0]
0N
0A
b0 %
b0 >
b0 L
#6150
0"
#6160
0W
0^
0P
b0 '
b0 M
b0 [
#6170
11
1-
b1 !
b1 .
#6180
0$
#6190
0j
0f
0_
b0 )
b0 \
#6200
10
#6210
0&
#6230
19
1@
1?
12
b1 #
b1 /
b1 =
#6240
0*
0(
#6260
1H
1O
1]
1N
1A
b1 %
b1 >
b1 L
#6280
1"
#6290
1W
1^
1P
b1 '
b1 M
b1 [
#6300
01
0-
b0 !
b0 .
#6310
1$
#6320
1j
1f
1_
b1 )
b1 \
#6330
00
#6340
1&
#6360
09
0@
0?
02
b0 #
b0 /
b0 =
#6370
1*
1(
#6390
0H
0O
0]
0N
0A
b0 %
b0 >
b0 L
#6410
0"
#6420
0W
0^
0P
b0 '
b0 M
b0 [
#6430
11
1-
b1 !
b1 .
#6440
0$
#6450
0j
0f
0_
b0 )
b0 \
#6460
10
#6470
0&
#6490
19
1@
1?
12
b1 #
b1 /
b1 =
#6500
0*
0(
#6520
1H
1O
1]
1N
1A
b1 %
b1 >
b1 L
#6540
1"
#6550
1W
1^
1P
b1 '
b1 M
b1 [
#6560
01
0-
b0 !
b0 .
#6570
1$
#6580
1j
1f
1_
b1 )
b1 \
#6590
00
#6600
1&
#6620
09
0@
0?
02
b0 #
b0 /
b0 =
#6630
1*
1(
#6650
0H
0O
0]
0N
0A
b0 %
b0 >
b0 L
#6670
0"
#6680
0W
0^
0P
b0 '
b0 M
b0 [
#6690
11
1-
b1 !
b1 .
#6700
0$
#6710
0j
0f
0_
b0 )
b0 \
#6720
10
#6730
0&
#6750
19
1@
1?
12
b1 #
b1 /
b1 =
#6760
0*
0(
#6780
1H
1O
1]
1N
1A
b1 %
b1 >
b1 L
#6800
1"
#6810
1W
1^
1P
b1 '
b1 M
b1 [
#6820
01
0-
b0 !
b0 .
#6830
1$
#6840
1j
1f
1_
b1 )
b1 \
#6850
00
#6860
1&
#6880
09
0@
0?
02
b0 #
b0 /
b0 =
#6890
1*
1(
#6910
0H
0O
0]
0N
0A
b0 %
b0 >
b0 L
#6930
0"
#6940
0W
0^
0P
b0 '
b0 M
b0 [
#6950
11
1-
b1 !
b1 .
#6960
0$
#6970
0j
0f
0_
b0 )
b0 \
#6980
10
#6990
0&
#7010
19
1@
1?
12
b1 #
b1 /
b1 =
#7020
0*
0(
#7040
1H
1O
1]
1N
1A
b1 %
b1 >
b1 L
#7060
1"
#7070
1W
1^
1P
b1 '
b1 M
b1 [
#7080
01
0-
b0 !
b0 .
#7090
1$
#7100
1j
1f
1_
b1 )
b1 \
#7110
00
#7120
1&
#7140
09
0@
0?
02
b0 #
b0 /
b0 =
#7150
1*
1(
#7170
0H
0O
0]
0N
0A
b0 %
b0 >
b0 L
#7190
0"
#7200
0W
0^
0P
b0 '
b0 M
b0 [
#7210
11
1-
b1 !
b1 .
#7220
0$
#7230
0j
0f
0_
b0 )
b0 \
#7240
10
#7250
0&
#7270
19
1@
1?
12
b1 #
b1 /
b1 =
#7280
0*
0(
#7300
1H
1O
1]
1N
1A
b1 %
b1 >
b1 L
#7320
1"
#7330
1W
1^
1P
b1 '
b1 M
b1 [
#7340
01
0-
b0 !
b0 .
#7350
1$
#7360
1j
1f
1_
b1 )
b1 \
#7370
00
#7380
1&
#7400
09
0@
0?
02
b0 #
b0 /
b0 =
#7410
1*
1(
#7430
0H
0O
0]
0N
0A
b0 %
b0 >
b0 L
#7450
0"
#7460
0W
0^
0P
b0 '
b0 M
b0 [
#7470
11
1-
b1 !
b1 .
#7480
0$
#7490
0j
0f
0_
b0 )
b0 \
#7500
10
#7510
0&
#7530
19
1@
1?
12
b1 #
b1 /
b1 =
#7540
0*
0(
#7560
1H
1O
1]
1N
1A
b1 %
b1 >
b1 L
#7580
1"
#7590
1W
1^
1P
b1 '
b1 M
b1 [
#7600
01
0-
b0 !
b0 .
#7610
1$
#7620
1j
1f
1_
b1 )
b1 \
#7630
00
#7640
1&
#7660
09
0@
0?
02
b0 #
b0 /
b0 =
#7670
1*
1(
#7690
0H
0O
0]
0N
0A
b0 %
b0 >
b0 L
#7710
0"
#7720
0W
0^
0P
b0 '
b0 M
b0 [
#7730
11
1-
b1 !
b1 .
#7740
0$
#7750
0j
0f
0_
b0 )
b0 \
#7760
10
#7770
0&
#7790
19
1@
1?
12
b1 #
b1 /
b1 =
#7800
0*
0(
#7820
1H
1O
1]
1N
1A
b1 %
b1 >
b1 L
#7840
1"
#7850
1W
1^
1P
b1 '
b1 M
b1 [
#7860
01
0-
b0 !
b0 .
#7870
1$
#7880
1j
1f
1_
b1 )
b1 \
#7890
00
#7900
1&
#7920
09
0@
0?
02
b0 #
b0 /
b0 =
#7930
1*
1(
#7950
0H
0O
0]
0N
0A
b0 %
b0 >
b0 L
#7970
0"
#7980
0W
0^
0P
b0 '
b0 M
b0 [
#7990
11
1-
b1 !
b1 .
#8000
0$
#8010
0j
0f
0_
b0 )
b0 \
#8020
10
#8030
0&
#8050
19
1@
1?
12
b1 #
b1 /
b1 =
#8060
0*
0(
#8080
1H
1O
1]
1N
1A
b1 %
b1 >
b1 L
#8100
1"
#8110
1W
1^
1P
b1 '
b1 M
b1 [
#8120
01
0-
b0 !
b0 .
#8130
1$
#8140
1j
1f
1_
b1 )
b1 \
#8150
00
#8160
1&
#8180
09
0@
0?
02
b0 #
b0 /
b0 =
#8190
1*
1(
#8210
0H
0O
0]
0N
0A
b0 %
b0 >
b0 L
#8230
0"
#8240
0W
0^
0P
b0 '
b0 M
b0 [
#8250
11
1-
b1 !
b1 .
#8260
0$
#8270
0j
0f
0_
b0 )
b0 \
#8280
10
#8290
0&
#8310
19
1@
1?
12
b1 #
b1 /
b1 =
#8320
0*
0(
#8340
1H
1O
1]
1N
1A
b1 %
b1 >
b1 L
#8360
1"
#8370
1W
1^
1P
b1 '
b1 M
b1 [
#8380
01
0-
b0 !
b0 .
#8390
1$
#8400
1j
1f
1_
b1 )
b1 \
#8410
00
#8420
1&
#8440
09
0@
0?
02
b0 #
b0 /
b0 =
#8450
1*
1(
#8470
0H
0O
0]
0N
0A
b0 %
b0 >
b0 L
#8490
0"
#8500
0W
0^
0P
b0 '
b0 M
b0 [
#8510
11
1-
b1 !
b1 .
#8520
0$
#8530
0j
0f
0_
b0 )
b0 \
#8540
10
#8550
0&
#8570
19
1@
1?
12
b1 #
b1 /
b1 =
#8580
0*
0(
#8600
1H
1O
1]
1N
1A
b1 %
b1 >
b1 L
#8620
1"
#8630
1W
1^
1P
b1 '
b1 M
b1 [
#8640
01
0-
b0 !
b0 .
#8650
1$
#8660
1j
1f
1_
b1 )
b1 \
#8670
00
#8680
1&
#8700
09
0@
0?
02
b0 #
b0 /
b0 =
#8710
1*
1(
#8730
0H
0O
0]
0N
0A
b0 %
b0 >
b0 L
#8750
0"
#8760
0W
0^
0P
b0 '
b0 M
b0 [
#8770
11
1-
b1 !
b1 .
#8780
0$
#8790
0j
0f
0_
b0 )
b0 \
#8800
10
#8810
0&
#8830
19
1@
1?
12
b1 #
b1 /
b1 =
#8840
0*
0(
#8860
1H
1O
1]
1N
1A
b1 %
b1 >
b1 L
#8880
1"
#8890
1W
1^
1P
b1 '
b1 M
b1 [
#8900
01
0-
b0 !
b0 .
#8910
1$
#8920
1j
1f
1_
b1 )
b1 \
#8930
00
#8940
1&
#8960
09
0@
0?
02
b0 #
b0 /
b0 =
#8970
1*
1(
#8990
0H
0O
0]
0N
0A
b0 %
b0 >
b0 L
#9010
0"
#9020
0W
0^
0P
b0 '
b0 M
b0 [
#9030
11
1-
b1 !
b1 .
#9040
0$
#9050
0j
0f
0_
b0 )
b0 \
#9060
10
#9070
0&
#9090
19
1@
1?
12
b1 #
b1 /
b1 =
#9100
0*
0(
#9120
1H
1O
1]
1N
1A
b1 %
b1 >
b1 L
#9140
1"
#9150
1W
1^
1P
b1 '
b1 M
b1 [
#9160
01
0-
b0 !
b0 .
#9170
1$
#9180
1j
1f
1_
b1 )
b1 \
#9190
00
#9200
1&
#9220
09
0@
0?
02
b0 #
b0 /
b0 =
#9230
1*
1(
#9250
0H
0O
0]
0N
0A
b0 %
b0 >
b0 L
#9270
0"
#9280
0W
0^
0P
b0 '
b0 M
b0 [
#9290
11
1-
b1 !
b1 .
#9300
0$
#9310
0j
0f
0_
b0 )
b0 \
#9320
10
#9330
0&
#9350
19
1@
1?
12
b1 #
b1 /
b1 =
#9360
0*
0(
#9380
1H
1O
1]
1N
1A
b1 %
b1 >
b1 L
#9400
1"
#9410
1W
1^
1P
b1 '
b1 M
b1 [
#9420
01
0-
b0 !
b0 .
#9430
1$
