multirail/pipeline2ref.vcd
$date
	Tue Aug  4 16:59:36 2015
$end
$version
	Icarus Verilog
$end
$timescale
	1ps
$end
$scope module pipeline2 $end
$var wire 2 ! A [1:0] $end
$var wire 1 " ACOMP $end
$var wire 2 # B [1:0] $end
$var wire 1 $ BCOMP $end
$var wire 2 % C [1:0] $end
$var wire 1 & CCOMP $end
$var wire 2 ' D [1:0] $end
$var wire 1 ( DCOMP $end
$var wire 2 ) E [1:0] $end
$var wire 1 * ECOMP $end
$var reg 1 + init $end
$scope module A0 $end
$var wire 1 " A $end
$var wire 1 , B $end
$var wire 1 - Z $end
$upscope $end
$scope module u1 $end
$var wire 2 . A [1:0] $end
$var wire 1 " ACOMP $end
$var wire 2 / Z [1:0] $end
$var wire 1 $ ZCOMP $end
$var wire 1 0 enable $end
$var wire 1 , init $end
$scope module u0 $end
$var wire 1 $ A $end
$var wire 1 , B $end
$var wire 1 0 Z $end
$upscope $end
$scope module u1 $end
$var wire 1 1 A $end
$var wire 1 0 B $end
$var wire 1 2 Z $end
$upscope $end
$scope module u2 $end
$var wire 1 3 A $end
$var wire 1 0 B $end
$var wire 1 4 Z $end
$upscope $end
$scope module u5 $end
$var wire 1 5 A $end
$var wire 1 6 B $end
$var wire 1 " Z $end
$upscope $end
$upscope $end
$scope module u2 $end
$var wire 2 7 A [1:0] $end
$var wire 1 $ ACOMP $end
$var wire 2 8 Z [1:0] $end
$var wire 1 & ZCOMP $end
$var wire 1 9 enable $end
$var wire 1 , init $end
$scope module u0 $end
$var wire 1 & A $end
$var wire 1 , B $end
$var wire 1 9 Z $end
$upscope $end
$scope module u1 $end
$var wire 1 : A $end
$var wire 1 9 B $end
$var wire 1 ; Z $end
$upscope $end
$scope module u2 $end
$var wire 1 < A $end
$var wire 1 9 B $end
$var wire 1 = Z $end
$upscope $end
$scope module u5 $end
$var wire 1 > A $end
$var wire 1 ? B $end
$var wire 1 $ Z $end
$upscope $end
$upscope $end
$scope module u3 $end
$var wire 2 @ A [1:0] $end
$var wire 1 & ACOMP $end
$var wire 2 A Z [1:0] $end
$var wire 1 ( ZCOMP $end
$var wire 1 B enable $end
$var wire 1 , init $end
$scope module u0 $end
$var wire 1 ( A $end
$var wire 1 , B $end
$var wire 1 B Z $end
$upscope $end
$scope module u1 $end
$var wire 1 C A $end
$var wire 1 B B $end
$var wire 1 D Z $end
$upscope $end
$scope module u2 $end
$var wire 1 E A $end
$var wire 1 B B $end
$var wire 1 F Z $end
$upscope $end
$scope module u5 $end
$var wire 1 G A $end
$var wire 1 H B $end
$var wire 1 & Z $end
$upscope $end
$upscope $end
$scope module u4 $end
$var wire 2 I A [1:0] $end
$var wire 1 ( ACOMP $end
$var wire 2 J Z [1:0] $end
$var wire 1 * ZCOMP $end
$var wire 1 K enable $end
$var wire 1 , init $end
$scope module u0 $end
$var wire 1 * A $end
$var wire 1 , B $end
$var wire 1 K Z $end
$upscope $end
$scope module u1 $end
$var wire 1 L A $end
$var wire 1 K B $end
$var wire 1 M Z $end
$upscope $end
$scope module u2 $end
$var wire 1 N A $end
$var wire 1 K B $end
$var wire 1 O Z $end
$upscope $end
$scope module u5 $end
$var wire 1 P A $end
$var wire 1 Q B $end
$var wire 1 ( Z $end
$upscope $end
$upscope $end
$scope module u5 $end
$var wire 1 R A $end
$var wire 1 S B $end
$var wire 1 * Z $end
$upscope $end
$upscope $end
$enddefinitions $end
#0
$dumpvars
zS
zR
zQ
zP
zO
zN
zM
zL
zK
bz J
bz I
zH
zG
zF
zE
zD
zC
zB
bz A
bz @
z?
z>
z=
x<
z;
z:
z9
bz 8
bxz 7
x6
z5
x4
03
z2
z1
z0
bxz /
b0z .
z-
1,
1+
z*
bz )
z(
bz '
z&
bz %
z$
bxz #
z"
b0z !
$end
#20
x5
x:
x>
xC
x?
xE
xG
xL
xH
xN
xR
xP
xS
xQ
01
x2
bx #
bx /
bx 7
x;
x=
bx %
bx 8
bx @
xD
xF
bx '
bx A
bx I
xM
xO
bx )
bx J
0-
b0 !
b0 .
00
09
0B
0K
#50
05
0:
06
0<
02
04
b0 #
b0 /
b0 7
#80
0>
0C
0?
0E
0"
0;
0=
b0 %
b0 8
b0 @
#110
0G
0L
0H
0N
0$
0D
0F
b0 '
b0 A
b0 I
#140
0R
0P
0S
0Q
0&
0M
0O
b0 )
b0 J
#170
0*
0(
#200
0+
0,
#220
11
1-
b1 !
b1 .
10
19
1B
1K
#250
15
1:
12
b1 #
b1 /
b1 7
#280
1>
1C
1"
1;
b1 %
b1 8
b1 @
#300
01
0-
b0 !
b0 .
#310
1G
1L
1$
1D
b1 '
b1 A
b1 I
#330
00
#340
1R
1P
1&
1M
b1 )
b1 J
#360
05
0:
09
02
b0 #
b0 /
b0 7
#370
1*
1(
#390
0>
0C
0K
0B
0"
0;
b0 %
b0 8
b0 @
#410
11
1-
b1 !
b1 .
#420
0G
0L
0$
0D
b0 '
b0 A
b0 I
#440
10
#450
0R
0P
0&
0M
b0 )
b0 J
#470
15
1:
19
12
b1 #
b1 /
b1 7
#480
0*
0(
#500
1>
1C
1K
1B
1"
1;
b1 %
b1 8
b1 @
#520
01
0-
b0 !
b0 .
#530
1G
1L
1$
1D
b1 '
b1 A
b1 I
#550
00
#560
1R
1P
1&
1M
b1 )
b1 J
#580
05
0:
09
02
b0 #
b0 /
b0 7
#590
1*
1(
#610
0>
0C
0K
0B
0"
0;
b0 %
b0 8
b0 @
#630
11
1-
b1 !
b1 .
#640
0G
0L
0$
0D
b0 '
b0 A
b0 I
#660
10
#670
0R
0P
0&
0M
b0 )
b0 J
#690
15
1:
19
12
b1 #
b1 /
b1 7
#700
0*
0(
#720
1>
1C
1K
1B
1"
1;
b1 %
b1 8
b1 @
#740
01
0-
b0 !
b0 .
#750
1G
1L
1$
1D
b1 '
b1 A
b1 I
#770
00
#780
1R
1P
1&
1M
b1 )
b1 J
#800
05
0:
09
02
b0 #
b0 /
b0 7
#810
1*
1(
#830
0>
0C
0K
0B
0"
0;
b0 %
b0 8
b0 @
#850
11
1-
b1 !
b1 .
#860
0G
0L
0$
0D
b0 '
b0 A
b0 I
#880
10
#890
0R
0P
0&
0M
b0 )
b0 J
#910
15
1:
19
12
b1 #
b1 /
b1 7
#920
0*
0(
#940
1>
1C
1K
1B
1"
1;
b1 %
b1 8
b1 @
#960
01
0-
b0 !
b0 .
#970
1G
1L
1$
1D
b1 '
b1 A
b1 I
#990
00
#1000
1R
1P
1&
1M
b1 )
b1 J
#1020
05
0:
09
02
b0 #
b0 /
b0 7
#1030
1*
1(
#1050
0>
0C
0K
0B
0"
0;
b0 %
b0 8
b0 @
#1070
11
1-
b1 !
b1 .
#1080
0G
0L
0$
0D
b0 '
b0 A
b0 I
#1100
10
#1110
0R
0P
0&
0M
b0 )
b0 J
#1130
15
1:
19
12
b1 #
b1 /
b1 7
#1140
0*
0(
#1160
1>
1C
1K
1B
1"
1;
b1 %
b1 8
b1 @
#1180
01
0-
b0 !
b0 .
#1190
1G
1L
1$
1D
b1 '
b1 A
b1 I
#1210
00
#1220
1R
1P
1&
1M
b1 )
b1 J
#1240
05
0:
09
02
b0 #
b0 /
b0 7
#1250
1*
1(
#1270
0>
0C
0K
0B
0"
0;
b0 %
b0 8
b0 @
#1290
11
1-
b1 !
b1 .
#1300
0G
0L
0$
0D
b0 '
b0 A
b0 I
#1320
10
#1330
0R
0P
0&
0M
b0 )
b0 J
#1350
15
1:
19
12
b1 #
b1 /
b1 7
#1360
0*
0(
#1380
1>
1C
1K
1B
1"
1;
b1 %
b1 8
b1 @
#1400
01
0-
b0 !
b0 .
#1410
1G
1L
1$
1D
b1 '
b1 A
b1 I
#1430
00
#1440
1R
1P
1&
1M
b1 )
b1 J
#1460
05
0:
09
02
b0 #
b0 /
b0 7
#1470
1*
1(
#1490
0>
0C
0K
0B
0"
0;
b0 %
b0 8
b0 @
#1510
11
1-
b1 !
b1 .
#1520
0G
0L
0$
0D
b0 '
b0 A
b0 I
#1540
10
#1550
0R
0P
0&
0M
b0 )
b0 J
#1570
15
1:
19
12
b1 #
b1 /
b1 7
#1580
0*
0(
#1600
1>
1C
1K
1B
1"
1;
b1 %
b1 8
b1 @
#1620
01
0-
b0 !
b0 .
#1630
1G
1L
1$
1D
b1 '
b1 A
b1 I
#1650
00
#1660
1R
1P
1&
1M
b1 )
b1 J
#1680
05
0:
09
02
b0 #
b0 /
b0 7
#1690
1*
1(
#1710
0>
0C
0K
0B
0"
0;
b0 %
b0 8
b0 @
#1730
11
1-
b1 !
b1 .
#1740
0G
0L
0$
0D
b0 '
b0 A
b0 I
#1760
10
#1770
0R
0P
0&
0M
b0 )
b0 J
#1790
15
1:
19
12
b1 #
b1 /
b1 7
#1800
0*
0(
#1820
1>
1C
1K
1B
1"
1;
b1 %
b1 8
b1 @
#1840
01
0-
b0 !
b0 .
#1850
1G
1L
1$
1D
b1 '
b1 A
b1 I
#1870
00
#1880
1R
1P
1&
1M
b1 )
b1 J
#1900
05
0:
09
02
b0 #
b0 /
b0 7
#1910
1*
1(
#1930
0>
0C
0K
0B
0"
0;
b0 %
b0 8
b0 @
#1950
11
1-
b1 !
b1 .
#1960
0G
0L
0$
0D
b0 '
b0 A
b0 I
#1980
10
#1990
0R
0P
0&
0M
b0 )
b0 J
#2010
15
1:
19
12
b1 #
b1 /
b1 7
#2020
0*
0(
#2040
1>
1C
1K
1B
1"
1;
b1 %
b1 8
b1 @
#2060
01
0-
b0 !
b0 .
#2070
1G
1L
1$
1D
b1 '
b1 A
b1 I
#2090
00
#2100
1R
1P
1&
1M
b1 )
b1 J
#2120
05
0:
09
02
b0 #
b0 /
b0 7
#2130
1*
1(
#2150
0>
0C
0K
0B
0"
0;
b0 %
b0 8
b0 @
#2170
11
1-
b1 !
b1 .
#2180
0G
0L
0$
0D
b0 '
b0 A
b0 I
#2200
10
#2210
0R
0P
0&
0M
b0 )
b0 J
#2230
15
1:
19
12
b1 #
b1 /
b1 7
#2240
0*
0(
#2260
1>
1C
1K
1B
1"
1;
b1 %
b1 8
b1 @
#2280
01
0-
b0 !
b0 .
#2290
1G
1L
1$
1D
b1 '
b1 A
b1 I
#2310
00
#2320
1R
1P
1&
1M
b1 )
b1 J
#2340
05
0:
09
02
b0 #
b0 /
b0 7
#2350
1*
1(
#2370
0>
0C
0K
0B
0"
0;
b0 %
b0 8
b0 @
#2390
11
1-
b1 !
b1 .
#2400
0G
0L
0$
0D
b0 '
b0 A
b0 I
#2420
10
#2430
0R
0P
0&
0M
b0 )
b0 J
#2450
15
1:
19
12
b1 #
b1 /
b1 7
#2460
0*
0(
#2480
1>
1C
1K
1B
1"
1;
b1 %
b1 8
b1 @
#2500
01
0-
b0 !
b0 .
#2510
1G
1L
1$
1D
b1 '
b1 A
b1 I
#2530
00
#2540
1R
1P
1&
1M
b1 )
b1 J
#2560
05
0:
09
02
b0 #
b0 /
b0 7
#2570
1*
1(
#2590
0>
0C
0K
0B
0"
0;
b0 %
b0 8
b0 @
#2610
11
1-
b1 !
b1 .
#2620
0G
0L
0$
0D
b0 '
b0 A
b0 I
#2640
10
#2650
0R
0P
0&
0M
b0 )
b0 J
#2670
15
1:
19
12
b1 #
b1 /
b1 7
#2680
0*
0(
#2700
1>
1C
1K
1B
1"
1;
b1 %
b1 8
b1 @
#2720
01
0-
b0 !
b0 .
#2730
1G
1L
1$
1D
b1 '
b1 A
b1 I
#2750
00
#2760
1R
1P
1&
1M
b1 )
b1 J
#2780
05
0:
09
02
b0 #
b0 /
b0 7
#2790
1*
1(
#2810
0>
0C
0K
0B
0"
0;
b0 %
b0 8
b0 @
#2830
11
1-
b1 !
b1 .
#2840
0G
0L
0$
0D
b0 '
b0 A
b0 I
#2860
10
#2870
0R
0P
0&
0M
b0 )
b0 J
#2890
15
1:
19
12
b1 #
b1 /
b1 7
#2900
0*
0(
#2920
1>
1C
1K
1B
1"
1;
b1 %
b1 8
b1 @
#2940
01
0-
b0 !
b0 .
#2950
1G
1L
1$
1D
b1 '
b1 A
b1 I
#2970
00
#2980
1R
1P
1&
1M
b1 )
b1 J
#3000
05
0:
09
02
b0 #
b0 /
b0 7
#3010
1*
1(
#3030
0>
0C
0K
0B
0"
0;
b0 %
b0 8
b0 @
#3050
11
1-
b1 !
b1 .
#3060
0G
0L
0$
0D
b0 '
b0 A
b0 I
#3080
10
#3090
0R
0P
0&
0M
b0 )
b0 J
#3110
15
1:
19
12
b1 #
b1 /
b1 7
#3120
0*
0(
#3140
1>
1C
1K
1B
1"
1;
b1 %
b1 8
b1 @
#3160
01
0-
b0 !
b0 .
#3170
1G
1L
1$
1D
b1 '
b1 A
b1 I
#3190
00
#3200
1R
1P
1&
1M
b1 )
b1 J
#3220
05
0:
09
02
b0 #
b0 /
b0 7
#3230
1*
1(
#3250
0>
0C
0K
0B
0"
0;
b0 %
b0 8
b0 @
#3270
11
1-
b1 !
b1 .
#3280
0G
0L
0$
0D
b0 '
b0 A
b0 I
#3300
10
#3310
0R
0P
0&
0M
b0 )
b0 J
#3330
15
1:
19
12
b1 #
b1 /
b1 7
#3340
0*
0(
#3360
1>
1C
1K
1B
1"
1;
b1 %
b1 8
b1 @
#3380
01
0-
b0 !
b0 .
#3390
1G
1L
1$
1D
b1 '
b1 A
b1 I
#3410
00
#3420
1R
1P
1&
1M
b1 )
b1 J
#3440
05
0:
09
02
b0 #
b0 /
b0 7
#3450
1*
1(
#3470
0>
0C
0K
0B
0"
0;
b0 %
b0 8
b0 @
#3490
11
1-
b1 !
b1 .
#3500
0G
0L
0$
0D
b0 '
b0 A
b0 I
#3520
10
#3530
0R
0P
0&
0M
b0 )
b0 J
#3550
15
1:
19
12
b1 #
b1 /
b1 7
#3560
0*
0(
#3580
1>
1C
1K
1B
1"
1;
b1 %
b1 8
b1 @
#3600
01
0-
b0 !
b0 .
#3610
1G
1L
1$
1D
b1 '
b1 A
b1 I
#3630
00
#3640
1R
1P
1&
1M
b1 )
b1 J
#3660
05
0:
09
02
b0 #
b0 /
b0 7
#3670
1*
1(
#3690
0>
0C
0K
0B
0"
0;
b0 %
b0 8
b0 @
#3710
11
1-
b1 !
b1 .
#3720
0G
0L
0$
0D
b0 '
b0 A
b0 I
#3740
10
#3750
0R
0P
0&
0M
b0 )
b0 J
#3770
15
1:
19
12
b1 #
b1 /
b1 7
#3780
0*
0(
#3800
1>
1C
1K
1B
1"
1;
b1 %
b1 8
b1 @
#3820
01
0-
b0 !
b0 .
#3830
1G
1L
1$
1D
b1 '
b1 A
b1 I
#3850
00
#3860
1R
1P
1&
1M
b1 )
b1 J
#3880
05
0:
09
02
b0 #
b0 /
b0 7
#3890
1*
1(
#3910
0>
0C
0K
0B
0"
0;
b0 %
b0 8
b0 @
#3930
11
1-
b1 !
b1 .
#3940
0G
0L
0$
0D
b0 '
b0 A
b0 I
#3960
10
#3970
0R
0P
0&
0M
b0 )
b0 J
#3990
15
1:
19
12
b1 #
b1 /
b1 7
#4000
0*
0(
#4020
1>
1C
1K
1B
1"
1;
b1 %
b1 8
b1 @
#4040
01
0-
b0 !
b0 .
#4050
1G
1L
1$
1D
b1 '
b1 A
b1 I
#4070
00
#4080
1R
1P
1&
1M
b1 )
b1 J
#4100
05
0:
09
02
b0 #
b0 /
b0 7
#4110
1*
1(
#4130
0>
0C
0K
0B
0"
0;
b0 %
b0 8
b0 @
#4150
11
1-
b1 !
b1 .
#4160
0G
0L
0$
0D
b0 '
b0 A
b0 I
#4180
10
#4190
0R
0P
0&
0M
b0 )
b0 J
#4210
15
1:
19
12
b1 #
b1 /
b1 7
#4220
0*
0(
#4240
1>
1C
1K
1B
1"
1;
b1 %
b1 8
b1 @
#4260
01
0-
b0 !
b0 .
#4270
1G
1L
1$
1D
b1 '
b1 A
b1 I
#4290
00
#4300
1R
1P
1&
1M
b1 )
b1 J
#4320
05
0:
09
02
b0 #
b0 /
b0 7
#4330
1*
1(
#4350
0>
0C
0K
0B
0"
0;
b0 %
b0 8
b0 @
#4370
11
1-
b1 !
b1 .
#4380
0G
0L
0$
0D
b0 '
b0 A
b0 I
#4400
10
#4410
0R
0P
0&
0M
b0 )
b0 J
#4430
15
1:
19
12
b1 #
b1 /
b1 7
#4440
0*
0(
#4460
1>
1C
1K
1B
1"
1;
b1 %
b1 8
b1 @
#4480
01
0-
b0 !
b0 .
#4490
1G
1L
1$
1D
b1 '
b1 A
b1 I
#4510
00
#4520
1R
1P
1&
1M
b1 )
b1 J
#4540
05
0:
09
02
b0 #
b0 /
b0 7
#4550
1*
1(
#4570
0>
0C
0K
0B
0"
0;
b0 %
b0 8
b0 @
#4590
11
1-
b1 !
b1 .
#4600
0G
0L
0$
0D
b0 '
b0 A
b0 I
#4620
10
#4630
0R
0P
0&
0M
b0 )
b0 J
#4650
15
1:
19
12
b1 #
b1 /
b1 7
#4660
0*
0(
#4680
1>
1C
1K
1B
1"
1;
b1 %
b1 8
b1 @
#4700
01
0-
b0 !
b0 .
#4710
1G
1L
1$
1D
b1 '
b1 A
b1 I
#4730
00
#4740
1R
1P
1&
1M
b1 )
b1 J
#4760
05
0:
09
02
b0 #
b0 /
b0 7
#4770
1*
1(
#4790
0>
0C
0K
0B
0"
0;
b0 %
b0 8
b0 @
#4810
11
1-
b1 !
b1 .
#4820
0G
0L
0$
0D
b0 '
b0 A
b0 I
#4840
10
#4850
0R
0P
0&
0M
b0 )
b0 J
#4870
15
1:
19
12
b1 #
b1 /
b1 7
#4880
0*
0(
#4900
1>
1C
1K
1B
1"
1;
b1 %
b1 8
b1 @
#4920
01
0-
b0 !
b0 .
#4930
1G
1L
1$
1D
b1 '
b1 A
b1 I
#4950
00
#4960
1R
1P
1&
1M
b1 )
b1 J
#4980
05
0:
09
02
b0 #
b0 /
b0 7
#4990
1*
1(
#5010
0>
0C
0K
0B
0"
0;
b0 %
b0 8
b0 @
#5030
11
1-
b1 !
b1 .
#5040
0G
0L
0$
0D
b0 '
b0 A
b0 I
#5060
10
#5070
0R
0P
0&
0M
b0 )
b0 J
#5090
15
1:
19
12
b1 #
b1 /
b1 7
#5100
0*
0(
#5120
1>
1C
1K
1B
1"
1;
b1 %
b1 8
b1 @
#5140
01
0-
b0 !
b0 .
#5150
1G
1L
1$
1D
b1 '
b1 A
b1 I
#5170
00
#5180
1R
1P
1&
1M
b1 )
b1 J
#5200
05
0:
09
02
b0 #
b0 /
b0 7
#5210
1*
1(
#5230
0>
0C
0K
0B
0"
0;
b0 %
b0 8
b0 @
#5250
11
1-
b1 !
b1 .
#5260
0G
0L
0$
0D
b0 '
b0 A
b0 I
#5280
10
#5290
0R
0P
0&
0M
b0 )
b0 J
#5310
15
1:
19
12
b1 #
b1 /
b1 7
#5320
0*
0(
#5340
1>
1C
1K
1B
1"
1;
b1 %
b1 8
b1 @
#5360
01
0-
b0 !
b0 .
#5370
1G
1L
1$
1D
b1 '
b1 A
b1 I
#5390
00
#5400
1R
1P
1&
1M
b1 )
b1 J
#5420
05
0:
09
02
b0 #
b0 /
b0 7
#5430
1*
1(
#5450
0>
0C
0K
0B
0"
0;
b0 %
b0 8
b0 @
#5470
11
1-
b1 !
b1 .
#5480
0G
0L
0$
0D
b0 '
b0 A
b0 I
#5500
10
#5510
0R
0P
0&
0M
b0 )
b0 J
#5530
15
1:
19
12
b1 #
b1 /
b1 7
#5540
0*
0(
#5560
1>
1C
1K
1B
1"
1;
b1 %
b1 8
b1 @
#5580
01
0-
b0 !
b0 .
#5590
1G
1L
1$
1D
b1 '
b1 A
b1 I
#5610
00
#5620
1R
1P
1&
1M
b1 )
b1 J
#5640
05
0:
09
02
b0 #
b0 /
b0 7
#5650
1*
1(
#5670
0>
0C
0K
0B
0"
0;
b0 %
b0 8
b0 @
#5690
11
1-
b1 !
b1 .
#5700
0G
0L
0$
0D
b0 '
b0 A
b0 I
#5720
10
#5730
0R
0P
0&
0M
b0 )
b0 J
#5750
15
1:
19
12
b1 #
b1 /
b1 7
#5760
0*
0(
#5780
1>
1C
1K
1B
1"
1;
b1 %
b1 8
b1 @
#5800
01
0-
b0 !
b0 .
#5810
1G
1L
1$
1D
b1 '
b1 A
b1 I
#5830
00
#5840
1R
1P
1&
1M
b1 )
b1 J
#5860
05
0:
09
02
b0 #
b0 /
b0 7
#5870
1*
1(
#5890
0>
0C
0K
0B
0"
0;
b0 %
b0 8
b0 @
#5910
11
1-
b1 !
b1 .
#5920
0G
0L
0$
0D
b0 '
b0 A
b0 I
#5940
10
#5950
0R
0P
0&
0M
b0 )
b0 J
#5970
15
1:
19
12
b1 #
b1 /
b1 7
#5980
0*
0(
#6000
1>
1C
1K
1B
1"
1;
b1 %
b1 8
b1 @
#6020
01
0-
b0 !
b0 .
#6030
1G
1L
1$
1D
b1 '
b1 A
b1 I
#6050
00
#6060
1R
1P
1&
1M
b1 )
b1 J
#6080
05
0:
09
02
b0 #
b0 /
b0 7
#6090
1*
1(
#6110
0>
0C
0K
0B
0"
0;
b0 %
b0 8
b0 @
#6130
11
1-
b1 !
b1 .
#6140
0G
0L
0$
0D
b0 '
b0 A
b0 I
#6160
10
#6170
0R
0P
0&
0M
b0 )
b0 J
#6190
15
1:
19
12
b1 #
b1 /
b1 7
#6200
0*
0(
#6220
1>
1C
1K
1B
1"
1;
b1 %
b1 8
b1 @
#6240
01
0-
b0 !
b0 .
#6250
1G
1L
1$
1D
b1 '
b1 A
b1 I
#6270
00
#6280
1R
1P
1&
1M
b1 )
b1 J
#6300
05
0:
09
02
b0 #
b0 /
b0 7
#6310
1*
1(
#6330
0>
0C
0K
0B
0"
0;
b0 %
b0 8
b0 @
#6350
11
1-
b1 !
b1 .
#6360
0G
0L
0$
0D
b0 '
b0 A
b0 I
#6380
10
#6390
0R
0P
0&
0M
b0 )
b0 J
#6410
15
1:
19
12
b1 #
b1 /
b1 7
#6420
0*
0(
#6440
1>
1C
1K
1B
1"
1;
b1 %
b1 8
b1 @
#6460
01
0-
b0 !
b0 .
#6470
1G
1L
1$
1D
b1 '
b1 A
b1 I
#6490
00
#6500
1R
1P
1&
1M
b1 )
b1 J
#6520
05
0:
09
02
b0 #
b0 /
b0 7
#6530
1*
1(
#6550
0>
0C
0K
0B
0"
0;
b0 %
b0 8
b0 @
#6570
11
1-
b1 !
b1 .
#6580
0G
0L
0$
0D
b0 '
b0 A
b0 I
#6600
10
#6610
0R
0P
0&
0M
b0 )
b0 J
#6630
15
1:
19
12
b1 #
b1 /
b1 7
#6640
0*
0(
#6660
1>
1C
1K
1B
1"
1;
b1 %
b1 8
b1 @
#6680
01
0-
b0 !
b0 .
#6690
1G
1L
1$
1D
b1 '
b1 A
b1 I
#6710
00
#6720
1R
1P
1&
1M
b1 )
b1 J
#6740
05
0:
09
02
b0 #
b0 /
b0 7
#6750
1*
1(
#6770
0>
0C
0K
0B
0"
0;
b0 %
b0 8
b0 @
#6790
11
1-
b1 !
b1 .
#6800
0G
0L
0$
0D
b0 '
b0 A
b0 I
#6820
10
#6830
0R
0P
0&
0M
b0 )
b0 J
#6850
15
1:
19
12
b1 #
b1 /
b1 7
#6860
0*
0(
#6880
1>
1C
1K
1B
1"
1;
b1 %
b1 8
b1 @
#6900
01
0-
b0 !
b0 .
#6910
1G
1L
1$
1D
b1 '
b1 A
b1 I
#6930
00
#6940
1R
1P
1&
1M
b1 )
b1 J
#6960
05
0:
09
02
b0 #
b0 /
b0 7
#6970
1*
1(
#6990
0>
0C
0K
0B
0"
0;
b0 %
b0 8
b0 @
#7010
11
1-
b1 !
b1 .
#7020
0G
0L
0$
0D
b0 '
b0 A
b0 I
#7040
10
#7050
0R
0P
0&
0M
b0 )
b0 J
#7070
15
1:
19
12
b1 #
b1 /
b1 7
#7080
0*
0(
#7100
1>
1C
1K
1B
1"
1;
b1 %
b1 8
b1 @
#7120
01
0-
b0 !
b0 .
#7130
1G
1L
1$
1D
b1 '
b1 A
b1 I
#7150
00
#7160
1R
1P
1&
1M
b1 )
b1 J
#7180
05
0:
09
02
b0 #
b0 /
b0 7
#7190
1*
1(
#7210
0>
0C
0K
0B
0"
0;
b0 %
b0 8
b0 @
#7230
11
1-
b1 !
b1 .
#7240
0G
0L
0$
0D
b0 '
b0 A
b0 I
#7260
10
#7270
0R
0P
0&
0M
b0 )
b0 J
#7290
15
1:
19
12
b1 #
b1 /
b1 7
#7300
0*
0(
#7320
1>
1C
1K
1B
1"
1;
b1 %
b1 8
b1 @
#7340
01
0-
b0 !
b0 .
#7350
1G
1L
1$
1D
b1 '
b1 A
b1 I
#7370
00
#7380
1R
1P
1&
1M
b1 )
b1 J
#7400
05
0:
09
02
b0 #
b0 /
b0 7
#7410
1*
1(
#7430
0>
0C
0K
0B
0"
0;
b0 %
b0 8
b0 @
#7450
11
1-
b1 !
b1 .
#7460
0G
0L
0$
0D
b0 '
b0 A
b0 I
#7480
10
#7490
0R
0P
0&
0M
b0 )
b0 J
#7510
15
1:
19
12
b1 #
b1 /
b1 7
#7520
0*
0(
#7540
1>
1C
1K
1B
1"
1;
b1 %
b1 8
b1 @
#7560
01
0-
b0 !
b0 .
#7570
1G
1L
1$
1D
b1 '
b1 A
b1 I
#7590
00
#7600
1R
1P
1&
1M
b1 )
b1 J
#7620
05
0:
09
02
b0 #
b0 /
b0 7
#7630
1*
1(
#7650
0>
0C
0K
0B
0"
0;
b0 %
b0 8
b0 @
#7670
11
1-
b1 !
b1 .
#7680
0G
0L
0$
0D
b0 '
b0 A
b0 I
#7700
10
#7710
0R
0P
0&
0M
b0 )
b0 J
#7730
15
1:
19
12
b1 #
b1 /
b1 7
#7740
0*
0(
#7760
1>
1C
1K
1B
1"
1;
b1 %
b1 8
b1 @
#7780
01
0-
b0 !
b0 .
#7790
1G
1L
1$
1D
b1 '
b1 A
b1 I
#7810
00
#7820
1R
1P
1&
1M
b1 )
b1 J
#7840
05
0:
09
02
b0 #
b0 /
b0 7
#7850
1*
1(
#7870
0>
0C
0K
0B
0"
0;
b0 %
b0 8
b0 @
#7890
11
1-
b1 !
b1 .
#7900
0G
0L
0$
0D
b0 '
b0 A
b0 I
#7920
10
#7930
0R
0P
0&
0M
b0 )
b0 J
#7950
15
1:
19
12
b1 #
b1 /
b1 7
#7960
0*
0(
#7980
1>
1C
1K
1B
1"
1;
b1 %
b1 8
b1 @
#8000
01
0-
b0 !
b0 .
#8010
1G
1L
1$
1D
b1 '
b1 A
b1 I
#8030
00
#8040
1R
1P
1&
1M
b1 )
b1 J
#8060
05
0:
09
02
b0 #
b0 /
b0 7
#8070
1*
1(
#8090
0>
0C
0K
0B
0"
0;
b0 %
b0 8
b0 @
#8110
11
1-
b1 !
b1 .
#8120
0G
0L
0$
0D
b0 '
b0 A
b0 I
#8140
10
#8150
0R
0P
0&
0M
b0 )
b0 J
#8170
15
1:
19
12
b1 #
b1 /
b1 7
#8180
0*
0(
#8200
1>
1C
1K
1B
1"
1;
b1 %
b1 8
b1 @
#8220
01
0-
b0 !
b0 .
#8230
1G
1L
1$
1D
b1 '
b1 A
b1 I
#8250
00
#8260
1R
1P
1&
1M
b1 )
b1 J
#8280
05
0:
09
02
b0 #
b0 /
b0 7
#8290
1*
1(
#8310
0>
0C
0K
0B
0"
0;
b0 %
b0 8
b0 @
#8330
11
1-
b1 !
b1 .
#8340
0G
0L
0$
0D
b0 '
b0 A
b0 I
#8360
10
#8370
0R
0P
0&
0M
b0 )
b0 J
#8390
15
1:
19
12
b1 #
b1 /
b1 7
#8400
0*
0(
#8420
1>
1C
1K
1B
1"
1;
b1 %
b1 8
b1 @
#8440
01
0-
b0 !
b0 .
#8450
1G
1L
1$
1D
b1 '
b1 A
b1 I
#8470
00
#8480
1R
1P
1&
1M
b1 )
b1 J
#8500
05
0:
09
02
b0 #
b0 /
b0 7
#8510
1*
1(
#8530
0>
0C
0K
0B
0"
0;
b0 %
b0 8
b0 @
#8550
11
1-
b1 !
b1 .
#8560
0G
0L
0$
0D
b0 '
b0 A
b0 I
#8580
10
#8590
0R
0P
0&
0M
b0 )
b0 J
#8610
15
1:
19
12
b1 #
b1 /
b1 7
#8620
0*
0(
#8640
1>
1C
1K
1B
1"
1;
b1 %
b1 8
b1 @
#8660
01
0-
b0 !
b0 .
#8670
1G
1L
1$
1D
b1 '
b1 A
b1 I
#8690
00
#8700
1R
1P
1&
1M
b1 )
b1 J
#8720
05
0:
09
02
b0 #
b0 /
b0 7
#8730
1*
1(
#8750
0>
0C
0K
0B
0"
0;
b0 %
b0 8
b0 @
#8770
11
1-
b1 !
b1 .
#8780
0G
0L
0$
0D
b0 '
b0 A
b0 I
#8800
10
#8810
0R
0P
0&
0M
b0 )
b0 J
#8830
15
1:
19
12
b1 #
b1 /
b1 7
#8840
0*
0(
#8860
1>
1C
1K
1B
1"
1;
b1 %
b1 8
b1 @
#8880
01
0-
b0 !
b0 .
#8890
1G
1L
1$
1D
b1 '
b1 A
b1 I
#8910
00
#8920
1R
1P
1&
1M
b1 )
b1 J
#8940
05
0:
09
02
b0 #
b0 /
b0 7
#8950
1*
1(
#8970
0>
0C
0K
0B
0"
0;
b0 %
b0 8
b0 @
#8990
11
1-
b1 !
b1 .
#9000
0G
0L
0$
0D
b0 '
b0 A
b0 I
#9020
10
#9030
0R
0P
0&
0M
b0 )
b0 J
#9050
15
1:
19
12
b1 #
b1 /
b1 7
#9060
0*
0(
#9080
1>
1C
1K
1B
1"
1;
b1 %
b1 8
b1 @
#9100
01
0-
b0 !
b0 .
#9110
1G
1L
1$
1D
b1 '
b1 A
b1 I
#9130
00
#9140
1R
1P
1&
1M
b1 )
b1 J
#9160
05
0:
09
02
b0 #
b0 /
b0 7
#9170
1*
1(
#9190
0>
0C
0K
0B
0"
0;
b0 %
b0 8
b0 @
#9210
11
1-
b1 !
b1 .
