multirail/ring2ref.vcd
$date
	Thu Jul 23 21:31:11 2015
$end
$version
	Icarus Verilog
$end
$timescale
	1ps
$end
$scope module ring2 $end
$var wire 2 ! A [1:0] $end
$var wire 1 " ACOMP $end
$var wire 2 # B [1:0] $end
$var wire 1 $ BCOMP $end
$var wire 2 % C [1:0] $end
$var wire 1 & CCOMP $end
$var wire 2 ' D [1:0] $end
$var wire 1 ( DCOMP $end
$var reg 1 ) init $end
$scope module u1 $end
$var wire 2 * A [1:0] $end
$var wire 1 " ACOMP $end
$var wire 2 + Z [1:0] $end
$var wire 1 $ ZCOMP $end
$var wire 1 , enable $end
$var wire 1 - init $end
$scope module u0 $end
$var wire 1 $ A $end
$var wire 1 - B $end
$var wire 1 , Z $end
$upscope $end
$scope module u1 $end
$var wire 1 . A $end
$var wire 1 , B $end
$var wire 1 - C $end
$var wire 1 / Z $end
$upscope $end
$scope module u2 $end
$var wire 1 0 A $end
$var wire 1 , B $end
$var wire 1 - C $end
$var wire 1 1 Z $end
$upscope $end
$scope module u5 $end
$var wire 1 2 A $end
$var wire 1 3 B $end
$var wire 1 " Z $end
$upscope $end
$upscope $end
$scope module u2 $end
$var wire 2 4 A [1:0] $end
$var wire 1 $ ACOMP $end
$var wire 2 5 Z [1:0] $end
$var wire 1 & ZCOMP $end
$var wire 1 6 enable $end
$var wire 1 - init $end
$scope module u0 $end
$var wire 1 & A $end
$var wire 1 - B $end
$var wire 1 6 Z $end
$upscope $end
$scope module u1 $end
$var wire 1 7 A $end
$var wire 1 6 B $end
$var wire 1 8 Z $end
$upscope $end
$scope module u2 $end
$var wire 1 9 A $end
$var wire 1 6 B $end
$var wire 1 : Z $end
$upscope $end
$scope module u5 $end
$var wire 1 ; A $end
$var wire 1 < B $end
$var wire 1 $ Z $end
$upscope $end
$upscope $end
$scope module u3 $end
$var wire 2 = A [1:0] $end
$var wire 1 & ACOMP $end
$var wire 2 > Z [1:0] $end
$var wire 1 ( ZCOMP $end
$var wire 1 ? enable $end
$var wire 1 - init $end
$scope module u0 $end
$var wire 1 ( A $end
$var wire 1 - B $end
$var wire 1 ? Z $end
$upscope $end
$scope module u1 $end
$var wire 1 @ A $end
$var wire 1 ? B $end
$var wire 1 A Z $end
$upscope $end
$scope module u2 $end
$var wire 1 B A $end
$var wire 1 ? B $end
$var wire 1 C Z $end
$upscope $end
$scope module u5 $end
$var wire 1 D A $end
$var wire 1 E B $end
$var wire 1 & Z $end
$upscope $end
$upscope $end
$scope module u4 $end
$var wire 2 F A [1:0] $end
$var wire 1 ( ACOMP $end
$var wire 2 G Z [1:0] $end
$var wire 1 " ZCOMP $end
$var wire 1 H enable $end
$var wire 1 - init $end
$scope module u0 $end
$var wire 1 " A $end
$var wire 1 H Z $end
$upscope $end
$scope module u1 $end
$var wire 1 I A $end
$var wire 1 H B $end
$var wire 1 - C $end
$var wire 1 J Z $end
$upscope $end
$scope module u2 $end
$var wire 1 K A $end
$var wire 1 H B $end
$var wire 1 - C $end
$var wire 1 L Z $end
$upscope $end
$scope module u5 $end
$var wire 1 M A $end
$var wire 1 N B $end
$var wire 1 ( Z $end
$upscope $end
$upscope $end
$upscope $end
$enddefinitions $end
#0
$dumpvars
xN
xM
xL
zK
xJ
zI
zH
bx G
bz F
zE
zD
zC
zB
zA
z@
z?
bz >
bz =
z<
z;
z:
x9
z8
x7
z6
bz 5
bx 4
x3
x2
x1
x0
x/
x.
1-
z,
bx +
bx *
1)
z(
bz '
z&
bz %
z$
bx #
z"
bx !
$end
#20
x;
x@
x<
xB
xD
xI
xE
xK
x8
x:
bx %
bx 5
bx =
xA
xC
bx '
bx >
bx F
0,
06
0?
#30
0.
0N
10
1M
03
09
02
07
0L
1J
b1 !
b1 *
b1 G
01
0/
b0 #
b0 +
b0 4
#60
0<
0B
0;
0@
1(
0"
0:
08
b0 %
b0 5
b0 =
#80
1H
#90
0E
0K
0D
0I
0$
0C
0A
b0 '
b0 >
b0 F
#120
0&
#200
0)
0-
#220
1,
16
#250
13
19
11
b10 #
b10 +
b10 4
#280
1<
1B
1"
1:
b10 %
b10 5
b10 =
#300
0H
#310
1$
#330
00
0M
0,
0J
b0 !
b0 *
b0 G
#360
03
09
01
b0 #
b0 +
b0 4
0(
#380
1?
#390
0"
#410
1E
1K
1H
1C
b10 '
b10 >
b10 F
#440
1.
1N
1&
1L
b10 !
b10 *
b10 G
#460
06
#470
1(
#490
0<
0B
0?
0:
b0 %
b0 5
b0 =
#520
0E
0K
0$
0C
b0 '
b0 >
b0 F
#540
1,
#550
0&
#570
12
17
16
1/
b1 #
b1 +
b1 4
#600
1;
1@
1"
18
b1 %
b1 5
b1 =
#620
0H
#630
1$
#650
0.
0N
0,
0L
b0 !
b0 *
b0 G
#680
02
07
0/
b0 #
b0 +
b0 4
0(
#700
1?
#710
0"
#730
1D
1I
1H
1A
b1 '
b1 >
b1 F
#760
10
1M
1&
1J
b1 !
b1 *
b1 G
#780
06
#790
1(
#810
0;
0@
0?
08
b0 %
b0 5
b0 =
#840
0D
0I
0$
0A
b0 '
b0 >
b0 F
#860
1,
#870
0&
#890
13
19
16
11
b10 #
b10 +
b10 4
#920
1<
1B
1"
1:
b10 %
b10 5
b10 =
#940
0H
#950
1$
#970
00
0M
0,
0J
b0 !
b0 *
b0 G
#1000
03
09
01
b0 #
b0 +
b0 4
0(
#1020
1?
#1030
0"
#1050
1E
1K
1H
1C
b10 '
b10 >
b10 F
#1080
1.
1N
1&
1L
b10 !
b10 *
b10 G
#1100
06
#1110
1(
#1130
0<
0B
0?
0:
b0 %
b0 5
b0 =
#1160
0E
0K
0$
0C
b0 '
b0 >
b0 F
#1180
1,
#1190
0&
#1210
12
17
16
1/
b1 #
b1 +
b1 4
#1240
1;
1@
1"
18
b1 %
b1 5
b1 =
#1260
0H
#1270
1$
#1290
0.
0N
0,
0L
b0 !
b0 *
b0 G
#1320
02
07
0/
b0 #
b0 +
b0 4
0(
#1340
1?
#1350
0"
#1370
1D
1I
1H
1A
b1 '
b1 >
b1 F
#1400
10
1M
1&
1J
b1 !
b1 *
b1 G
#1420
06
#1430
1(
#1450
0;
0@
0?
08
b0 %
b0 5
b0 =
#1480
0D
0I
0$
0A
b0 '
b0 >
b0 F
#1500
1,
#1510
0&
#1530
13
19
16
11
b10 #
b10 +
b10 4
#1560
1<
1B
1"
1:
b10 %
b10 5
b10 =
#1580
0H
#1590
1$
#1610
00
0M
0,
0J
b0 !
b0 *
b0 G
#1640
03
09
01
b0 #
b0 +
b0 4
0(
#1660
1?
#1670
0"
#1690
1E
1K
1H
1C
b10 '
b10 >
b10 F
#1720
1.
1N
1&
1L
b10 !
b10 *
b10 G
#1740
06
#1750
1(
#1770
0<
0B
0?
0:
b0 %
b0 5
b0 =
#1800
0E
0K
0$
0C
b0 '
b0 >
b0 F
#1820
1,
#1830
0&
#1850
12
17
16
1/
b1 #
b1 +
b1 4
#1880
1;
1@
1"
18
b1 %
b1 5
b1 =
#1900
0H
#1910
1$
#1930
0.
0N
0,
0L
b0 !
b0 *
b0 G
#1960
02
07
0/
b0 #
b0 +
b0 4
0(
#1980
1?
#1990
0"
#2010
1D
1I
1H
1A
b1 '
b1 >
b1 F
#2040
10
1M
1&
1J
b1 !
b1 *
b1 G
#2060
06
#2070
1(
#2090
0;
0@
0?
08
b0 %
b0 5
b0 =
#2120
0D
0I
0$
0A
b0 '
b0 >
b0 F
#2140
1,
#2150
0&
#2170
13
19
16
11
b10 #
b10 +
b10 4
#2200
1<
1B
1"
1:
b10 %
b10 5
b10 =
#2220
0H
#2230
1$
#2250
00
0M
0,
0J
b0 !
b0 *
b0 G
#2280
03
09
01
b0 #
b0 +
b0 4
0(
#2300
1?
#2310
0"
#2330
1E
1K
1H
1C
b10 '
b10 >
b10 F
#2360
1.
1N
1&
1L
b10 !
b10 *
b10 G
#2380
06
#2390
1(
#2410
0<
0B
0?
0:
b0 %
b0 5
b0 =
#2440
0E
0K
0$
0C
b0 '
b0 >
b0 F
#2460
1,
#2470
0&
#2490
12
17
16
1/
b1 #
b1 +
b1 4
#2520
1;
1@
1"
18
b1 %
b1 5
b1 =
#2540
0H
#2550
1$
#2570
0.
0N
0,
0L
b0 !
b0 *
b0 G
#2600
02
07
0/
b0 #
b0 +
b0 4
0(
#2620
1?
#2630
0"
#2650
1D
1I
1H
1A
b1 '
b1 >
b1 F
#2680
10
1M
1&
1J
b1 !
b1 *
b1 G
#2700
06
#2710
1(
#2730
0;
0@
0?
08
b0 %
b0 5
b0 =
#2760
0D
0I
0$
0A
b0 '
b0 >
b0 F
#2780
1,
#2790
0&
#2810
13
19
16
11
b10 #
b10 +
b10 4
#2840
1<
1B
1"
1:
b10 %
b10 5
b10 =
#2860
0H
#2870
1$
#2890
00
0M
0,
0J
b0 !
b0 *
b0 G
#2920
03
09
01
b0 #
b0 +
b0 4
0(
#2940
1?
#2950
0"
#2970
1E
1K
1H
1C
b10 '
b10 >
b10 F
#3000
1.
1N
1&
1L
b10 !
b10 *
b10 G
#3020
06
#3030
1(
#3050
0<
0B
0?
0:
b0 %
b0 5
b0 =
#3080
0E
0K
0$
0C
b0 '
b0 >
b0 F
#3100
1,
#3110
0&
#3130
12
17
16
1/
b1 #
b1 +
b1 4
#3160
1;
1@
1"
18
b1 %
b1 5
b1 =
#3180
0H
#3190
1$
#3210
0.
0N
0,
0L
b0 !
b0 *
b0 G
#3240
02
07
0/
b0 #
b0 +
b0 4
0(
#3260
1?
#3270
0"
#3290
1D
1I
1H
1A
b1 '
b1 >
b1 F
#3320
10
1M
1&
1J
b1 !
b1 *
b1 G
#3340
06
#3350
1(
#3370
0;
0@
0?
08
b0 %
b0 5
b0 =
#3400
0D
0I
0$
0A
b0 '
b0 >
b0 F
#3420
1,
#3430
0&
#3450
13
19
16
11
b10 #
b10 +
b10 4
#3480
1<
1B
1"
1:
b10 %
b10 5
b10 =
#3500
0H
#3510
1$
#3530
00
0M
0,
0J
b0 !
b0 *
b0 G
#3560
03
09
01
b0 #
b0 +
b0 4
0(
#3580
1?
#3590
0"
#3610
1E
1K
1H
1C
b10 '
b10 >
b10 F
#3640
1.
1N
1&
1L
b10 !
b10 *
b10 G
#3660
06
#3670
1(
#3690
0<
0B
0?
0:
b0 %
b0 5
b0 =
#3720
0E
0K
0$
0C
b0 '
b0 >
b0 F
#3740
1,
#3750
0&
#3770
12
17
16
1/
b1 #
b1 +
b1 4
#3800
1;
1@
1"
18
b1 %
b1 5
b1 =
#3820
0H
#3830
1$
#3850
0.
0N
0,
0L
b0 !
b0 *
b0 G
#3880
02
07
0/
b0 #
b0 +
b0 4
0(
#3900
1?
#3910
0"
#3930
1D
1I
1H
1A
b1 '
b1 >
b1 F
#3960
10
1M
1&
1J
b1 !
b1 *
b1 G
#3980
06
#3990
1(
#4010
0;
0@
0?
08
b0 %
b0 5
b0 =
#4040
0D
0I
0$
0A
b0 '
b0 >
b0 F
#4060
1,
#4070
0&
#4090
13
19
16
11
b10 #
b10 +
b10 4
#4120
1<
1B
1"
1:
b10 %
b10 5
b10 =
#4140
0H
#4150
1$
#4170
00
0M
0,
0J
b0 !
b0 *
b0 G
#4200
03
09
01
b0 #
b0 +
b0 4
0(
#4220
1?
#4230
0"
#4250
1E
1K
1H
1C
b10 '
b10 >
b10 F
#4280
1.
1N
1&
1L
b10 !
b10 *
b10 G
#4300
06
#4310
1(
#4330
0<
0B
0?
0:
b0 %
b0 5
b0 =
#4360
0E
0K
0$
0C
b0 '
b0 >
b0 F
#4380
1,
#4390
0&
#4410
12
17
16
1/
b1 #
b1 +
b1 4
#4440
1;
1@
1"
18
b1 %
b1 5
b1 =
#4460
0H
#4470
1$
#4490
0.
0N
0,
0L
b0 !
b0 *
b0 G
#4520
02
07
0/
b0 #
b0 +
b0 4
0(
#4540
1?
#4550
0"
#4570
1D
1I
1H
1A
b1 '
b1 >
b1 F
#4600
10
1M
1&
1J
b1 !
b1 *
b1 G
#4620
06
#4630
1(
#4650
0;
0@
0?
08
b0 %
b0 5
b0 =
#4680
0D
0I
0$
0A
b0 '
b0 >
b0 F
#4700
1,
#4710
0&
#4730
13
19
16
11
b10 #
b10 +
b10 4
#4760
1<
1B
1"
1:
b10 %
b10 5
b10 =
#4780
0H
#4790
1$
#4810
00
0M
0,
0J
b0 !
b0 *
b0 G
#4840
03
09
01
b0 #
b0 +
b0 4
0(
#4860
1?
#4870
0"
#4890
1E
1K
1H
1C
b10 '
b10 >
b10 F
#4920
1.
1N
1&
1L
b10 !
b10 *
b10 G
#4940
06
#4950
1(
#4970
0<
0B
0?
0:
b0 %
b0 5
b0 =
#5000
0E
0K
0$
0C
b0 '
b0 >
b0 F
#5020
1,
#5030
0&
#5050
12
17
16
1/
b1 #
b1 +
b1 4
#5080
1;
1@
1"
18
b1 %
b1 5
b1 =
#5100
0H
#5110
1$
#5130
0.
0N
0,
0L
b0 !
b0 *
b0 G
#5160
02
07
0/
b0 #
b0 +
b0 4
0(
#5180
1?
#5190
0"
#5210
1D
1I
1H
1A
b1 '
b1 >
b1 F
#5240
10
1M
1&
1J
b1 !
b1 *
b1 G
#5260
06
#5270
1(
#5290
0;
0@
0?
08
b0 %
b0 5
b0 =
#5320
0D
0I
0$
0A
b0 '
b0 >
b0 F
#5340
1,
#5350
0&
#5370
13
19
16
11
b10 #
b10 +
b10 4
#5400
1<
1B
1"
1:
b10 %
b10 5
b10 =
#5420
0H
#5430
1$
#5450
00
0M
0,
0J
b0 !
b0 *
b0 G
#5480
03
09
01
b0 #
b0 +
b0 4
0(
#5500
1?
#5510
0"
#5530
1E
1K
1H
1C
b10 '
b10 >
b10 F
#5560
1.
1N
1&
1L
b10 !
b10 *
b10 G
#5580
06
#5590
1(
#5610
0<
0B
0?
0:
b0 %
b0 5
b0 =
#5640
0E
0K
0$
0C
b0 '
b0 >
b0 F
#5660
1,
#5670
0&
#5690
12
17
16
1/
b1 #
b1 +
b1 4
#5720
1;
1@
1"
18
b1 %
b1 5
b1 =
#5740
0H
#5750
1$
#5770
0.
0N
0,
0L
b0 !
b0 *
b0 G
#5800
02
07
0/
b0 #
b0 +
b0 4
0(
#5820
1?
#5830
0"
#5850
1D
1I
1H
1A
b1 '
b1 >
b1 F
#5880
10
1M
1&
1J
b1 !
b1 *
b1 G
#5900
06
#5910
1(
#5930
0;
0@
0?
08
b0 %
b0 5
b0 =
#5960
0D
0I
0$
0A
b0 '
b0 >
b0 F
#5980
1,
#5990
0&
#6010
13
19
16
11
b10 #
b10 +
b10 4
#6040
1<
1B
1"
1:
b10 %
b10 5
b10 =
#6060
0H
#6070
1$
#6090
00
0M
0,
0J
b0 !
b0 *
b0 G
#6120
03
09
01
b0 #
b0 +
b0 4
0(
#6140
1?
#6150
0"
#6170
1E
1K
1H
1C
b10 '
b10 >
b10 F
#6200
1.
1N
1&
1L
b10 !
b10 *
b10 G
#6220
06
#6230
1(
#6250
0<
0B
0?
0:
b0 %
b0 5
b0 =
#6280
0E
0K
0$
0C
b0 '
b0 >
b0 F
#6300
1,
#6310
0&
#6330
12
17
16
1/
b1 #
b1 +
b1 4
#6360
1;
1@
1"
18
b1 %
b1 5
b1 =
#6380
0H
#6390
1$
#6410
0.
0N
0,
0L
b0 !
b0 *
b0 G
#6440
02
07
0/
b0 #
b0 +
b0 4
0(
#6460
1?
#6470
0"
#6490
1D
1I
1H
1A
b1 '
b1 >
b1 F
#6520
10
1M
1&
1J
b1 !
b1 *
b1 G
#6540
06
#6550
1(
#6570
0;
0@
0?
08
b0 %
b0 5
b0 =
#6600
0D
0I
0$
0A
b0 '
b0 >
b0 F
#6620
1,
#6630
0&
#6650
13
19
16
11
b10 #
b10 +
b10 4
#6680
1<
1B
1"
1:
b10 %
b10 5
b10 =
#6700
0H
#6710
1$
#6730
00
0M
0,
0J
b0 !
b0 *
b0 G
#6760
03
09
01
b0 #
b0 +
b0 4
0(
#6780
1?
#6790
0"
#6810
1E
1K
1H
1C
b10 '
b10 >
b10 F
#6840
1.
1N
1&
1L
b10 !
b10 *
b10 G
#6860
06
#6870
1(
#6890
0<
0B
0?
0:
b0 %
b0 5
b0 =
#6920
0E
0K
0$
0C
b0 '
b0 >
b0 F
#6940
1,
#6950
0&
#6970
12
17
16
1/
b1 #
b1 +
b1 4
#7000
1;
1@
1"
18
b1 %
b1 5
b1 =
#7020
0H
#7030
1$
#7050
0.
0N
0,
0L
b0 !
b0 *
b0 G
#7080
02
07
0/
b0 #
b0 +
b0 4
0(
#7100
1?
#7110
0"
#7130
1D
1I
1H
1A
b1 '
b1 >
b1 F
#7160
10
1M
1&
1J
b1 !
b1 *
b1 G
#7180
06
#7190
1(
#7210
0;
0@
0?
08
b0 %
b0 5
b0 =
#7240
0D
0I
0$
0A
b0 '
b0 >
b0 F
#7260
1,
#7270
0&
#7290
13
19
16
11
b10 #
b10 +
b10 4
#7320
1<
1B
1"
1:
b10 %
b10 5
b10 =
#7340
0H
#7350
1$
#7370
00
0M
0,
0J
b0 !
b0 *
b0 G
#7400
03
09
01
b0 #
b0 +
b0 4
0(
#7420
1?
#7430
0"
#7450
1E
1K
1H
1C
b10 '
b10 >
b10 F
#7480
1.
1N
1&
1L
b10 !
b10 *
b10 G
#7500
06
#7510
1(
#7530
0<
0B
0?
0:
b0 %
b0 5
b0 =
#7560
0E
0K
0$
0C
b0 '
b0 >
b0 F
#7580
1,
#7590
0&
#7610
12
17
16
1/
b1 #
b1 +
b1 4
#7640
1;
1@
1"
18
b1 %
b1 5
b1 =
#7660
0H
#7670
1$
#7690
0.
0N
0,
0L
b0 !
b0 *
b0 G
#7720
02
07
0/
b0 #
b0 +
b0 4
0(
#7740
1?
#7750
0"
#7770
1D
1I
1H
1A
b1 '
b1 >
b1 F
#7800
10
1M
1&
1J
b1 !
b1 *
b1 G
#7820
06
#7830
1(
#7850
0;
0@
0?
08
b0 %
b0 5
b0 =
#7880
0D
0I
0$
0A
b0 '
b0 >
b0 F
#7900
1,
#7910
0&
#7930
13
19
16
11
b10 #
b10 +
b10 4
#7960
1<
1B
1"
1:
b10 %
b10 5
b10 =
#7980
0H
#7990
1$
#8010
00
0M
0,
0J
b0 !
b0 *
b0 G
#8040
03
09
01
b0 #
b0 +
b0 4
0(
#8060
1?
#8070
0"
#8090
1E
1K
1H
1C
b10 '
b10 >
b10 F
#8120
1.
1N
1&
1L
b10 !
b10 *
b10 G
#8140
06
#8150
1(
#8170
0<
0B
0?
0:
b0 %
b0 5
b0 =
#8200
0E
0K
0$
0C
b0 '
b0 >
b0 F
#8220
1,
#8230
0&
#8250
12
17
16
1/
b1 #
b1 +
b1 4
#8280
1;
1@
1"
18
b1 %
b1 5
b1 =
#8300
0H
#8310
1$
#8330
0.
0N
0,
0L
b0 !
b0 *
b0 G
#8360
02
07
0/
b0 #
b0 +
b0 4
0(
#8380
1?
#8390
0"
#8410
1D
1I
1H
1A
b1 '
b1 >
b1 F
#8440
10
1M
1&
1J
b1 !
b1 *
b1 G
#8460
06
#8470
1(
#8490
0;
0@
0?
08
b0 %
b0 5
b0 =
#8520
0D
0I
0$
0A
b0 '
b0 >
b0 F
#8540
1,
#8550
0&
#8570
13
19
16
11
b10 #
b10 +
b10 4
#8600
1<
1B
1"
1:
b10 %
b10 5
b10 =
#8620
0H
#8630
1$
#8650
00
0M
0,
0J
b0 !
b0 *
b0 G
#8680
03
09
01
b0 #
b0 +
b0 4
0(
#8700
1?
#8710
0"
#8730
1E
1K
1H
1C
b10 '
b10 >
b10 F
#8760
1.
1N
1&
1L
b10 !
b10 *
b10 G
#8780
06
#8790
1(
#8810
0<
0B
0?
0:
b0 %
b0 5
b0 =
#8840
0E
0K
0$
0C
b0 '
b0 >
b0 F
#8860
1,
#8870
0&
#8890
12
17
16
1/
b1 #
b1 +
b1 4
#8920
1;
1@
1"
18
b1 %
b1 5
b1 =
#8940
0H
#8950
1$
#8970
0.
0N
0,
0L
b0 !
b0 *
b0 G
#9000
02
07
0/
b0 #
b0 +
b0 4
0(
#9020
1?
#9030
0"
#9050
1D
1I
1H
1A
b1 '
b1 >
b1 F
#9080
10
1M
1&
1J
b1 !
b1 *
b1 G
#9100
06
#9110
1(
#9130
0;
0@
0?
08
b0 %
b0 5
b0 =
#9160
0D
0I
0$
0A
b0 '
b0 >
b0 F
#9180
1,
#9190
0&
#9210
13
19
16
11
b10 #
b10 +
b10 4
#9240
1<
1B
1"
1:
b10 %
b10 5
b10 =
#9260
0H
#9270
1$
#9290
00
0M
0,
0J
b0 !
b0 *
b0 G
#9320
03
09
01
b0 #
b0 +
b0 4
0(
#9340
1?
#9350
0"
#9370
1E
1K
1H
1C
b10 '
b10 >
b10 F
#9400
1.
1N
1&
1L
b10 !
b10 *
b10 G
#9420
06
#9430
1(
#9450
0<
0B
0?
0:
b0 %
b0 5
b0 =
#9480
0E
0K
0$
0C
b0 '
b0 >
b0 F
#9500
1,
#9510
0&
#9530
12
17
16
1/
b1 #
b1 +
b1 4
#9560
1;
1@
1"
18
b1 %
b1 5
b1 =
#9580
0H
#9590
1$
#9610
0.
0N
0,
0L
b0 !
b0 *
b0 G
#9640
02
07
0/
b0 #
b0 +
b0 4
0(
#9660
1?
#9670
0"
#9690
1D
1I
1H
1A
b1 '
b1 >
b1 F
#9720
10
1M
1&
1J
b1 !
b1 *
b1 G
#9740
06
#9750
1(
#9770
0;
0@
0?
08
b0 %
b0 5
b0 =
#9800
0D
0I
0$
0A
b0 '
b0 >
b0 F
#9820
1,
#9830
0&
#9850
13
19
16
11
b10 #
b10 +
b10 4
#9880
1<
1B
1"
1:
b10 %
b10 5
b10 =
#9900
0H
#9910
1$
#9930
00
0M
0,
0J
b0 !
b0 *
b0 G
#9960
03
09
01
b0 #
b0 +
b0 4
0(
#9980
1?
#9990
0"
#10010
1E
1K
1H
1C
b10 '
b10 >
b10 F
#10040
1.
1N
1&
1L
b10 !
b10 *
b10 G
#10060
06
#10070
1(
#10090
0<
0B
0?
0:
b0 %
b0 5
b0 =
#10120
0E
0K
0$
0C
b0 '
b0 >
b0 F
#10140
1,
#10150
0&
#10170
12
17
16
1/
b1 #
b1 +
b1 4
