multirail/ring4ref.vcd
$date
	Tue Aug  4 17:51:32 2015
$end
$version
	Icarus Verilog
$end
$timescale
	1ps
$end
$scope module ring4 $end
$var wire 4 ! A [3:0] $end
$var wire 1 " ACOMP $end
$var wire 4 # B [3:0] $end
$var wire 1 $ BCOMP $end
$var wire 4 % C [3:0] $end
$var wire 1 & CCOMP $end
$var wire 4 ' D [3:0] $end
$var wire 1 ( DCOMP $end
$var reg 1 ) init $end
$scope module u1 $end
$var wire 4 * A [3:0] $end
$var wire 1 " ACOMP $end
$var wire 4 + Z [3:0] $end
$var wire 1 $ ZCOMP $end
$var wire 1 , enable $end
$var wire 1 - init $end
$scope module u0 $end
$var wire 1 $ A $end
$var wire 1 - B $end
$var wire 1 , Z $end
$upscope $end
$scope module u1 $end
$var wire 1 . A $end
$var wire 1 , B $end
$var wire 1 / Z $end
$upscope $end
$scope module u2 $end
$var wire 1 0 A $end
$var wire 1 , B $end
$var wire 1 1 Z $end
$upscope $end
$scope module u3 $end
$var wire 1 2 A $end
$var wire 1 , B $end
$var wire 1 3 Z $end
$upscope $end
$scope module u4 $end
$var wire 1 4 A $end
$var wire 1 , B $end
$var wire 1 - C $end
$var wire 1 5 Z $end
$upscope $end
$scope module u5 $end
$var wire 1 6 A $end
$var wire 1 7 B $end
$var wire 1 8 C $end
$var wire 1 9 D $end
$var wire 1 " Z $end
$upscope $end
$upscope $end
$scope module u2 $end
$var wire 4 : A [3:0] $end
$var wire 1 $ ACOMP $end
$var wire 4 ; Z [3:0] $end
$var wire 1 & ZCOMP $end
$var wire 1 < enable $end
$var wire 1 - init $end
$scope module u0 $end
$var wire 1 & A $end
$var wire 1 - B $end
$var wire 1 < Z $end
$upscope $end
$scope module u1 $end
$var wire 1 = A $end
$var wire 1 < B $end
$var wire 1 > Z $end
$upscope $end
$scope module u2 $end
$var wire 1 ? A $end
$var wire 1 < B $end
$var wire 1 @ Z $end
$upscope $end
$scope module u3 $end
$var wire 1 A A $end
$var wire 1 < B $end
$var wire 1 B Z $end
$upscope $end
$scope module u4 $end
$var wire 1 C A $end
$var wire 1 < B $end
$var wire 1 D Z $end
$upscope $end
$scope module u5 $end
$var wire 1 E A $end
$var wire 1 F B $end
$var wire 1 G C $end
$var wire 1 H D $end
$var wire 1 $ Z $end
$upscope $end
$upscope $end
$scope module u3 $end
$var wire 4 I A [3:0] $end
$var wire 1 & ACOMP $end
$var wire 4 J Z [3:0] $end
$var wire 1 ( ZCOMP $end
$var wire 1 K enable $end
$var wire 1 - init $end
$scope module u0 $end
$var wire 1 ( A $end
$var wire 1 - B $end
$var wire 1 K Z $end
$upscope $end
$scope module u1 $end
$var wire 1 L A $end
$var wire 1 K B $end
$var wire 1 M Z $end
$upscope $end
$scope module u2 $end
$var wire 1 N A $end
$var wire 1 K B $end
$var wire 1 O Z $end
$upscope $end
$scope module u3 $end
$var wire 1 P A $end
$var wire 1 K B $end
$var wire 1 Q Z $end
$upscope $end
$scope module u4 $end
$var wire 1 R A $end
$var wire 1 K B $end
$var wire 1 S Z $end
$upscope $end
$scope module u5 $end
$var wire 1 T A $end
$var wire 1 U B $end
$var wire 1 V C $end
$var wire 1 W D $end
$var wire 1 & Z $end
$upscope $end
$upscope $end
$scope module u4 $end
$var wire 4 X A [3:0] $end
$var wire 1 ( ACOMP $end
$var wire 4 Y Z [3:0] $end
$var wire 1 " ZCOMP $end
$var wire 1 Z enable $end
$var wire 1 - init $end
$scope module u0 $end
$var wire 1 " A $end
$var wire 1 Z Z $end
$upscope $end
$scope module u1 $end
$var wire 1 [ A $end
$var wire 1 Z B $end
$var wire 1 - C $end
$var wire 1 \ Z $end
$upscope $end
$scope module u2 $end
$var wire 1 ] A $end
$var wire 1 Z B $end
$var wire 1 - C $end
$var wire 1 ^ Z $end
$upscope $end
$scope module u3 $end
$var wire 1 _ A $end
$var wire 1 Z B $end
$var wire 1 - C $end
$var wire 1 ` Z $end
$upscope $end
$scope module u4 $end
$var wire 1 a A $end
$var wire 1 Z B $end
$var wire 1 - C $end
$var wire 1 b Z $end
$upscope $end
$scope module u5 $end
$var wire 1 c A $end
$var wire 1 d B $end
$var wire 1 e C $end
$var wire 1 f D $end
$var wire 1 ( Z $end
$upscope $end
$upscope $end
$upscope $end
$enddefinitions $end
#0
$dumpvars
xf
xe
xd
xc
xb
za
x`
z_
x^
z]
x\
z[
zZ
bx Y
bz X
zW
zV
zU
zT
zS
zR
zQ
zP
zO
zN
zM
zL
zK
bz J
bz I
zH
zG
zF
zE
zD
xC
zB
zA
z@
z?
z>
z=
z<
bz ;
bxzzz :
x9
z8
z7
z6
x5
x4
z3
x2
z1
x0
z/
x.
1-
z,
bxzzz +
bx *
1)
z(
bz '
z&
bz %
z$
bxzzz #
z"
bx !
$end
#20
x6
x=
x7
x?
x8
xA
xE
xF
xG
xH
xL
xN
xP
xR
xT
xU
xV
xW
x[
x]
x_
xa
x/
x1
x3
bx #
bx +
bx :
x>
x@
xB
xD
bx %
bx ;
bx I
xM
xO
xQ
xS
bx '
bx J
bx X
0,
0<
0K
#30
02
0f
00
0e
0.
0d
14
1c
09
0C
0b
0`
0^
1\
b1 !
b1 *
b1 Y
05
b0xxx #
b0xxx +
b0xxx :
#60
08
0A
07
0?
06
0=
0H
0R
03
01
0/
b0 #
b0 +
b0 :
0D
b0xxx %
b0xxx ;
b0xxx I
#80
1(
#90
0G
0P
0F
0N
0E
0L
0W
0a
0B
0@
0>
b0 %
b0 ;
b0 I
0S
b0xxx '
b0xxx J
b0xxx X
#110
0"
#120
0V
0_
0U
0]
0T
0[
0Q
0O
0M
b0 '
b0 J
b0 X
#130
1Z
#140
0$
#170
0&
#200
0)
0-
#220
1,
1<
#250
19
1C
15
b1000 #
b1000 +
b1000 :
#280
1H
1R
1D
b1000 %
b1000 ;
b1000 I
#300
1"
#320
0Z
#330
1$
#350
04
0c
0,
0\
b0 !
b0 *
b0 Y
#380
09
0C
05
b0 #
b0 +
b0 :
#400
0(
#420
1K
#430
0"
#450
1W
1a
1Z
1S
b1000 '
b1000 J
b1000 X
#480
12
1f
1b
b1000 !
b1000 *
b1000 Y
#500
1&
#520
0<
#530
1(
#550
0H
0R
0K
0D
b0 %
b0 ;
b0 I
#580
0W
0a
0S
b0 '
b0 J
b0 X
#600
0$
#620
1,
#630
0&
#650
18
1A
1<
13
b100 #
b100 +
b100 :
#680
1G
1P
1B
b100 %
b100 ;
b100 I
#700
1"
#720
0Z
#730
1$
#750
02
0f
0,
0b
b0 !
b0 *
b0 Y
#780
08
0A
03
b0 #
b0 +
b0 :
#800
0(
#820
1K
#830
0"
#850
1V
1_
1Z
1Q
b100 '
b100 J
b100 X
#880
10
1e
1`
b100 !
b100 *
b100 Y
#900
1&
#920
0<
#930
1(
#950
0G
0P
0K
0B
b0 %
b0 ;
b0 I
#980
0V
0_
0Q
b0 '
b0 J
b0 X
#1000
0$
#1020
1,
#1030
0&
#1050
17
1?
1<
11
b10 #
b10 +
b10 :
#1080
1F
1N
1@
b10 %
b10 ;
b10 I
#1100
1"
#1120
0Z
#1130
1$
#1150
00
0e
0,
0`
b0 !
b0 *
b0 Y
#1180
07
0?
01
b0 #
b0 +
b0 :
#1200
0(
#1220
1K
#1230
0"
#1250
1U
1]
1Z
1O
b10 '
b10 J
b10 X
#1280
1.
1d
1^
b10 !
b10 *
b10 Y
#1300
1&
#1320
0<
#1330
1(
#1350
0F
0N
0K
0@
b0 %
b0 ;
b0 I
#1380
0U
0]
0O
b0 '
b0 J
b0 X
#1400
0$
#1420
1,
#1430
0&
#1450
16
1=
1<
1/
b1 #
b1 +
b1 :
#1480
1E
1L
1>
b1 %
b1 ;
b1 I
#1500
1"
#1520
0Z
#1530
1$
#1550
0.
0d
0,
0^
b0 !
b0 *
b0 Y
#1580
06
0=
0/
b0 #
b0 +
b0 :
#1600
0(
#1620
1K
#1630
0"
#1650
1T
1[
1Z
1M
b1 '
b1 J
b1 X
#1680
14
1c
1\
b1 !
b1 *
b1 Y
#1700
1&
#1720
0<
#1730
1(
#1750
0E
0L
0K
0>
b0 %
b0 ;
b0 I
#1780
0T
0[
0M
b0 '
b0 J
b0 X
#1800
0$
#1820
1,
#1830
0&
#1850
19
1C
1<
15
b1000 #
b1000 +
b1000 :
#1880
1H
1R
1D
b1000 %
b1000 ;
b1000 I
#1900
1"
#1920
0Z
#1930
1$
#1950
04
0c
0,
0\
b0 !
b0 *
b0 Y
#1980
09
0C
05
b0 #
b0 +
b0 :
#2000
0(
#2020
1K
#2030
0"
#2050
1W
1a
1Z
1S
b1000 '
b1000 J
b1000 X
#2080
12
1f
1b
b1000 !
b1000 *
b1000 Y
#2100
1&
#2120
0<
#2130
1(
#2150
0H
0R
0K
0D
b0 %
b0 ;
b0 I
#2180
0W
0a
0S
b0 '
b0 J
b0 X
#2200
0$
#2220
1,
#2230
0&
#2250
18
1A
1<
13
b100 #
b100 +
b100 :
#2280
1G
1P
1B
b100 %
b100 ;
b100 I
#2300
1"
#2320
0Z
#2330
1$
#2350
02
0f
0,
0b
b0 !
b0 *
b0 Y
#2380
08
0A
03
b0 #
b0 +
b0 :
#2400
0(
#2420
1K
#2430
0"
#2450
1V
1_
1Z
1Q
b100 '
b100 J
b100 X
#2480
10
1e
1`
b100 !
b100 *
b100 Y
#2500
1&
#2520
0<
#2530
1(
#2550
0G
0P
0K
0B
b0 %
b0 ;
b0 I
#2580
0V
0_
0Q
b0 '
b0 J
b0 X
#2600
0$
#2620
1,
#2630
0&
#2650
17
1?
1<
11
b10 #
b10 +
b10 :
#2680
1F
1N
1@
b10 %
b10 ;
b10 I
#2700
1"
#2720
0Z
#2730
1$
#2750
00
0e
0,
0`
b0 !
b0 *
b0 Y
#2780
07
0?
01
b0 #
b0 +
b0 :
#2800
0(
#2820
1K
#2830
0"
#2850
1U
1]
1Z
1O
b10 '
b10 J
b10 X
#2880
1.
1d
1^
b10 !
b10 *
b10 Y
#2900
1&
#2920
0<
#2930
1(
#2950
0F
0N
0K
0@
b0 %
b0 ;
b0 I
#2980
0U
0]
0O
b0 '
b0 J
b0 X
#3000
0$
#3020
1,
#3030
0&
#3050
16
1=
1<
1/
b1 #
b1 +
b1 :
#3080
1E
1L
1>
b1 %
b1 ;
b1 I
#3100
1"
#3120
0Z
#3130
1$
#3150
0.
0d
0,
0^
b0 !
b0 *
b0 Y
#3180
06
0=
0/
b0 #
b0 +
b0 :
#3200
0(
#3220
1K
#3230
0"
#3250
1T
1[
1Z
1M
b1 '
b1 J
b1 X
#3280
14
1c
1\
b1 !
b1 *
b1 Y
#3300
1&
#3320
0<
#3330
1(
#3350
0E
0L
0K
0>
b0 %
b0 ;
b0 I
#3380
0T
0[
0M
b0 '
b0 J
b0 X
#3400
0$
#3420
1,
#3430
0&
#3450
19
1C
1<
15
b1000 #
b1000 +
b1000 :
#3480
1H
1R
1D
b1000 %
b1000 ;
b1000 I
#3500
1"
#3520
0Z
#3530
1$
#3550
04
0c
0,
0\
b0 !
b0 *
b0 Y
#3580
09
0C
05
b0 #
b0 +
b0 :
#3600
0(
#3620
1K
#3630
0"
#3650
1W
1a
1Z
1S
b1000 '
b1000 J
b1000 X
#3680
12
1f
1b
b1000 !
b1000 *
b1000 Y
#3700
1&
#3720
0<
#3730
1(
#3750
0H
0R
0K
0D
b0 %
b0 ;
b0 I
#3780
0W
0a
0S
b0 '
b0 J
b0 X
#3800
0$
#3820
1,
#3830
0&
#3850
18
1A
1<
13
b100 #
b100 +
b100 :
#3880
1G
1P
1B
b100 %
b100 ;
b100 I
#3900
1"
#3920
0Z
#3930
1$
#3950
02
0f
0,
0b
b0 !
b0 *
b0 Y
#3980
08
0A
03
b0 #
b0 +
b0 :
#4000
0(
#4020
1K
#4030
0"
#4050
1V
1_
1Z
1Q
b100 '
b100 J
b100 X
#4080
10
1e
1`
b100 !
b100 *
b100 Y
#4100
1&
#4120
0<
#4130
1(
#4150
0G
0P
0K
0B
b0 %
b0 ;
b0 I
#4180
0V
0_
0Q
b0 '
b0 J
b0 X
#4200
0$
#4220
1,
#4230
0&
#4250
17
1?
1<
11
b10 #
b10 +
b10 :
#4280
1F
1N
1@
b10 %
b10 ;
b10 I
#4300
1"
#4320
0Z
#4330
1$
#4350
00
0e
0,
0`
b0 !
b0 *
b0 Y
#4380
07
0?
01
b0 #
b0 +
b0 :
#4400
0(
#4420
1K
#4430
0"
#4450
1U
1]
1Z
1O
b10 '
b10 J
b10 X
#4480
1.
1d
1^
b10 !
b10 *
b10 Y
#4500
1&
#4520
0<
#4530
1(
#4550
0F
0N
0K
0@
b0 %
b0 ;
b0 I
#4580
0U
0]
0O
b0 '
b0 J
b0 X
#4600
0$
#4620
1,
#4630
0&
#4650
16
1=
1<
1/
b1 #
b1 +
b1 :
#4680
1E
1L
1>
b1 %
b1 ;
b1 I
#4700
1"
#4720
0Z
#4730
1$
#4750
0.
0d
0,
0^
b0 !
b0 *
b0 Y
#4780
06
0=
0/
b0 #
b0 +
b0 :
#4800
0(
#4820
1K
#4830
0"
#4850
1T
1[
1Z
1M
b1 '
b1 J
b1 X
#4880
14
1c
1\
b1 !
b1 *
b1 Y
#4900
1&
#4920
0<
#4930
1(
#4950
0E
0L
0K
0>
b0 %
b0 ;
b0 I
#4980
0T
0[
0M
b0 '
b0 J
b0 X
#5000
0$
#5020
1,
#5030
0&
#5050
19
1C
1<
15
b1000 #
b1000 +
b1000 :
#5080
1H
1R
1D
b1000 %
b1000 ;
b1000 I
#5100
1"
#5120
0Z
#5130
1$
#5150
04
0c
0,
0\
b0 !
b0 *
b0 Y
#5180
09
0C
05
b0 #
b0 +
b0 :
#5200
0(
#5220
1K
#5230
0"
#5250
1W
1a
1Z
1S
b1000 '
b1000 J
b1000 X
#5280
12
1f
1b
b1000 !
b1000 *
b1000 Y
#5300
1&
#5320
0<
#5330
1(
#5350
0H
0R
0K
0D
b0 %
b0 ;
b0 I
#5380
0W
0a
0S
b0 '
b0 J
b0 X
#5400
0$
#5420
1,
#5430
0&
#5450
18
1A
1<
13
b100 #
b100 +
b100 :
#5480
1G
1P
1B
b100 %
b100 ;
b100 I
#5500
1"
#5520
0Z
#5530
1$
#5550
02
0f
0,
0b
b0 !
b0 *
b0 Y
#5580
08
0A
03
b0 #
b0 +
b0 :
#5600
0(
#5620
1K
#5630
0"
#5650
1V
1_
1Z
1Q
b100 '
b100 J
b100 X
#5680
10
1e
1`
b100 !
b100 *
b100 Y
#5700
1&
#5720
0<
#5730
1(
#5750
0G
0P
0K
0B
b0 %
b0 ;
b0 I
#5780
0V
0_
0Q
b0 '
b0 J
b0 X
#5800
0$
#5820
1,
#5830
0&
#5850
17
1?
1<
11
b10 #
b10 +
b10 :
#5880
1F
1N
1@
b10 %
b10 ;
b10 I
#5900
1"
#5920
0Z
#5930
1$
#5950
00
0e
0,
0`
b0 !
b0 *
b0 Y
#5980
07
0?
01
b0 #
b0 +
b0 :
#6000
0(
#6020
1K
#6030
0"
#6050
1U
1]
1Z
1O
b10 '
b10 J
b10 X
#6080
1.
1d
1^
b10 !
b10 *
b10 Y
#6100
1&
#6120
0<
#6130
1(
#6150
0F
0N
0K
0@
b0 %
b0 ;
b0 I
#6180
0U
0]
0O
b0 '
b0 J
b0 X
#6200
0$
#6220
1,
#6230
0&
#6250
16
1=
1<
1/
b1 #
b1 +
b1 :
#6280
1E
1L
1>
b1 %
b1 ;
b1 I
#6300
1"
#6320
0Z
#6330
1$
#6350
0.
0d
0,
0^
b0 !
b0 *
b0 Y
#6380
06
0=
0/
b0 #
b0 +
b0 :
#6400
0(
#6420
1K
#6430
0"
#6450
1T
1[
1Z
1M
b1 '
b1 J
b1 X
#6480
14
1c
1\
b1 !
b1 *
b1 Y
#6500
1&
#6520
0<
#6530
1(
#6550
0E
0L
0K
0>
b0 %
b0 ;
b0 I
#6580
0T
0[
0M
b0 '
b0 J
b0 X
#6600
0$
#6620
1,
#6630
0&
#6650
19
1C
1<
15
b1000 #
b1000 +
b1000 :
#6680
1H
1R
1D
b1000 %
b1000 ;
b1000 I
#6700
1"
#6720
0Z
#6730
1$
#6750
04
0c
0,
0\
b0 !
b0 *
b0 Y
#6780
09
0C
05
b0 #
b0 +
b0 :
#6800
0(
#6820
1K
#6830
0"
#6850
1W
1a
1Z
1S
b1000 '
b1000 J
b1000 X
#6880
12
1f
1b
b1000 !
b1000 *
b1000 Y
#6900
1&
#6920
0<
#6930
1(
#6950
0H
0R
0K
0D
b0 %
b0 ;
b0 I
#6980
0W
0a
0S
b0 '
b0 J
b0 X
#7000
0$
#7020
1,
#7030
0&
#7050
18
1A
1<
13
b100 #
b100 +
b100 :
#7080
1G
1P
1B
b100 %
b100 ;
b100 I
#7100
1"
#7120
0Z
#7130
1$
#7150
02
0f
0,
0b
b0 !
b0 *
b0 Y
#7180
08
0A
03
b0 #
b0 +
b0 :
#7200
0(
#7220
1K
#7230
0"
#7250
1V
1_
1Z
1Q
b100 '
b100 J
b100 X
#7280
10
1e
1`
b100 !
b100 *
b100 Y
#7300
1&
#7320
0<
#7330
1(
#7350
0G
0P
0K
0B
b0 %
b0 ;
b0 I
#7380
0V
0_
0Q
b0 '
b0 J
b0 X
#7400
0$
#7420
1,
#7430
0&
#7450
17
1?
1<
11
b10 #
b10 +
b10 :
#7480
1F
1N
1@
b10 %
b10 ;
b10 I
#7500
1"
#7520
0Z
#7530
1$
#7550
00
0e
0,
0`
b0 !
b0 *
b0 Y
#7580
07
0?
01
b0 #
b0 +
b0 :
#7600
0(
#7620
1K
#7630
0"
#7650
1U
1]
1Z
1O
b10 '
b10 J
b10 X
#7680
1.
1d
1^
b10 !
b10 *
b10 Y
#7700
1&
#7720
0<
#7730
1(
#7750
0F
0N
0K
0@
b0 %
b0 ;
b0 I
#7780
0U
0]
0O
b0 '
b0 J
b0 X
#7800
0$
#7820
1,
#7830
0&
#7850
16
1=
1<
1/
b1 #
b1 +
b1 :
#7880
1E
1L
1>
b1 %
b1 ;
b1 I
#7900
1"
#7920
0Z
#7930
1$
#7950
0.
0d
0,
0^
b0 !
b0 *
b0 Y
#7980
06
0=
0/
b0 #
b0 +
b0 :
#8000
0(
#8020
1K
#8030
0"
#8050
1T
1[
1Z
1M
b1 '
b1 J
b1 X
#8080
14
1c
1\
b1 !
b1 *
b1 Y
#8100
1&
#8120
0<
#8130
1(
#8150
0E
0L
0K
0>
b0 %
b0 ;
b0 I
#8180
0T
0[
0M
b0 '
b0 J
b0 X
#8200
0$
#8220
1,
#8230
0&
#8250
19
1C
1<
15
b1000 #
b1000 +
b1000 :
#8280
1H
1R
1D
b1000 %
b1000 ;
b1000 I
#8300
1"
#8320
0Z
#8330
1$
#8350
04
0c
0,
0\
b0 !
b0 *
b0 Y
#8380
09
0C
05
b0 #
b0 +
b0 :
#8400
0(
#8420
1K
#8430
0"
#8450
1W
1a
1Z
1S
b1000 '
b1000 J
b1000 X
#8480
12
1f
1b
b1000 !
b1000 *
b1000 Y
#8500
1&
#8520
0<
#8530
1(
#8550
0H
0R
0K
0D
b0 %
b0 ;
b0 I
#8580
0W
0a
0S
b0 '
b0 J
b0 X
#8600
0$
#8620
1,
#8630
0&
#8650
18
1A
1<
13
b100 #
b100 +
b100 :
#8680
1G
1P
1B
b100 %
b100 ;
b100 I
#8700
1"
#8720
0Z
#8730
1$
#8750
02
0f
0,
0b
b0 !
b0 *
b0 Y
#8780
08
0A
03
b0 #
b0 +
b0 :
#8800
0(
#8820
1K
#8830
0"
#8850
1V
1_
1Z
1Q
b100 '
b100 J
b100 X
#8880
10
1e
1`
b100 !
b100 *
b100 Y
#8900
1&
#8920
0<
#8930
1(
#8950
0G
0P
0K
0B
b0 %
b0 ;
b0 I
#8980
0V
0_
0Q
b0 '
b0 J
b0 X
#9000
0$
#9020
1,
#9030
0&
#9050
17
1?
1<
11
b10 #
b10 +
b10 :
#9080
1F
1N
1@
b10 %
b10 ;
b10 I
#9100
1"
#9120
0Z
#9130
1$
#9150
00
0e
0,
0`
b0 !
b0 *
b0 Y
#9180
07
0?
01
b0 #
b0 +
b0 :
#9200
0(
#9220
1K
#9230
0"
#9250
1U
1]
1Z
1O
b10 '
b10 J
b10 X
#9280
1.
1d
1^
b10 !
b10 *
b10 Y
#9300
1&
#9320
0<
#9330
1(
#9350
0F
0N
0K
0@
b0 %
b0 ;
b0 I
#9380
0U
0]
0O
b0 '
b0 J
b0 X
#9400
0$
#9420
1,
#9430
0&
#9450
16
1=
1<
1/
b1 #
b1 +
b1 :
#9480
1E
1L
1>
b1 %
b1 ;
b1 I
#9500
1"
#9520
0Z
#9530
1$
#9550
0.
0d
0,
0^
b0 !
b0 *
b0 Y
#9580
06
0=
0/
b0 #
b0 +
b0 :
#9600
0(
#9620
1K
#9630
0"
#9650
1T
1[
1Z
1M
b1 '
b1 J
b1 X
#9680
14
1c
1\
b1 !
b1 *
b1 Y
#9700
1&
#9720
0<
#9730
1(
#9750
0E
0L
0K
0>
b0 %
b0 ;
b0 I
#9780
0T
0[
0M
b0 '
b0 J
b0 X
#9800
0$
#9820
1,
#9830
0&
#9850
19
1C
1<
15
b1000 #
b1000 +
b1000 :
#9880
1H
1R
1D
b1000 %
b1000 ;
b1000 I
#9900
1"
#9920
0Z
#9930
1$
#9950
04
0c
0,
0\
b0 !
b0 *
b0 Y
#9980
09
0C
05
b0 #
b0 +
b0 :
#10000
0(
#10020
1K
#10030
0"
#10050
1W
1a
1Z
1S
b1000 '
b1000 J
b1000 X
#10080
12
1f
1b
b1000 !
b1000 *
b1000 Y
#10100
1&
#10120
0<
#10130
1(
#10150
0H
0R
0K
0D
b0 %
b0 ;
b0 I
#10180
0W
0a
0S
b0 '
b0 J
b0 X
